journal,vol,iss,pagefirst,table_names,n_tables,table_1_found,table_sorted_sequence,table_numbers_found,table_n_max,table_i_name_duplicates,tables_missing_from_sequence
aer,100,1,164,['1' '5' '' '8' '9' ''],6,True,"[1, 5, 8, 9]",True,9,[],"[2, 3, 4, 6, 7]"
aer,100,1,193,['' '' '3' '' '' ''],6,False,[3],True,3,[],"[1, 2]"
aer,100,1,274,[''],1,False,[],False,0,[],[]
aer,100,1,304,['1' '' '' '2' '3' '4' '5' '6' '7' ''],10,True,"[1, 2, 3, 4, 5, 6, 7]",True,7,[],[]
aer,100,1,337,['' '1' '' '4' '' '' ''],7,True,"[1, 4]",True,4,[],"[2, 3]"
aer,100,1,364,['' '' ''],3,False,[],False,0,[],[]
aer,100,1,394,[''],1,False,[],False,0,[],[]
aer,100,1,448,['' '' '' ''],4,False,[],False,0,[],[]
aer,100,1,491,[''],1,False,[],False,0,[],[]
aer,100,1,5,['' '' '1' '2' '4' '' '8'],7,True,"[1, 2, 4, 8]",True,8,[],"[3, 5, 6, 7]"
aer,100,1,541,['' '' '' ''],4,False,[],False,0,[],[]
aer,100,1,590,['1' '' '' '4' '5' '5'],6,True,"[1, 4, 5, 5]",True,5,[5],"[2, 3]"
aer,100,1,608,[''],1,False,[],False,0,[],[]
aer,100,1,618,['' '' ''],3,False,[],False,0,[],[]
aer,100,1,625,[''],1,False,[],False,0,[],[]
aer,100,1,628,['1'],1,True,[1],True,1,[],[]
aer,100,3,1238,[''],1,False,[],False,0,[],[]
aer,100,3,1277,[''],1,False,[],False,0,[],[]
aer,100,3,1283,[''],1,False,[],False,0,[],[]
aer,100,3,905,['1'],1,True,[1],True,1,[],[]
aer,100,3,984,['' '' '3' '4' '' '7' '9'],7,False,"[3, 4, 7, 9]",True,9,[],"[1, 2, 5, 6, 8]"
aer,100,4,1330,['1' '' '3' '3' '' '' '6'],7,True,"[1, 3, 3, 6]",True,6,[3],"[2, 4, 5]"
aer,100,4,1432,['' '' '3' '4' '' '' '6'],7,False,"[3, 4, 6]",True,6,[],"[1, 2, 5]"
aer,100,4,1556,['' '' ''],3,False,[],False,0,[],[]
aer,100,4,1673,['' ''],2,False,[],False,0,[],[]
aer,100,4,1725,['' ''],2,False,[],False,0,[],[]
aer,100,4,1759,['1' '2'],2,True,"[1, 2]",True,2,[],[]
aer,100,4,1826,['' '' '4' '5' '7'],5,False,"[4, 5, 7]",True,7,[],"[1, 2, 3, 6]"
aer,100,4,1847,['1' '' '' '4'],4,True,"[1, 4]",True,4,[],"[2, 3]"
aer,100,5,1967,['' '' '1' '' '' '6' '7' '' '' '' '10'],11,True,"[1, 6, 7, 10]",True,10,[],"[2, 3, 4, 5, 8, 9]"
aer,100,5,1999,['' '2' '3' '4' '5' '6' '' '10' '11' '13'],10,False,"[2, 3, 4, 5, 6, 10, 11, 13]",True,13,[],"[1, 7, 8, 9, 12]"
aer,100,5,2031,['1' '' '' '2' '' '4' '5' '' ''],9,True,"[1, 2, 4, 5]",True,5,[],[3]
aer,100,5,2093,['' '1' '' '3'],4,True,"[1, 3]",True,3,[],[2]
aer,100,5,2157,['' '1' '2' '3' '4' '5' '6' '7' '8' '9' '' '11'],12,True,"[1, 2, 3, 4, 5, 6, 7, 8, 9, 11]",True,11,[],[10]
aer,100,5,2261,['' '' '' '1' '2' '4' '5'],7,True,"[1, 2, 4, 5]",True,5,[],[3]
aer,100,5,2340,['' '' '' '' '10'],5,False,[10],True,10,[],"[1, 2, 3, 4, 5, 6, 7, 8, 9]"
aer,100,5,2478,[''],1,False,[],False,0,[],[]
aer,100,5,2510,['' '3' '' '5' '6' '6'],6,False,"[3, 5, 6, 6]",True,6,[6],"[1, 2, 4]"
aer,101,1,109,['' '' '' '' '1' '' '' ''],8,True,[1],True,1,[],[]
aer,101,1,196,['' '' '' '' '' '' ''],7,False,[],False,0,[],[]
aer,101,1,234,['1' '2' '' '' '' '' '' '5' '5'],9,True,"[1, 2, 5, 5]",True,5,[5],"[3, 4]"
aer,101,1,371,['' '' '' '' '2' '3' '4'],7,False,"[2, 3, 4]",True,4,[],[1]
aer,101,1,411,['3' '' '' '7' ''],5,False,"[3, 7]",True,7,[],"[1, 2, 4, 5, 6]"
aer,101,2,1012,['1'],1,True,[1],True,1,[],[]
aer,101,2,431,['' '' '1'],3,True,[1],True,1,[],[]
aer,101,2,470,['' '' '1' '' '' '' '5'],7,True,"[1, 5]",True,5,[],"[2, 3, 4]"
aer,101,2,844,['1' '1'],2,True,"[1, 1]",True,1,[1],[]
aer,101,2,877,['1' '' '' '5' '7' '8' '9'],7,True,"[1, 5, 7, 8, 9]",True,9,[],"[2, 3, 4, 6]"
aer,101,2,900,[''],1,False,[],False,0,[],[]
aer,101,2,948,['' '1' '' '3' '' ''],6,True,"[1, 3]",True,3,[],[2]
aer,101,2,975,['1' '2' '' '6' '7'],5,True,"[1, 2, 6, 7]",True,7,[],"[3, 4, 5]"
aer,101,2,991,['' '' '1' ''],4,True,[1],True,1,[],[]
aer,101,4,1211,['' '' '' '' '' '1' '' '' '4' '4'],10,True,"[1, 4, 4]",True,4,[4],"[2, 3]"
aer,101,4,1467,['' '1' '2' '4' '5' ''],6,True,"[1, 2, 4, 5]",True,5,[],[3]
aer,101,4,1601,['1' '' ''],3,True,[1],True,1,[],[]
aer,101,4,1616,['1' '2' '3' '' ''],5,True,"[1, 2, 3]",True,3,[],[]
aer,101,4,1629,['1' '2' '' ''],4,True,"[1, 2]",True,2,[],[]
aer,101,5,1649,['' '' '' '' '2' '3' '4' '5'],8,False,"[2, 3, 4, 5]",True,5,[],[1]
aer,101,5,1707,['2' '6' '' '' '12' 'a1'],6,False,"[2, 6, 12]",True,12,[],"[1, 3, 4, 5, 7, 8, 9, 10, 11]"
aer,101,5,1739,['' '' '3' '' '6' '7' '' 'a1'],8,False,"[3, 6, 7]",True,7,[],"[1, 2, 4, 5]"
aer,101,5,1872,['' '1' '2' '' '4' '' '5' '' '' '' '' '10' '10'],13,True,"[1, 2, 4, 5, 10, 10]",True,10,[10],"[3, 6, 7, 8, 9]"
aer,101,5,1912,['' '' '' '' ''],5,False,[],False,0,[],[]
aer,101,5,1933,['2a' '4' '' '' '' '' ''],7,False,[4],True,4,[],"[1, 2, 3]"
aer,101,5,2003,['' '' '3' '' '' '' '' '8' '9' '10' '11' ''],12,False,"[3, 8, 9, 10, 11]",True,11,[],"[1, 2, 4, 5, 6, 7]"
aer,101,5,2108,['' '' '1' '' '' '' '' ''],8,True,[1],True,1,[],[]
aer,101,5,2132,['' '1' '2' '' '' '6' ''],7,True,"[1, 2, 6]",True,6,[],"[3, 4, 5]"
aer,101,5,2248,['' '' '' '2' '' '' ''],7,False,[2],True,2,[],[1]
aer,101,6,2277,[''],1,False,[],False,0,[],[]
aer,101,6,2450,['1' '' '2' '3' '4' '5' '' '6' '' '' '' 'a2'],12,True,"[1, 2, 3, 4, 5, 6]",True,6,[],[]
aer,101,6,2487,['' '' '' '' '' '' 'a1'],7,False,[],False,0,[],[]
aer,101,6,2723,['' '' '1' '2' '2' '' '' '3' '4' ''],10,True,"[1, 2, 2, 3, 4]",True,4,[2],[]
aer,101,6,2754,['' '4' '5' '' ''],5,False,"[4, 5]",True,5,[],"[1, 2, 3]"
aer,101,6,2782,[''],1,False,[],False,0,[],[]
aer,101,6,2823,[''],1,False,[],False,0,[],[]
aer,101,6,2844,['' '' '' '' '' '2' '' '3' '4' ''],10,False,"[2, 3, 4]",True,4,[],[1]
aer,101,7,2873,['' '' '' ''],4,False,[],False,0,[],[]
aer,101,7,2923,['' '' '1' '' '' '' '' '4' '' '' ''],11,True,"[1, 4]",True,4,[],"[2, 3]"
aer,101,7,2955,[''],1,False,[],False,0,[],[]
aer,101,7,3019,['' '1' '2' '3'],4,True,"[1, 2, 3]",True,3,[],[]
aer,101,7,3047,['1' '3' '' '5' '' ''],6,True,"[1, 3, 5]",True,5,[],"[2, 4]"
aer,101,7,3109,['1' '' '' ''],4,True,[1],True,1,[],[]
aer,101,7,3162,['1'],1,True,[1],True,1,[],[]
aer,101,7,3221,['' '' '2' '3' '' '' '3' '' '' '' ''],11,False,"[2, 3, 3]",True,3,[3],[1]
aer,101,7,3308,['' '' ''],3,False,[],False,0,[],[]
aer,101,7,3330,['' '' '1' '2' '3' '5' '6' '7' '8'],9,True,"[1, 2, 3, 5, 6, 7, 8]",True,8,[],[4]
aer,101,7,3349,['1'],1,True,[1],True,1,[],[]
aer,99,4,1218,['1'],1,True,[1],True,1,[],[]
aer,99,4,1335,['' '' ''],3,False,[],False,0,[],[]
aer,99,4,1508,['' '' '' '3' '4'],5,False,"[3, 4]",True,4,[],"[1, 2]"
aer,99,4,1544,[''],1,False,[],False,0,[],[]
aer,99,4,1576,[''],1,False,[],False,0,[],[]
aer,99,4,1588,[''],1,False,[],False,0,[],[]
aer,99,4,1608,[''],1,False,[],False,0,[],[]
aer,99,4,1653,['' '2' '4'],3,False,"[2, 4]",True,4,[],"[1, 3]"
aer,99,4,1672,[''],1,False,[],False,0,[],[]
aer,99,4,1676,[''],1,False,[],False,0,[],[]
aer,99,5,1689,['' '1'],2,True,[1],True,1,[],[]
aer,99,5,1714,['' '3' '4' '5' '5'],5,False,"[3, 4, 5, 5]",True,5,[5],"[1, 2]"
aer,99,5,1808,[''],1,False,[],False,0,[],[]
aer,99,5,1850,['2' '4' '5' '' '9' '11' '' ''],8,False,"[2, 4, 5, 9, 11]",True,11,[],"[1, 3, 6, 7, 8, 10]"
aer,99,5,1899,['' '' '1'],3,True,[1],True,1,[],[]
aer,99,5,1925,['' '' ''],3,False,[],False,0,[],[]
aer,99,5,2012,[''],1,False,[],False,0,[],[]
aer,99,5,2085,['1'],1,True,[1],True,1,[],[]
aer,99,5,2096,['' '' '1a' '3a' '3b' '3b'],6,False,[],False,0,[],[]
aer,99,5,2120,['' '3' '' '5'],4,False,"[3, 5]",True,5,[],"[1, 2, 4]"
aer,99,5,2129,[''],1,False,[],False,0,[],[]
aer,99,5,2135,[''],1,False,[],False,0,[],[]
aer,99,5,2193,[''],1,False,[],False,0,[],[]
aer,99,5,2227,['1' '2' '' '4' '5'],5,True,"[1, 2, 4, 5]",True,5,[],[3]
aer,99,5,2247,['' ''],2,False,[],False,0,[],[]
aer,99,5,2258,['' '' '3'],3,False,[3],True,3,[],"[1, 2]"
aer,99,5,2267,['1' '2' '' '4'],4,True,"[1, 2, 4]",True,4,[],[3]
jpe,117,1,1,['1' '' '6' '' 'b1' 'b1'],6,True,"[1, 6]",True,6,[],"[2, 3, 4, 5]"
jpe,117,1,116,[''],1,False,[],False,0,[],[]
jpe,117,1,138,['' '' '3' '' 'a1'],5,False,[3],True,3,[],"[1, 2]"
jpe,117,1,38,['2' '3' '5'],3,False,"[2, 3, 5]",True,5,[],"[1, 4]"
jpe,117,1,87,['2' '3' '' '' ''],5,False,"[2, 3]",True,3,[],[1]
jpe,117,2,281,['2' ''],2,False,[2],True,2,[],[1]
jpe,117,2,324,['1' '' '5' '6'],4,True,"[1, 5, 6]",True,6,[],"[2, 3, 4]"
jpe,117,3,0.0,[''],1,False,[],False,0,[],[]
jpe,117,3,371,['' '' '' '' '5' ''],6,False,[5],True,5,[],"[1, 2, 3, 4]"
jpe,117,3,417,['' '2' '3' ''],4,False,"[2, 3]",True,3,[],[1]
jpe,117,3,504,['1' '' '4' '5' '6' '8' '' 'a2' '' ''],10,True,"[1, 4, 5, 6, 8]",True,8,[],"[2, 3, 7]"
jpe,117,3,555,['' '1' '5'],3,True,"[1, 5]",True,5,[],"[2, 3, 4]"
jpe,117,4,591,['2' '5' '6' 'a1' 'b1'],5,False,"[2, 5, 6]",True,6,[],"[1, 3, 4]"
jpe,117,4,668,['1' '' '' '4' '5' '7' '8' '9'],8,True,"[1, 4, 5, 7, 8, 9]",True,9,[],"[2, 3, 6]"
jpe,117,4,701,[''],1,False,[],False,0,[],[]
jpe,117,4,745,['1' '' '' '4' '' '' '' ''],8,True,"[1, 4]",True,4,[],"[2, 3]"
jpe,117,5,785,[''],1,False,[],False,0,[],[]
jpe,117,5,815,[''],1,False,[],False,0,[],[]
jpe,117,5,861,[''],1,False,[],False,0,[],[]
jpe,117,5,914,['' ''],2,False,[],False,0,[],[]
jpe,117,6,1031,['1' '2' '' '' '5' '6' '' ''],8,True,"[1, 2, 5, 6]",True,6,[],"[3, 4]"
jpe,117,6,1074,['' '3' '4'],3,False,"[3, 4]",True,4,[],"[1, 2]"
jpe,117,6,1140,[''],1,False,[],False,0,[],[]
jpe,117,6,1155,['1'],1,True,[1],True,1,[],[]
jpe,117,6,987,['' '' '' '4' '' '6'],6,False,"[4, 6]",True,6,[],"[1, 2, 3, 5]"
jpe,118,1,156,[''],1,False,[],False,0,[],[]
jpe,118,1,39,['2' '3'],2,False,"[2, 3]",True,3,[],[1]
jpe,118,1,76,[''],1,False,[],False,0,[],[]
jpe,118,2,189,[''],1,False,[],False,0,[],[]
jpe,118,2,274,['' '2' '4' '5'],4,False,"[2, 4, 5]",True,5,[],"[1, 3]"
jpe,118,3,409,['' '3' '4'],3,False,"[3, 4]",True,4,[],"[1, 2]"
jpe,118,3,433,['' '' '' '' ''],5,False,[],False,0,[],[]
jpe,118,3,536,['' '' '4' '' '' '' '10' 'a1' ''],9,False,"[4, 10]",True,10,[],"[1, 2, 3, 5, 6, 7, 8, 9]"
jpe,118,3,599,['' '' '5' '' '' '7' '' '' '' ''],10,False,"[5, 7]",True,7,[],"[1, 2, 3, 4, 6]"
jpe,118,4,649,[''],1,False,[],False,0,[],[]
jpe,118,4,681,[''],1,False,[],False,0,[],[]
jpe,118,4,723,[''],1,False,[],False,0,[],[]
jpe,118,4,747,[''],1,False,[],False,0,[],[]
jpe,118,5,833,['1' '2'],2,True,"[1, 2]",True,2,[],[]
jpe,118,5,866,[''],1,False,[],False,0,[],[]
jpe,118,5,908,[''],1,False,[],False,0,[],[]
jpe,118,5,949,[''],1,False,[],False,0,[],[]
jpe,118,5,988,['1' '2' '3' '5'],4,True,"[1, 2, 3, 5]",True,5,[],[4]
jpe,118,6,0.0,[''],1,False,[],False,0,[],[]
jpe,118,6,1037,[''],1,False,[],False,0,[],[]
jpe,118,6,1079,[''],1,False,[],False,0,[],[]
jpe,118,6,1151,['' 'a1'],2,False,[],False,0,[],[]
jpe,118,6,1200,[''],1,False,[],False,0,[],[]
jpe,119,1,78,[''],1,False,[],False,0,[],[]
jpe,119,2,183,[''],1,False,[],False,0,[],[]
jpe,119,2,212,['1' '2' ''],3,True,"[1, 2]",True,2,[],[]
jpe,119,2,242,['1'],1,True,[1],True,1,[],[]
jpe,119,2,325,['1' '' '4' '' '7' 'a1'],6,True,"[1, 4, 7]",True,7,[],"[2, 3, 5, 6]"
jpe,119,3,379,[''],1,False,[],False,0,[],[]
jpe,119,3,468,['' '2' ''],3,False,[2],True,2,[],[1]
jpe,119,3,565,[''],1,False,[],False,0,[],[]
jpe,119,4,617,[''],1,False,[],False,0,[],[]
jpe,119,4,639,['2' '3' '4' '5' '6' '7' '8'],7,False,"[2, 3, 4, 5, 6, 7, 8]",True,8,[],[1]
jpe,119,4,686,[''],1,False,[],False,0,[],[]
jpe,119,4,721,[''],1,False,[],False,0,[],[]
jpe,119,5,925,['' '3' '' 'a3'],4,False,[3],True,3,[],"[1, 2]"
jpe,119,5,959,[''],1,False,[],False,0,[],[]
jpe,119,5,982,['' '' '' ''],4,False,[],False,0,[],[]
jpe,119,6,0.0,['' '' ''],3,False,[],False,0,[],[]
jpe,119,6,1061,['' ''],2,False,[],False,0,[],[]
jpe,119,6,1104,[''],1,False,[],False,0,[],[]
jpe,119,6,1141,['1' '2' '3'],3,True,"[1, 2, 3]",True,3,[],[]
jpe,119,6,1201,['1' '3'],2,True,"[1, 3]",True,3,[],[2]
qje,124,1,1,['' '' '' '' '5' '6' '7' ''],8,False,"[5, 6, 7]",True,7,[],"[1, 2, 3, 4]"
qje,124,1,197,['1' '' '4' '6'],4,True,"[1, 4, 6]",True,6,[],"[2, 3, 5]"
qje,124,1,233,[''],1,False,[],False,0,[],[]
qje,124,1,267,[''],1,False,[],False,0,[],[]
qje,124,1,349,['' '' '' '3' '4' '5' '6' '' '8'],9,False,"[3, 4, 5, 6, 8]",True,8,[],"[1, 2, 7]"
qje,124,1,399,['1' '2' '4'],3,True,"[1, 2, 4]",True,4,[],[3]
qje,124,1,51,[''],1,False,[],False,0,[],[]
qje,124,2,425,['1' '2' '3' '' '' '' '' '' '' ''],10,True,"[1, 2, 3]",True,3,[],[]
qje,124,2,597,['' '' '' '5' ''],5,False,[5],True,5,[],"[1, 2, 3, 4]"
qje,124,2,735,['2' '' '5' '6'],4,False,"[2, 5, 6]",True,6,[],"[1, 3, 4]"
qje,124,2,771,['' '2' '' '4' '5' '' '7'],7,False,"[2, 4, 5, 7]",True,7,[],"[1, 3, 6]"
qje,124,2,809,['' '' '1' '2' '3' '4' ''],7,True,"[1, 2, 3, 4]",True,4,[],[]
qje,124,2,843,['1' '' '3' '' ''],5,True,"[1, 3]",True,3,[],[2]
qje,124,2,883,['' '2'],2,False,[2],True,2,[],[1]
qje,124,3,1011,['1' '2' '4'],3,True,"[1, 2, 4]",True,4,[],[3]
qje,124,3,1095,['' '1' '2' '2' '3' '4' '5' '6'],8,True,"[1, 2, 2, 3, 4, 5, 6]",True,6,[2],[]
qje,124,3,1133,['1' '' '' '' '' '' '9' '9' '9'],9,True,"[1, 9, 9, 9]",True,9,"[9, 9]","[2, 3, 4, 5, 6, 7, 8]"
qje,124,3,1221,['' '' '4'],3,False,[4],True,4,[],"[1, 2, 3]"
qje,124,3,1265,['1' '1' '' '2' '3' '4' '4' '5' '' '' '' ''],12,True,"[1, 1, 2, 3, 4, 4, 5]",True,5,"[1, 4]",[]
qje,124,3,1307,['1'],1,True,[1],True,1,[],[]
qje,124,3,1363,['1' '' '3' '6' '7' ''],6,True,"[1, 3, 6, 7]",True,7,[],"[2, 4, 5]"
qje,124,3,911,['a1'],1,False,[],False,0,[],[]
qje,124,4,1403,['1' '' '5' '7' '10' '11'],6,True,"[1, 5, 7, 10, 11]",True,11,[],"[2, 3, 4, 6, 8, 9]"
qje,124,4,1449,['1' '2' '' '3' '4' '5' '5' '6' '7' '8' '' ''],12,True,"[1, 2, 3, 4, 5, 5, 6, 7, 8]",True,8,[5],[]
qje,124,4,1497,['1' '1' '2' '3' '4' '' '' ''],8,True,"[1, 1, 2, 3, 4]",True,4,[1],[]
qje,124,4,1541,[''],1,False,[],False,0,[],[]
qje,124,4,1639,['2' '' ''],3,False,[2],True,2,[],[1]
qje,124,4,1729,['1' '3' '4' '9'],4,True,"[1, 3, 4, 9]",True,9,[],"[2, 5, 6, 7, 8]"
qje,124,4,1773,['' ''],2,False,[],False,0,[],[]
qje,124,4,1853,['1' '2' '3' '4' '6' '7'],6,True,"[1, 2, 3, 4, 6, 7]",True,7,[],[5]
qje,125,1,1,['1' '' '' '' '5' '' '' ''],8,True,"[1, 5]",True,5,[],"[2, 3, 4]"
qje,125,1,129,['1' '' '3'],3,True,"[1, 3]",True,3,[],[2]
qje,125,1,175,['' '' '2' '' '' '' '' ''],8,False,[2],True,2,[],[1]
qje,125,1,215,['1' '2' '2' '3' '' '4' '5' '5' '7' '7'],10,True,"[1, 2, 2, 3, 4, 5, 5, 7, 7]",True,7,"[2, 5, 7]",[6]
qje,125,1,417,['' '1' '2' '' 'a1' 'a2'],6,True,"[1, 2]",True,2,[],[]
qje,125,1,445,['' '' '5' '' ''],5,False,[5],True,5,[],"[1, 2, 3, 4]"
qje,125,1,47,[''],1,False,[],False,0,[],[]
qje,125,1,91,['1' '2' '3'],3,True,"[1, 2, 3]",True,3,[],[]
qje,125,2,483,[''],1,False,[],False,0,[],[]
qje,125,2,591,['1' '1' '2' '3' '' '' '' ''],8,True,"[1, 1, 2, 3]",True,3,[1],[]
qje,125,2,635,[''],1,False,[],False,0,[],[]
qje,125,2,675,['' '2' '3' '4' '' '' '6' '7' '' ''],10,False,"[2, 3, 4, 6, 7]",True,7,[],"[1, 5]"
qje,125,2,811,['1' '2' '4' '6'],4,True,"[1, 2, 4, 6]",True,6,[],"[3, 5]"
qje,125,2,829,[''],1,False,[],False,0,[],[]
qje,125,3,1015,['1' '4' '' ''],4,True,"[1, 4]",True,4,[],"[2, 3]"
qje,125,3,1051,['' '1' '' '' '' '5' '5' '' '' '' '' '9' '10' ''],14,True,"[1, 5, 5, 9, 10]",True,10,[5],"[2, 3, 4, 6, 7, 8]"
qje,125,3,1195,[''],1,False,[],False,0,[],[]
qje,125,3,1349,['1' '1' '' ''],4,True,"[1, 1]",True,1,[1],[]
qje,125,3,923,['' ''],2,False,[],False,0,[],[]
qje,125,4,1399,[''],1,False,[],False,0,[],[]
qje,125,4,1435,[''],1,False,[],False,0,[],[]
qje,125,4,1511,['' ''],2,False,[],False,0,[],[]
qje,125,4,1627,['' '' '7' '8' '' '' ''],7,False,"[7, 8]",True,8,[],"[1, 2, 3, 4, 5, 6]"
qje,125,4,1727,['1' '2' '' '' '' ''],6,True,"[1, 2]",True,2,[],[]
qje,125,4,1769,['1' '2' ''],3,True,"[1, 2]",True,2,[],[]
qje,125,4,1821,[''],1,False,[],False,0,[],[]
qje,126,1,1,['' '' '' ''],4,False,[],False,0,[],[]
qje,126,1,103,[''],1,False,[],False,0,[],[]
qje,126,1,145,['' '' '' '' '' ''],6,False,[],False,0,[],[]
qje,126,1,207,['' '' ''],3,False,[],False,0,[],[]
qje,126,1,259,['' '' '' '' '' ''],6,False,[],False,0,[],[]
qje,126,1,323,[''],1,False,[],False,0,[],[]
qje,126,1,373,['' '' '' '' ''],5,False,[],False,0,[],[]
qje,126,1,417,['' '' '' '2' '' '4' '4' 'a1' 'a1' ''],10,False,"[2, 4, 4]",True,4,[4],"[1, 3]"
qje,126,1,517,['' ''],2,False,[],False,0,[],[]
qje,126,2,557,[''],1,False,[],False,0,[],[]
qje,126,2,593,['' '2' '' '' '' '' '' '' '' '' '' '' ''],13,False,[2],True,2,[],[1]
qje,126,2,651,['' '' ''],3,False,[],False,0,[],[]
qje,126,2,749,['' '' '' '1' '' ''],6,True,[1],True,1,[],[]
qje,126,2,805,['' '' '' '' ''],5,False,[],False,0,[],[]
qje,126,2,857,['' ''],2,False,[],False,0,[],[]
qje,126,2,895,['1' '1' '2' '3' '4' '4' '5' '5' '6'],9,True,"[1, 1, 2, 3, 4, 4, 5, 5, 6]",True,6,"[1, 4, 5]",[]
qje,126,2,947,['' '' '' ''],4,False,[],False,0,[],[]
qje,126,2,987,['1' '2' '3' '4' '5' '6' '7' '8' '9' '' ''],11,True,"[1, 2, 3, 4, 5, 6, 7, 8, 9]",True,9,[],[]
qje,126,3,1213,[''],1,False,[],False,0,[],[]
qje,126,3,1271,['' '1' '2' '' '' ''],6,True,"[1, 2]",True,2,[],[]
qje,126,3,1319,['' '' ''],3,False,[],False,0,[],[]
qje,126,3,1375,['1' '' '' '' '' '4' '5' '5' '6' '6' '7' '7'],12,True,"[1, 4, 5, 5, 6, 6, 7, 7]",True,7,"[5, 6, 7]","[2, 3]"
qje,126,3,1411,['' '' '1' '2'],4,True,"[1, 2]",True,2,[],[]
qje,126,3,1485,['' '' '6' ''],4,False,[6],True,6,[],"[1, 2, 3, 4, 5]"
qje,126,4,1593,['' '' '1' '1' '2' '' '' '4' '5' '' '' '' '8' '' ''],15,True,"[1, 1, 2, 4, 5, 8]",True,8,[1],"[3, 6, 7]"
qje,126,4,1661,['' '' ''],3,False,[],False,0,[],[]
qje,126,4,1799,['' '1' '' '' '4' '' '6' '7' '8' ''],10,True,"[1, 4, 6, 7, 8]",True,8,[],"[2, 3, 5]"
qje,126,4,1841,['1' '2' '' '4' '4' '6' '6' '7'],8,True,"[1, 2, 4, 4, 6, 6, 7]",True,7,"[4, 6]","[3, 5]"
qje,126,4,1879,[''],1,False,[],False,0,[],[]
qje,126,4,1909,[''],1,False,[],False,0,[],[]
qje,126,4,1961,['1' '' '' '4' '' '5'],6,True,"[1, 4, 5]",True,5,[],"[2, 3]"
qje,126,4,2005,['' '1' '1' '2' '' '' '3' '' '5' ''],10,True,"[1, 1, 2, 3, 5]",True,5,[1],[4]
qje,126,4,2063,['' '' '' '' '3' '' '' '5' '6' '' ''],11,False,"[3, 5, 6]",True,6,[],"[1, 2, 4]"
qje,126,4,2117,['1'],1,True,[1],True,1,[],[]
qje,126,4,2125,['' '1'],2,True,[1],True,1,[],[]
qje,126,4,2133,[''],1,False,[],False,0,[],[]
