ra;journal_id;issue;year;article_page;first_author;num_authors;JEL;model;type;table_panel;type_emp;row;column;stars;main;coefficient;standard_deviation;T_stat;p_value
MS;American Economic Review;100.3;2010;763;Romer;2;E32. E62. H20. N12;no;other;1_1;reg;781;1;no;yes;;;-3.53;
MS;American Economic Review;100.3;2010;763;Romer;2;E32. E62. H20. N12;no;other;1_1;reg;783;2;no;yes;;;-3.53;
MS;American Economic Review;100.3;2010;763;Romer;2;E32. E62. H20. N12;no;other;1_1;reg;783;3;no;yes;;;-2.90;
MS;American Economic Review;100.3;2010;763;Romer;2;E32. E62. H20. N12;no;other;1_1;reg;784;4;no;yes;;;-2.80;
MS;American Economic Review;100.3;2010;763;Romer;2;E32. E62. H20. N12;no;other;1_2;reg;784;1;no;yes;;;-2.27;
MS;American Economic Review;100.3;2010;763;Romer;2;E32. E62. H20. N12;no;other;1_2;reg;784;2;no;yes;;;-2.79;
MS;American Economic Review;100.3;2010;763;Romer;2;E32. E62. H20. N12;no;other;1_2;reg;784;3;no;yes;;;-2.08;
MS;American Economic Review;100.3;2010;763;Romer;2;E32. E62. H20. N12;no;other;1_2;reg;785;4;no;yes;;;-2.74;
MS;American Economic Review;100.3;2010;763;Romer;2;E32. E62. H20. N12;no;other;1_2;reg;785;5;no;yes;;;-2.80;
MS;American Economic Review;100.3;2010;763;Romer;2;E32. E62. H20. N12;no;other;1_3;reg;786;1;no;yes;;;-2.92;
MS;American Economic Review;100.3;2010;763;Romer;2;E32. E62. H20. N12;no;other;1_3;reg;787;2;no;yes;;;1.03;
MS;American Economic Review;100.3;2010;763;Romer;2;E32. E62. H20. N12;no;other;1_4;reg;788;1;no;no;;;-2.32;
MS;American Economic Review;100.3;2010;763;Romer;2;E32. E62. H20. N12;no;other;1_4;reg;788;2;no;no;;;-2.48;
MS;American Economic Review;100.3;2010;763;Romer;2;E32. E62. H20. N12;no;other;1_4;reg;788;3;no;no;;;-2.80;
MS;American Economic Review;100.3;2010;763;Romer;2;E32. E62. H20. N12;no;other;1_4;reg;788;4;no;no;;;-2.84;
MS;American Economic Review;100.3;2010;763;Romer;2;E32. E62. H20. N12;no;other;1_4;reg;788;5;no;no;;;-2.23;
MS;American Economic Review;100.3;2010;763;Romer;2;E32. E62. H20. N12;no;other;1_4;reg;788;6;no;no;;;-2.68;
MS;American Economic Review;100.3;2010;763;Romer;2;E32. E62. H20. N12;no;other;1_4;reg;788;7;no;no;;;-2.93;
MS;American Economic Review;100.3;2010;763;Romer;2;E32. E62. H20. N12;no;other;1_4;reg;788;8;no;no;;;-3.55;
MS;American Economic Review;100.3;2010;763;Romer;2;E32. E62. H20. N12;no;other;1_5;reg;789;1;no;no;;;-2.53;
MS;American Economic Review;100.3;2010;763;Romer;2;E32. E62. H20. N12;no;other;1_5;reg;790;2;no;no;;;-2.05;
MS;American Economic Review;100.3;2010;763;Romer;2;E32. E62. H20. N12;no;other;1_5;reg;790;3;no;no;;;-2.73;
MS;American Economic Review;100.3;2010;763;Romer;2;E32. E62. H20. N12;no;other;1;reg;1;1;no;no;-2.75;1.07;;
MS;American Economic Review;100.3;2010;763;Romer;2;E32. E62. H20. N12;no;other;1;reg;2;1;no;no;-2.54;1.07;;
MS;American Economic Review;100.3;2010;763;Romer;2;E32. E62. H20. N12;no;other;1;reg;3;1;no;no;-2.32;0.96;;
MS;American Economic Review;100.3;2010;763;Romer;2;E32. E62. H20. N12;no;other;1;reg;4;1;no;no;-2.18;0.80;;
MS;American Economic Review;100.3;2010;763;Romer;2;E32. E62. H20. N12;no;other;1;reg;5;1;no;no;-3.61;0.90;;
MS;American Economic Review;100.3;2010;763;Romer;2;E32. E62. H20. N12;no;other;1;reg;6;1;no;no;-3.07;1.00;;
MS;American Economic Review;100.3;2010;763;Romer;2;E32. E62. H20. N12;no;other;1;reg;1;2;no;no;-2.93;1.05;;
MS;American Economic Review;100.3;2010;763;Romer;2;E32. E62. H20. N12;no;other;1;reg;2;2;no;no;-2.93;1.05;;
MS;American Economic Review;100.3;2010;763;Romer;2;E32. E62. H20. N12;no;other;1;reg;3;2;no;no;-2.93;1.05;;
MS;American Economic Review;100.3;2010;763;Romer;2;E32. E62. H20. N12;no;other;1;reg;4;2;no;no;-2.76;1.52;;
MS;American Economic Review;100.3;2010;763;Romer;2;E32. E62. H20. N12;no;other;1;reg;5;2;no;no;-2.72;1.42;;
MS;American Economic Review;100.3;2010;763;Romer;2;E32. E62. H20. N12;no;other;1;reg;6;2;no;no;-2.93;1.05;;
MS;American Economic Review;100.3;2010;763;Romer;2;E32. E62. H20. N12;no;other;2_1;reg;794;1;no;no;;;-2.22;
MS;American Economic Review;100.3;2010;763;Romer;2;E32. E62. H20. N12;no;other;2_1;reg;794;2;no;no;;;1.17;
MS;American Economic Review;100.3;2010;763;Romer;2;E32. E62. H20. N12;no;other;2_2;reg;795;1;no;no;;;-2.19;
MS;American Economic Review;100.3;2010;763;Romer;2;E32. E62. H20. N12;no;other;2_2;reg;795;2;no;no;;;-3.61;
MS;American Economic Review;100.3;2010;763;Romer;2;E32. E62. H20. N12;no;other;2_3;reg;797;1;no;no;;;-3.06;
MS;American Economic Review;100.3;2010;763;Romer;2;E32. E62. H20. N12;no;other;2_3;reg;797;2;no;no;;;-3.35;
MS;American Economic Review;100.3;2010;763;Romer;2;E32. E62. H20. N12;no;other;2_3;reg;798;1;no;no;;;-3.12;
MS;American Economic Review;100.3;2010;763;Romer;2;E32. E62. H20. N12;no;other;2_3;reg;798;2;no;no;;;-2.87;
MS;American Economic Review;100.3;2010;763;Romer;2;E32. E62. H20. N12;no;other;2_3;reg;798;3;no;no;;;-2.48;
MS;American Economic Review;100.3;2010;763;Romer;2;E32. E62. H20. N12;no;other;2_3;reg;798;4;no;no;;;-2.86;
MS;American Economic Review;100.3;2010;763;Romer;2;E32. E62. H20. N12;no;other;2_3;reg;798;5;no;no;;;-2.82;
MS;American Economic Review;100.3;2010;763;Romer;2;E32. E62. H20. N12;no;other;2_3;reg;798;6;no;no;;;-1.47;
MS;American Economic Review;100.3;2010;763;Romer;2;E32. E62. H20. N12;no;other;2_3;reg;798;7;no;no;;;2.08;
MS;American Economic Review;100.3;2010;763;Romer;2;E32. E62. H20. N12;no;other;2_3;reg;798;8;no;no;;;-3.62;
MS;American Economic Review;100.3;2010;837;Fowlie;1;L51. L94. L98. Q53. Q53;no;other;4;logit;1;1;yes;yes;-2.31;0.21;;
MS;American Economic Review;100.3;2010;837;Fowlie;1;L51. L94. L98. Q53. Q53;no;other;4;logit;1;2;yes;yes;-1.50;0.37;;
MS;American Economic Review;100.3;2010;837;Fowlie;1;L51. L94. L98. Q53. Q53;no;other;4;logit;1;3;yes;yes;-2.67;0.39;;
MS;American Economic Review;100.3;2010;837;Fowlie;1;L51. L94. L98. Q53. Q53;no;other;4;logit;1;4;yes;yes;-2.46;0.30;;
MS;American Economic Review;100.3;2010;837;Fowlie;1;L51. L94. L98. Q53. Q53;no;other;4;logit;1;5;yes;yes;-0.41;0.61;;
MS;American Economic Review;100.3;2010;837;Fowlie;1;L51. L94. L98. Q53. Q53;no;other;4;logit;1;6;yes;yes;-3.15;0.60;;
MS;American Economic Review;100.3;2010;837;Fowlie;1;L51. L94. L98. Q53. Q53;no;other;4;logit;2;1;yes;yes;-2.06;0.16;;
MS;American Economic Review;100.3;2010;837;Fowlie;1;L51. L94. L98. Q53. Q53;no;other;4;logit;2;2;yes;yes;-1.54;0.29;;
MS;American Economic Review;100.3;2010;837;Fowlie;1;L51. L94. L98. Q53. Q53;no;other;4;logit;2;3;yes;yes;-1.91;0.26;;
MS;American Economic Review;100.3;2010;837;Fowlie;1;L51. L94. L98. Q53. Q53;no;other;4;logit;2;4;yes;yes;-2.06;0.18;;
MS;American Economic Review;100.3;2010;837;Fowlie;1;L51. L94. L98. Q53. Q53;no;other;4;logit;2;5;yes;yes;-1.48;0.39;;
MS;American Economic Review;100.3;2010;837;Fowlie;1;L51. L94. L98. Q53. Q53;no;other;4;logit;2;6;yes;yes;-2.08;0.29;;
MS;American Economic Review;100.3;2010;837;Fowlie;1;L51. L94. L98. Q53. Q53;no;other;4;logit;3;1;yes;yes;-2.03;0.19;;
MS;American Economic Review;100.3;2010;837;Fowlie;1;L51. L94. L98. Q53. Q53;no;other;4;logit;3;2;yes;yes;-1.55;0.37;;
MS;American Economic Review;100.3;2010;837;Fowlie;1;L51. L94. L98. Q53. Q53;no;other;4;logit;3;3;yes;yes;-2.21;0.30;;
MS;American Economic Review;100.3;2010;837;Fowlie;1;L51. L94. L98. Q53. Q53;no;other;4;logit;3;4;yes;yes;-1.97;0.22;;
MS;American Economic Review;100.3;2010;837;Fowlie;1;L51. L94. L98. Q53. Q53;no;other;4;logit;3;5;yes;yes;-0.96;0.46;;
MS;American Economic Review;100.3;2010;837;Fowlie;1;L51. L94. L98. Q53. Q53;no;other;4;logit;3;6;yes;yes;-2.42;0.31;;
MS;American Economic Review;100.3;2010;837;Fowlie;1;L51. L94. L98. Q53. Q53;no;other;4;logit;4;1;yes;yes;-0.31;0.05;;
MS;American Economic Review;100.3;2010;837;Fowlie;1;L51. L94. L98. Q53. Q53;no;other;4;logit;4;2;yes;yes;-0.19;0.07;;
MS;American Economic Review;100.3;2010;837;Fowlie;1;L51. L94. L98. Q53. Q53;no;other;4;logit;4;3;yes;yes;-0.28;0.12;;
MS;American Economic Review;100.3;2010;837;Fowlie;1;L51. L94. L98. Q53. Q53;no;other;4;logit;4;4;yes;yes;-0.96;0.14;;
MS;American Economic Review;100.3;2010;837;Fowlie;1;L51. L94. L98. Q53. Q53;no;other;4;logit;4;5;yes;yes;-1.21;0.25;;
MS;American Economic Review;100.3;2010;837;Fowlie;1;L51. L94. L98. Q53. Q53;no;other;4;logit;4;6;yes;yes;-0.72;0.14;;
MS;American Economic Review;100.3;2010;837;Fowlie;1;L51. L94. L98. Q53. Q53;no;other;4;logit;5;1;yes;yes;0.01;0.02;;
MS;American Economic Review;100.3;2010;837;Fowlie;1;L51. L94. L98. Q53. Q53;no;other;4;logit;5;2;yes;yes;-0.06;0.03;;
MS;American Economic Review;100.3;2010;837;Fowlie;1;L51. L94. L98. Q53. Q53;no;other;4;logit;5;3;yes;yes;0.01;0.06;;
MS;American Economic Review;100.3;2010;837;Fowlie;1;L51. L94. L98. Q53. Q53;no;other;4;logit;5;4;yes;yes;-0.23;0.05;;
MS;American Economic Review;100.3;2010;837;Fowlie;1;L51. L94. L98. Q53. Q53;no;other;4;logit;5;5;yes;yes;-0.78;0.21;;
MS;American Economic Review;100.3;2010;837;Fowlie;1;L51. L94. L98. Q53. Q53;no;other;4;logit;5;6;yes;yes;-0.11;0.07;;
MS;American Economic Review;100.3;2010;837;Fowlie;1;L51. L94. L98. Q53. Q53;no;other;4;logit;6;1;yes;yes;-0.02;0.01;;
MS;American Economic Review;100.3;2010;837;Fowlie;1;L51. L94. L98. Q53. Q53;no;other;4;logit;6;2;yes;yes;-0.04;0.02;;
MS;American Economic Review;100.3;2010;837;Fowlie;1;L51. L94. L98. Q53. Q53;no;other;4;logit;6;3;yes;yes;-0.02;0.03;;
MS;American Economic Review;100.3;2010;837;Fowlie;1;L51. L94. L98. Q53. Q53;no;other;4;logit;6;4;yes;yes;-0.14;0.02;;
MS;American Economic Review;100.3;2010;837;Fowlie;1;L51. L94. L98. Q53. Q53;no;other;4;logit;6;5;yes;yes;-0.25;0.07;;
MS;American Economic Review;100.3;2010;837;Fowlie;1;L51. L94. L98. Q53. Q53;no;other;4;logit;6;6;yes;yes;-0.09;0.04;;
MS;American Economic Review;100.3;2010;837;Fowlie;1;L51. L94. L98. Q53. Q53;no;other;4;logit;7;1;yes;yes;-0.06;0.01;;
MS;American Economic Review;100.3;2010;837;Fowlie;1;L51. L94. L98. Q53. Q53;no;other;4;logit;7;4;yes;yes;-0.11;0.05;;
MS;American Economic Review;100.3;2010;837;Fowlie;1;L51. L94. L98. Q53. Q53;no;other;4;logit;8;4;yes;yes;0.68;0.11;;
MS;American Economic Review;100.3;2010;837;Fowlie;1;L51. L94. L98. Q53. Q53;no;other;4;logit;8;5;yes;yes;1.68;0.35;;
MS;American Economic Review;100.3;2010;837;Fowlie;1;L51. L94. L98. Q53. Q53;no;other;4;logit;8;6;yes;yes;0.42;0.11;;
MS;American Economic Review;100.3;2010;837;Fowlie;1;L51. L94. L98. Q53. Q53;no;other;4;logit;9;4;yes;yes;0.23;0.05;;
MS;American Economic Review;100.3;2010;837;Fowlie;1;L51. L94. L98. Q53. Q53;no;other;4;logit;9;5;yes;yes;0.52;0.13;;
MS;American Economic Review;100.3;2010;837;Fowlie;1;L51. L94. L98. Q53. Q53;no;other;4;logit;9;6;yes;yes;0.10;0.03;;
MS;American Economic Review;100.3;2010;837;Fowlie;1;L51. L94. L98. Q53. Q53;no;other;4;logit;10;1;yes;yes;0.32;0.15;;
MS;American Economic Review;100.3;2010;837;Fowlie;1;L51. L94. L98. Q53. Q53;no;other;4;logit;10;4;yes;yes;0.19;0.14;;
MS;American Economic Review;100.3;2010;837;Fowlie;1;L51. L94. L98. Q53. Q53;no;other;4;logit;11;1;yes;yes;-0.33;0.08;;
MS;American Economic Review;100.3;2010;837;Fowlie;1;L51. L94. L98. Q53. Q53;no;other;4;logit;11;4;yes;yes;-0.51;0.07;;
MS;American Economic Review;100.3;2010;837;Fowlie;1;L51. L94. L98. Q53. Q53;no;other;5;logit;1;1;no;no;-0.96;0.68;;
MS;American Economic Review;100.3;2010;837;Fowlie;1;L51. L94. L98. Q53. Q53;no;other;5;logit;1;2;no;no;-0.89;0.39;;
MS;American Economic Review;100.3;2010;837;Fowlie;1;L51. L94. L98. Q53. Q53;no;other;5;logit;1;5;no;no;-0.72;0.42;;
MS;American Economic Review;100.3;2010;837;Fowlie;1;L51. L94. L98. Q53. Q53;no;other;5;logit;1;6;no;no;-0.71;0.24;;
MS;American Economic Review;100.3;2010;837;Fowlie;1;L51. L94. L98. Q53. Q53;no;other;5;logit;2;1;no;no;-0.23;0.20;;
MS;American Economic Review;100.3;2010;837;Fowlie;1;L51. L94. L98. Q53. Q53;no;other;5;logit;2;2;no;no;-0.24;0.11;;
MS;American Economic Review;100.3;2010;837;Fowlie;1;L51. L94. L98. Q53. Q53;no;other;5;logit;2;5;no;no;-0.11;0.08;;
MS;American Economic Review;100.3;2010;837;Fowlie;1;L51. L94. L98. Q53. Q53;no;other;5;logit;2;6;no;no;-0.11;0.05;;
MS;American Economic Review;100.3;2010;837;Fowlie;1;L51. L94. L98. Q53. Q53;no;other;5;logit;3;1;no;no;-0.81;0.57;;
MS;American Economic Review;100.3;2010;837;Fowlie;1;L51. L94. L98. Q53. Q53;no;other;5;logit;3;2;no;no;-0.76;0.34;;
MS;American Economic Review;100.3;2010;837;Fowlie;1;L51. L94. L98. Q53. Q53;no;other;5;logit;3;3;no;no;-1.21;1.68;;
MS;American Economic Review;100.3;2010;837;Fowlie;1;L51. L94. L98. Q53. Q53;no;other;5;logit;3;4;no;no;-1.13;1.14;;
MS;American Economic Review;100.3;2010;837;Fowlie;1;L51. L94. L98. Q53. Q53;no;other;5;logit;4;1;no;no;-0.28;0.17;;
MS;American Economic Review;100.3;2010;837;Fowlie;1;L51. L94. L98. Q53. Q53;no;other;5;logit;4;2;no;no;-0.25;0.13;;
MS;American Economic Review;100.3;2010;837;Fowlie;1;L51. L94. L98. Q53. Q53;no;other;5;logit;4;3;no;no;-0.78;0.52;;
MS;American Economic Review;100.3;2010;837;Fowlie;1;L51. L94. L98. Q53. Q53;no;other;5;logit;4;4;no;no;-0.82;0.36;;
MS;American Economic Review;100.3;2010;837;Fowlie;1;L51. L94. L98. Q53. Q53;no;other;5;logit;5;1;no;no;-1.98;1.39;;
MS;American Economic Review;100.3;2010;837;Fowlie;1;L51. L94. L98. Q53. Q53;no;other;5;logit;5;2;no;no;-2.18;0.71;;
MS;American Economic Review;100.3;2010;837;Fowlie;1;L51. L94. L98. Q53. Q53;no;other;5;logit;6;1;no;no;-0.48;0.70;;
MS;American Economic Review;100.3;2010;837;Fowlie;1;L51. L94. L98. Q53. Q53;no;other;5;logit;6;2;no;no;-0.40;0.32;;
MS;American Economic Review;100.3;2010;837;Fowlie;1;L51. L94. L98. Q53. Q53;no;other;6A;logit;1;1;no;no;-1.21;1.43;;
MS;American Economic Review;100.3;2010;837;Fowlie;1;L51. L94. L98. Q53. Q53;no;other;6A;logit;1;2;no;no;-0.12;0.19;;
MS;American Economic Review;100.3;2010;837;Fowlie;1;L51. L94. L98. Q53. Q53;no;other;6A;logit;1;3;no;no;-3.47;6.96;;
MS;American Economic Review;100.3;2010;837;Fowlie;1;L51. L94. L98. Q53. Q53;no;other;6A;logit;1;4;no;no;-2.25;3.50;;
MS;American Economic Review;100.3;2010;837;Fowlie;1;L51. L94. L98. Q53. Q53;no;other;6A;logit;2;1;no;no;-1.65;2.51;;
MS;American Economic Review;100.3;2010;837;Fowlie;1;L51. L94. L98. Q53. Q53;no;other;6A;logit;2;2;no;no;-0.18;0.37;;
MS;American Economic Review;100.3;2010;837;Fowlie;1;L51. L94. L98. Q53. Q53;no;other;6A;logit;2;3;no;no;-1.39;3.52;;
MS;American Economic Review;100.3;2010;837;Fowlie;1;L51. L94. L98. Q53. Q53;no;other;6A;logit;2;4;no;no;-0.87;2.25;;
MS;American Economic Review;100.3;2010;837;Fowlie;1;L51. L94. L98. Q53. Q53;no;other;6A;logit;3;3;no;no;-8.32;14.71;;
MS;American Economic Review;100.3;2010;837;Fowlie;1;L51. L94. L98. Q53. Q53;no;other;6A;logit;3;4;no;no;-6.30;9.06;;
MS;American Economic Review;100.3;2010;837;Fowlie;1;L51. L94. L98. Q53. Q53;no;other;6A;logit;4;1;no;no;-9.73;9.32;;
MS;American Economic Review;100.3;2010;837;Fowlie;1;L51. L94. L98. Q53. Q53;no;other;6A;logit;4;2;no;no;-0.90;1.08;;
MS;American Economic Review;100.3;2010;837;Fowlie;1;L51. L94. L98. Q53. Q53;no;other;6A;logit;4;3;no;no;-2.15;3.95;;
MS;American Economic Review;100.3;2010;837;Fowlie;1;L51. L94. L98. Q53. Q53;no;other;6A;logit;4;4;no;no;-1.02;0.78;;
MS;American Economic Review;100.3;2010;837;Fowlie;1;L51. L94. L98. Q53. Q53;no;other;6A;logit;5;1;no;no;-1.43;1.10;;
MS;American Economic Review;100.3;2010;837;Fowlie;1;L51. L94. L98. Q53. Q53;no;other;6A;logit;5;2;no;no;-0.16;0.27;;
MS;American Economic Review;100.3;2010;837;Fowlie;1;L51. L94. L98. Q53. Q53;no;other;6A;logit;5;3;no;no;-4.53;8.92;;
MS;American Economic Review;100.3;2010;837;Fowlie;1;L51. L94. L98. Q53. Q53;no;other;6A;logit;5;4;no;no;-5.48;7.16;;
MS;American Economic Review;100.3;2010;837;Fowlie;1;L51. L94. L98. Q53. Q53;no;other;6B;logit;1;1;no;no;-0.36;0.49;;
MS;American Economic Review;100.3;2010;837;Fowlie;1;L51. L94. L98. Q53. Q53;no;other;6B;logit;1;2;no;no;-0.29;0.39;;
MS;American Economic Review;100.3;2010;837;Fowlie;1;L51. L94. L98. Q53. Q53;no;other;6B;logit;1;3;no;no;-2.17;3.00;;
MS;American Economic Review;100.3;2010;837;Fowlie;1;L51. L94. L98. Q53. Q53;no;other;6B;logit;1;4;no;no;-2.84;4.37;;
MS;American Economic Review;100.3;2010;837;Fowlie;1;L51. L94. L98. Q53. Q53;no;other;6B;logit;2;1;no;no;-0.50;0.80;;
MS;American Economic Review;100.3;2010;837;Fowlie;1;L51. L94. L98. Q53. Q53;no;other;6B;logit;2;2;no;no;-0.36;0.90;;
MS;American Economic Review;100.3;2010;837;Fowlie;1;L51. L94. L98. Q53. Q53;no;other;6B;logit;2;3;no;no;-0.78;1.56;;
MS;American Economic Review;100.3;2010;837;Fowlie;1;L51. L94. L98. Q53. Q53;no;other;6B;logit;2;4;no;no;-1.12;3.08;;
MS;American Economic Review;100.3;2010;837;Fowlie;1;L51. L94. L98. Q53. Q53;no;other;6B;logit;3;3;no;no;-3.98;6.70;;
MS;American Economic Review;100.3;2010;837;Fowlie;1;L51. L94. L98. Q53. Q53;no;other;6B;logit;3;4;no;no;-8.39;12.65;;
MS;American Economic Review;100.3;2010;837;Fowlie;1;L51. L94. L98. Q53. Q53;no;other;6B;logit;4;1;no;no;-2.98;2.71;;
MS;American Economic Review;100.3;2010;837;Fowlie;1;L51. L94. L98. Q53. Q53;no;other;6B;logit;4;2;no;no;-2.04;2.20;;
MS;American Economic Review;100.3;2010;837;Fowlie;1;L51. L94. L98. Q53. Q53;no;other;6B;logit;4;3;no;no;-1.41;1.47;;
MS;American Economic Review;100.3;2010;837;Fowlie;1;L51. L94. L98. Q53. Q53;no;other;6B;logit;4;4;no;no;-1.24;1.24;;
MS;American Economic Review;100.3;2010;837;Fowlie;1;L51. L94. L98. Q53. Q53;no;other;6B;logit;5;1;no;no;-0.45;0.41;;
MS;American Economic Review;100.3;2010;837;Fowlie;1;L51. L94. L98. Q53. Q53;no;other;6B;logit;5;2;no;no;-0.37;0.46;;
MS;American Economic Review;100.3;2010;837;Fowlie;1;L51. L94. L98. Q53. Q53;no;other;6B;logit;5;3;no;no;-3.00;3.80;;
MS;American Economic Review;100.3;2010;837;Fowlie;1;L51. L94. L98. Q53. Q53;no;other;6B;logit;5;4;no;no;-6.99;10.14;;
;;;;;;;;;;;;;;;;;;;
;;;;;;;;;;;;;;;;;;;
;;;;;;;;;;;;;;;;;;;
;;;;;;;;;;;;;;;;;;;
;;;;;;;;;;;;;;;;;;;
;;;;;;;;;;;;;;;;;;;
;;;;;;;;;;;;;;;;;;;
;;;;;;;;;;;;;;;;;;;
;;;;;;;;;;;;;;;;;;;
;;;;;;;;;;;;;;;;;;;
;;;;;;;;;;;;;;;;;;;
;;;;;;;;;;;;;;;;;;;
;;;;;;;;;;;;;;;;;;;
;;;;;;;;;;;;;;;;;;;
;;;;;;;;;;;;;;;;;;;
;;;;;;;;;;;;;;;;;;;
;;;;;;;;;;;;;;;;;;;
;;;;;;;;;;;;;;;;;;;
;;;;;;;;;;;;;;;;;;;
;;;;;;;;;;;;;;;;;;;
;;;;;;;;;;;;;;;;;;;
;;;;;;;;;;;;;;;;;;;
;;;;;;;;;;;;;;;;;;;
;;;;;;;;;;;;;;;;;;;
;;;;;;;;;;;;;;;;;;;
;;;;;;;;;;;;;;;;;;;
;;;;;;;;;;;;;;;;;;;
;;;;;;;;;;;;;;;;;;;
;;;;;;;;;;;;;;;;;;;
;;;;;;;;;;;;;;;;;;;
;;;;;;;;;;;;;;;;;;;
;;;;;;;;;;;;;;;;;;;
;;;;;;;;;;;;;;;;;;;
;;;;;;;;;;;;;;;;;;;
;;;;;;;;;;;;;;;;;;;
;;;;;;;;;;;;;;;;;;;
;;;;;;;;;;;;;;;;;;;
;;;;;;;;;;;;;;;;;;;
;;;;;;;;;;;;;;;;;;;
;;;;;;;;;;;;;;;;;;;
;;;;;;;;;;;;;;;;;;;
;;;;;;;;;;;;;;;;;;;
;;;;;;;;;;;;;;;;;;;
;;;;;;;;;;;;;;;;;;;
;;;;;;;;;;;;;;;;;;;
;;;;;;;;;;;;;;;;;;;
;;;;;;;;;;;;;;;;;;;
;;;;;;;;;;;;;;;;;;;
;;;;;;;;;;;;;;;;;;;
;;;;;;;;;;;;;;;;;;;
;;;;;;;;;;;;;;;;;;;
;;;;;;;;;;;;;;;;;;;
;;;;;;;;;;;;;;;;;;;
;;;;;;;;;;;;;;;;;;;
;;;;;;;;;;;;;;;;;;;
;;;;;;;;;;;;;;;;;;;
;;;;;;;;;;;;;;;;;;;
;;;;;;;;;;;;;;;;;;;
;;;;;;;;;;;;;;;;;;;
;;;;;;;;;;;;;;;;;;;
;;;;;;;;;;;;;;;;;;;
;;;;;;;;;;;;;;;;;;;
;;;;;;;;;;;;;;;;;;;
;;;;;;;;;;;;;;;;;;;
;;;;;;;;;;;;;;;;;;;
;;;;;;;;;;;;;;;;;;;
;;;;;;;;;;;;;;;;;;;
;;;;;;;;;;;;;;;;;;;
;;;;;;;;;;;;;;;;;;;
;;;;;;;;;;;;;;;;;;;
;;;;;;;;;;;;;;;;;;;
;;;;;;;;;;;;;;;;;;;
;;;;;;;;;;;;;;;;;;;
;;;;;;;;;;;;;;;;;;;
;;;;;;;;;;;;;;;;;;;
;;;;;;;;;;;;;;;;;;;
;;;;;;;;;;;;;;;;;;;
;;;;;;;;;;;;;;;;;;;
;;;;;;;;;;;;;;;;;;;
;;;;;;;;;;;;;;;;;;;
;;;;;;;;;;;;;;;;;;;
;;;;;;;;;;;;;;;;;;;
;;;;;;;;;;;;;;;;;;;
;;;;;;;;;;;;;;;;;;;
;;;;;;;;;;;;;;;;;;;
;;;;;;;;;;;;;;;;;;;
;;;;;;;;;;;;;;;;;;;
;;;;;;;;;;;;;;;;;;;
;;;;;;;;;;;;;;;;;;;
;;;;;;;;;;;;;;;;;;;
;;;;;;;;;;;;;;;;;;;
;;;;;;;;;;;;;;;;;;;
;;;;;;;;;;;;;;;;;;;
;;;;;;;;;;;;;;;;;;;
;;;;;;;;;;;;;;;;;;;
;;;;;;;;;;;;;;;;;;;
;;;;;;;;;;;;;;;;;;;
;;;;;;;;;;;;;;;;;;;
;;;;;;;;;;;;;;;;;;;
;;;;;;;;;;;;;;;;;;;
;;;;;;;;;;;;;;;;;;;
;;;;;;;;;;;;;;;;;;;
;;;;;;;;;;;;;;;;;;;
;;;;;;;;;;;;;;;;;;;
;;;;;;;;;;;;;;;;;;;
;;;;;;;;;;;;;;;;;;;
;;;;;;;;;;;;;;;;;;;
;;;;;;;;;;;;;;;;;;;
;;;;;;;;;;;;;;;;;;;
;;;;;;;;;;;;;;;;;;;
;;;;;;;;;;;;;;;;;;;
;;;;;;;;;;;;;;;;;;;
;;;;;;;;;;;;;;;;;;;
;;;;;;;;;;;;;;;;;;;
;;;;;;;;;;;;;;;;;;;
;;;;;;;;;;;;;;;;;;;
;;;;;;;;;;;;;;;;;;;
;;;;;;;;;;;;;;;;;;;
;;;;;;;;;;;;;;;;;;;
;;;;;;;;;;;;;;;;;;;
;;;;;;;;;;;;;;;;;;;
;;;;;;;;;;;;;;;;;;;
;;;;;;;;;;;;;;;;;;;
;;;;;;;;;;;;;;;;;;;
;;;;;;;;;;;;;;;;;;;
;;;;;;;;;;;;;;;;;;;
;;;;;;;;;;;;;;;;;;;
;;;;;;;;;;;;;;;;;;;
;;;;;;;;;;;;;;;;;;;
;;;;;;;;;;;;;;;;;;;
;;;;;;;;;;;;;;;;;;;
;;;;;;;;;;;;;;;;;;;
;;;;;;;;;;;;;;;;;;;
;;;;;;;;;;;;;;;;;;;
;;;;;;;;;;;;;;;;;;;
;;;;;;;;;;;;;;;;;;;
;;;;;;;;;;;;;;;;;;;
;;;;;;;;;;;;;;;;;;;
;;;;;;;;;;;;;;;;;;;
;;;;;;;;;;;;;;;;;;;
;;;;;;;;;;;;;;;;;;;
;;;;;;;;;;;;;;;;;;;
;;;;;;;;;;;;;;;;;;;
;;;;;;;;;;;;;;;;;;;
;;;;;;;;;;;;;;;;;;;
;;;;;;;;;;;;;;;;;;;
;;;;;;;;;;;;;;;;;;;
;;;;;;;;;;;;;;;;;;;
;;;;;;;;;;;;;;;;;;;
;;;;;;;;;;;;;;;;;;;
;;;;;;;;;;;;;;;;;;;
;;;;;;;;;;;;;;;;;;;
;;;;;;;;;;;;;;;;;;;
;;;;;;;;;;;;;;;;;;;
;;;;;;;;;;;;;;;;;;;
;;;;;;;;;;;;;;;;;;;
;;;;;;;;;;;;;;;;;;;
;;;;;;;;;;;;;;;;;;;
;;;;;;;;;;;;;;;;;;;
;;;;;;;;;;;;;;;;;;;
;;;;;;;;;;;;;;;;;;;
;;;;;;;;;;;;;;;;;;;
;;;;;;;;;;;;;;;;;;;
;;;;;;;;;;;;;;;;;;;
;;;;;;;;;;;;;;;;;;;
;;;;;;;;;;;;;;;;;;;
;;;;;;;;;;;;;;;;;;;
;;;;;;;;;;;;;;;;;;;
;;;;;;;;;;;;;;;;;;;
;;;;;;;;;;;;;;;;;;;
;;;;;;;;;;;;;;;;;;;
;;;;;;;;;;;;;;;;;;;
;;;;;;;;;;;;;;;;;;;
;;;;;;;;;;;;;;;;;;;
;;;;;;;;;;;;;;;;;;;
;;;;;;;;;;;;;;;;;;;
;;;;;;;;;;;;;;;;;;;
;;;;;;;;;;;;;;;;;;;
;;;;;;;;;;;;;;;;;;;
;;;;;;;;;;;;;;;;;;;
;;;;;;;;;;;;;;;;;;;
;;;;;;;;;;;;;;;;;;;
;;;;;;;;;;;;;;;;;;;
;;;;;;;;;;;;;;;;;;;
;;;;;;;;;;;;;;;;;;;
;;;;;;;;;;;;;;;;;;;
;;;;;;;;;;;;;;;;;;;
;;;;;;;;;;;;;;;;;;;
;;;;;;;;;;;;;;;;;;;
;;;;;;;;;;;;;;;;;;;
;;;;;;;;;;;;;;;;;;;
;;;;;;;;;;;;;;;;;;;
;;;;;;;;;;;;;;;;;;;
;;;;;;;;;;;;;;;;;;;
;;;;;;;;;;;;;;;;;;;
;;;;;;;;;;;;;;;;;;;
;;;;;;;;;;;;;;;;;;;
;;;;;;;;;;;;;;;;;;;
;;;;;;;;;;;;;;;;;;;
;;;;;;;;;;;;;;;;;;;
;;;;;;;;;;;;;;;;;;;
;;;;;;;;;;;;;;;;;;;
;;;;;;;;;;;;;;;;;;;
;;;;;;;;;;;;;;;;;;;
;;;;;;;;;;;;;;;;;;;
;;;;;;;;;;;;;;;;;;;
;;;;;;;;;;;;;;;;;;;
;;;;;;;;;;;;;;;;;;;
;;;;;;;;;;;;;;;;;;;
;;;;;;;;;;;;;;;;;;;
;;;;;;;;;;;;;;;;;;;
;;;;;;;;;;;;;;;;;;;
;;;;;;;;;;;;;;;;;;;
;;;;;;;;;;;;;;;;;;;
;;;;;;;;;;;;;;;;;;;
;;;;;;;;;;;;;;;;;;;
;;;;;;;;;;;;;;;;;;;
;;;;;;;;;;;;;;;;;;;
;;;;;;;;;;;;;;;;;;;
;;;;;;;;;;;;;;;;;;;
;;;;;;;;;;;;;;;;;;;
;;;;;;;;;;;;;;;;;;;
;;;;;;;;;;;;;;;;;;;
;;;;;;;;;;;;;;;;;;;
;;;;;;;;;;;;;;;;;;;
;;;;;;;;;;;;;;;;;;;
;;;;;;;;;;;;;;;;;;;
;;;;;;;;;;;;;;;;;;;
;;;;;;;;;;;;;;;;;;;
;;;;;;;;;;;;;;;;;;;
;;;;;;;;;;;;;;;;;;;
;;;;;;;;;;;;;;;;;;;
;;;;;;;;;;;;;;;;;;;
;;;;;;;;;;;;;;;;;;;
;;;;;;;;;;;;;;;;;;;
;;;;;;;;;;;;;;;;;;;
;;;;;;;;;;;;;;;;;;;
;;;;;;;;;;;;;;;;;;;
;;;;;;;;;;;;;;;;;;;
;;;;;;;;;;;;;;;;;;;
;;;;;;;;;;;;;;;;;;;
;;;;;;;;;;;;;;;;;;;
;;;;;;;;;;;;;;;;;;;
;;;;;;;;;;;;;;;;;;;
;;;;;;;;;;;;;;;;;;;
;;;;;;;;;;;;;;;;;;;
;;;;;;;;;;;;;;;;;;;
;;;;;;;;;;;;;;;;;;;
;;;;;;;;;;;;;;;;;;;
;;;;;;;;;;;;;;;;;;;
;;;;;;;;;;;;;;;;;;;
;;;;;;;;;;;;;;;;;;;
;;;;;;;;;;;;;;;;;;;
;;;;;;;;;;;;;;;;;;;
;;;;;;;;;;;;;;;;;;;
;;;;;;;;;;;;;;;;;;;
;;;;;;;;;;;;;;;;;;;
;;;;;;;;;;;;;;;;;;;
;;;;;;;;;;;;;;;;;;;
;;;;;;;;;;;;;;;;;;;
;;;;;;;;;;;;;;;;;;;
;;;;;;;;;;;;;;;;;;;
;;;;;;;;;;;;;;;;;;;
;;;;;;;;;;;;;;;;;;;
;;;;;;;;;;;;;;;;;;;
;;;;;;;;;;;;;;;;;;;
;;;;;;;;;;;;;;;;;;;
;;;;;;;;;;;;;;;;;;;
;;;;;;;;;;;;;;;;;;;
;;;;;;;;;;;;;;;;;;;
;;;;;;;;;;;;;;;;;;;
;;;;;;;;;;;;;;;;;;;
;;;;;;;;;;;;;;;;;;;
;;;;;;;;;;;;;;;;;;;
;;;;;;;;;;;;;;;;;;;
;;;;;;;;;;;;;;;;;;;
;;;;;;;;;;;;;;;;;;;
;;;;;;;;;;;;;;;;;;;
;;;;;;;;;;;;;;;;;;;
;;;;;;;;;;;;;;;;;;;
;;;;;;;;;;;;;;;;;;;
;;;;;;;;;;;;;;;;;;;
;;;;;;;;;;;;;;;;;;;
;;;;;;;;;;;;;;;;;;;
;;;;;;;;;;;;;;;;;;;
;;;;;;;;;;;;;;;;;;;
;;;;;;;;;;;;;;;;;;;
;;;;;;;;;;;;;;;;;;;
;;;;;;;;;;;;;;;;;;;
;;;;;;;;;;;;;;;;;;;
;;;;;;;;;;;;;;;;;;;
;;;;;;;;;;;;;;;;;;;
;;;;;;;;;;;;;;;;;;;
;;;;;;;;;;;;;;;;;;;
;;;;;;;;;;;;;;;;;;;
;;;;;;;;;;;;;;;;;;;
;;;;;;;;;;;;;;;;;;;
;;;;;;;;;;;;;;;;;;;
;;;;;;;;;;;;;;;;;;;
;;;;;;;;;;;;;;;;;;;
;;;;;;;;;;;;;;;;;;;
;;;;;;;;;;;;;;;;;;;
;;;;;;;;;;;;;;;;;;;
;;;;;;;;;;;;;;;;;;;
;;;;;;;;;;;;;;;;;;;
;;;;;;;;;;;;;;;;;;;
;;;;;;;;;;;;;;;;;;;
;;;;;;;;;;;;;;;;;;;
;;;;;;;;;;;;;;;;;;;
;;;;;;;;;;;;;;;;;;;
;;;;;;;;;;;;;;;;;;;
;;;;;;;;;;;;;;;;;;;0.001
;;;;;;;;;;;;;;;;;;;0.041
;;;;;;;;;;;;;;;;;;;0.598
;;;;;;;;;;;;;;;;;;;0.552
;;;;;;;;;;;;;;;;;;;<0.001
;;;;;;;;;;;;;;;;;;;0.032
;;;;;;;;;;;;;;;;;;;0.367
;;;;;;;;;;;;;;;;;;;0.817
;;;;;;;;;;;;;;;;;;;<0.001
;;;;;;;;;;;;;;;;;;;0.057
;;;;;;;;;;;;;;;;;;;0.779
;;;;;;;;;;;;;;;;;;;0.229
;;;;;;;;;;;;;;;;;;;<0.001
;;;;;;;;;;;;;;;;;;;0.142
;;;;;;;;;;;;;;;;;;;0.680
;;;;;;;;;;;;;;;;;;;0.496
;;;;;;;;;;;;;;;;;;;<0.001
;;;;;;;;;;;;;;;;;;;0.032
;;;;;;;;;;;;;;;;;;;0.478
;;;;;;;;;;;;;;;;;;;0.670
;;;;;;;;;;;;;;;;;;;<0.001
;;;;;;;;;;;;;;;;;;;0.051
;;;;;;;;;;;;;;;;;;;0.859
;;;;;;;;;;;;;;;;;;;0.194
;;;;;;;;;;;;;;;;;;;<0.001
;;;;;;;;;;;;;;;;;;;0.153
;;;;;;;;;;;;;;;;;;;0.736
;;;;;;;;;;;;;;;;;;;0.459
;;;;;;;;;;;;;;;;;;;<0.001
;;;;;;;;;;;;;;;;;;;0.042
;;;;;;;;;;;;;;;;;;;0.899
;;;;;;;;;;;;;;;;;;;0.230
;;;;;;;;;;;;;;;;;;;<0.001
;;;;;;;;;;;;;;;;;;;0.149
;;;;;;;;;;;;;;;;;;;0.808
;;;;;;;;;;;;;;;;;;;0.460
;;;;;;;;;;;;;;;;;;;<0.001
;;;;;;;;;;;;;;;;;;;0.200
;;;;;;;;;;;;;;;;;;;0.805
;;;;;;;;;;;;;;;;;;;0.486
;;;;;;;;;;;;;;;;;;;0.101
;;;;;;;;;;;;;;;;;;;0.289
;;;;;;;;;;;;;;;;;;;0.056
;;;;;;;;;;;;;;;;;;;0.602
;;;;;;;;;;;;;;;;;;;0.838
;;;;;;;;;;;;;;;;;;;0.492
;;;;;;;;;;;;;;;;;;;0.162
;;;;;;;;;;;;;;;;;;;0.212
;;;;;;;;;;;;;;;;;;;0.050
;;;;;;;;;;;;;;;;;;;0.309
