ra;journal_id;issue;year;article_page;first_author;Num_authors;JEL;model;type;table_panel;type_emp;row;column;stars;main;coefficient;standard_deviation;T_stat;p_value
AB;Journal of Political Economy;119.2;2011;289;Miller;2;;no;other;2;reg;1;1;yes;yes;-2.406;0.865;;
AB;Journal of Political Economy;119.2;2011;289;Miller;2;;no;other;2;reg;1;2;yes;yes;-2.661;0.864;;
AB;Journal of Political Economy;119.2;2011;289;Miller;2;;no;other;2;reg;1;3;yes;yes;-2.669;0.956;;
AB;Journal of Political Economy;119.2;2011;289;Miller;2;;no;other;2;reg;1;4;yes;yes;-2.581;0.899;;
AB;Journal of Political Economy;119.2;2011;289;Miller;2;;no;other;2;reg;1;5;yes;yes;-3.415;1.359;;
AB;Journal of Political Economy;119.2;2011;289;Miller;2;;no;other;3;reg;1;3;yes;yes;-1.592;0.683;;
AB;Journal of Political Economy;119.2;2011;289;Miller;2;;no;other;3;reg;2;1;yes;yes;-5.037;2.138;;
AB;Journal of Political Economy;119.2;2011;289;Miller;2;;no;other;3;reg;2;3;yes;yes;-3.562;1.952;;
AB;Journal of Political Economy;119.2;2011;289;Miller;2;;no;other;3;reg;3;2;yes;yes;-3.958;1.913;;
AB;Journal of Political Economy;119.2;2011;289;Miller;2;;no;other;3;reg;3;3;yes;yes;-1.250;1.839;;
AB;Journal of Political Economy;119.2;2011;289;Miller;2;;no;other;4;reg;1;1;yes;yes;-1.734;0.799;;
AB;Journal of Political Economy;119.2;2011;289;Miller;2;;no;other;4;reg;1;2;yes;yes;-2.821;1.368;;
AB;Journal of Political Economy;119.2;2011;289;Miller;2;;no;other;4;reg;1;3;yes;yes;-0.239;0.195;;
AB;Journal of Political Economy;119.2;2011;289;Miller;2;;no;other;4;reg;1;4;yes;yes;-0.155;0.171;;
AB;Journal of Political Economy;119.2;2011;289;Miller;2;;no;other;4;reg;1;5;yes;yes;0.0102;0.140;;
AB;Journal of Political Economy;119.2;2011;289;Miller;2;;no;other;4;reg;1;6;yes;yes;2.008;2.603
AB;Journal of Political Economy;119.2;2011;289;Miller;2;;no;other;7;reg;1;1;yes;yes;-43.38;18.65
AB;Journal of Political Economy;119.2;2011;289;Miller;2;;no;other;7;reg;1;2;yes;yes;-27.70;15.50
AB;Journal of Political Economy;119.2;2011;289;Miller;2;;no;other;7;reg;1;3;yes;yes;-31.09;20.94
AB;Journal of Political Economy;119.2;2011;289;Miller;2;;no;other;7;reg;1;4;yes;yes;-0.788;2.956
AB;Journal of Political Economy;119.2;2011;289;Miller;2;;no;other;7;reg;1;5;yes;yes;-5.331;2.956
AB;Journal of Political Economy;119.2;2011;289;Miller;2;;no;other;7;reg;1;6;yes;yes;-0.0567;1.785
AB;Journal of Political Economy;119.2;2011;289;Miller;2;;no;other;7;reg;1;7;yes;yes;-23.72;34.95
AB;Journal of Political Economy;119.2;2011;289;Miller;2;;no;other;8;reg;1;1;yes;yes;-39.38;21.37
AB;Journal of Political Economy;119.2;2011;289;Miller;2;;no;other;8;reg;1;2;yes;yes;1.427;7.679
AB;Journal of Political Economy;119.2;2011;289;Miller;2;;no;other;8;reg;1;3;yes;yes;-57.01;27.84
AB;Journal of Political Economy;119.2;2011;289;Miller;2;;no;other;8;reg;1;4;yes;yes;5.852;7.346
AB;Journal of Political Economy;119.2;2011;289;Miller;2;;no;other;8;reg;1;5;yes;yes;-137.8;57.13
AB;Journal of Political Economy;119.2;2011;289;Miller;2;;no;other;8;reg;1;6;yes;yes;-23.29;15.95
AB;Journal of Political Economy;119.2;2011;289;Miller;2;;no;other;8;reg;1;7;yes;yes;-13.52;18.74
AB;Journal of Political Economy;119.2;2011;289;Miller;2;;no;other;A1;reg;1;1;yes;no;-2.250;0.798
AB;Journal of Political Economy;119.2;2011;289;Miller;2;;no;other;A1;reg;1;2;yes;no;-1.702;0.663
AB;Journal of Political Economy;119.2;2011;289;Miller;2;;no;other;A1;reg;1;3;yes;no;-0.808;0.336
AB;Journal of Political Economy;119.2;2011;289;Miller;2;;no;other;A1;reg;1;4;yes;no;0.00458;0.00944
AB;Journal of Political Economy;119.2;2011;289;Miller;2;;no;other;A1;reg;1;5;yes;no;0.518;2.714
AB;Journal of Political Economy;119.2;2011;289;Miller;2;;no;other;A2;reg;1;1;yes;no;-31.93;14.42
AB;Journal of Political Economy;119.2;2011;289;Miller;2;;no;other;A2;reg;1;2;yes;no;-29.61;14.16
AB;Journal of Political Economy;119.2;2011;289;Miller;2;;no;other;A2;reg;1;3;yes;no;-90.09;70.21
AB;Journal of Political Economy;119.2;2011;212;Davis;2;;yes;other;2;MLE;1;1;no;yes;-0.383;0.003
AB;Journal of Political Economy;119.2;2011;212;Davis;2;;yes;other;2;MLE;1;2;no;yes;-0.119;0.0006
AB;Journal of Political Economy;119.2;2011;212;Davis;2;;yes;other;2;MLE;2;1;no;yes;-0.057;0.002
AB;Journal of Political Economy;119.2;2011;212;Davis;2;;yes;other;2;MLE;2;2;no;yes;0.003;0.0004
AB;Journal of Political Economy;119.2;2011;212;Davis;2;;yes;other;2;MLE;3;1;no;yes;-0.020;0.001
AB;Journal of Political Economy;119.2;2011;212;Davis;2;;yes;other;2;MLE;3;2;no;yes;0.004;0.0003
AB;Journal of Political Economy;119.2;2011;212;Davis;2;;yes;other;2;MLE;4;1;no;yes;-0.020;0.002
AB;Journal of Political Economy;119.2;2011;212;Davis;2;;yes;other;2;MLE;4;2;no;yes;-0.006;0.0004
AB;Journal of Political Economy;119.2;2011;212;Davis;2;;yes;other;3;reg;1;1;no;yes;-7.70;0.06
AB;Journal of Political Economy;119.2;2011;212;Davis;2;;yes;other;3;reg;1;2;no;yes;-3.54;0.06
AB;Journal of Political Economy;119.2;2011;212;Davis;2;;yes;other;3;reg;1;3;no;yes;-1.29;0.07
AB;Journal of Political Economy;119.2;2011;325;Gavazza;1;;yes;other;2;MLE;1;1;no;yes;0.0021;0.0011
AB;Journal of Political Economy;119.2;2011;325;Gavazza;1;;yes;other;2;MLE;1;2;no;yes;0.0025;0.0011
AB;Journal of Political Economy;119.2;2011;325;Gavazza;1;;yes;other;2;MLE;1;3;no;yes;0.0026;0.0011
AB;Journal of Political Economy;119.2;2011;325;Gavazza;1;;yes;other;2;MLE;1;4;no;yes;0.0028;0.0011
AB;Journal of Political Economy;119.2;2011;325;Gavazza;1;;yes;other;2;MLE;2;1;no;yes;-0.0258;0.0043
AB;Journal of Political Economy;119.2;2011;325;Gavazza;1;;yes;other;2;MLE;2;2;no;yes;-0.0111;0.0037
AB;Journal of Political Economy;119.2;2011;325;Gavazza;1;;yes;other;2;MLE;2;3;no;yes;-0.0173;0.0047
AB;Journal of Political Economy;119.2;2011;325;Gavazza;1;;yes;other;2;MLE;2;4;no;yes;-0.0098;0.0044
AB;Journal of Political Economy;119.2;2011;325;Gavazza;1;;yes;other;2;MLE;3;1;no;yes;-0.0490;0.0106
AB;Journal of Political Economy;119.2;2011;325;Gavazza;1;;yes;other;2;MLE;3;3;no;yes;-0.0249;0.0106
AB;Journal of Political Economy;119.2;2011;325;Gavazza;1;;yes;other;2;MLE;4;1;no;yes;0.1299;0.0140
AB;Journal of Political Economy;119.2;2011;325;Gavazza;1;;yes;other;2;MLE;4;2;no;yes;0.2849;0.0419
AB;Journal of Political Economy;119.2;2011;325;Gavazza;1;;yes;other;2;MLE;4;3;no;yes;0.1150;0.0156
AB;Journal of Political Economy;119.2;2011;325;Gavazza;1;;yes;other;2;MLE;4;4;no;yes;0.1938;0.0418
AB;Journal of Political Economy;119.2;2011;325;Gavazza;1;;yes;other;3;reg;3;2;no;yes;0.5408;0.0476
AB;Journal of Political Economy;119.2;2011;325;Gavazza;1;;yes;other;3;reg;3;4;no;yes;0.5348;0.0478
AB;Journal of Political Economy;119.2;2011;325;Gavazza;1;;yes;other;3;reg;4;2;no;yes;-0.4512;0.5690
AB;Journal of Political Economy;119.2;2011;325;Gavazza;1;;yes;other;3;reg;4;4;no;yes;-0.9494;0.0478
AB;Journal of Political Economy;119.2;2011;325;Gavazza;1;;yes;other;6;reg;1;1;no;no;8.689;0.292
AB;Journal of Political Economy;119.2;2011;325;Gavazza;1;;yes;other;6;reg;1;2;no;no;8.856;0.268
AB;Journal of Political Economy;119.2;2011;325;Gavazza;1;;yes;other;6;reg;2;1;no;no;-33.266;2.401
AB;Journal of Political Economy;119.2;2011;325;Gavazza;1;;yes;other;6;reg;2;2;no;no;-20.208;2.319
AB;Journal of Political Economy;119.2;2011;325;Gavazza;1;;yes;other;7;reg;1;1;no;no;0.2265;0.0077
AB;Journal of Political Economy;119.2;2011;325;Gavazza;1;;yes;other;7;reg;1;2;no;no;0.4769;0.0157
AB;Journal of Political Economy;119.2;2011;325;Gavazza;1;;yes;other;7;reg;1;3;no;no;0.3286;0.0144
AB;Journal of Political Economy;119.2;2011;325;Gavazza;1;;yes;other;7;reg;1;4;no;no;0.3369;0.0153
AB;Journal of Political Economy;119.2;2011;325;Gavazza;1;;yes;other;7;reg;2;1;no;no;-0.0044;0.0002
AB;Journal of Political Economy;119.2;2011;325;Gavazza;1;;yes;other;7;reg;2;2;no;no;-0.0241;0.0012
AB;Journal of Political Economy;119.2;2011;325;Gavazza;1;;yes;other;7;reg;2;3;no;no;-0.0072;0.0004
AB;Journal of Political Economy;119.2;2011;325;Gavazza;1;;yes;other;7;reg;2;4;no;no;-0.0078;0.0004
AB;Journal of Political Economy;119.2;2011;325;Gavazza;1;;yes;other;7;reg;3;1;no;no;0.0610;0.0139
AB;Journal of Political Economy;119.2;2011;325;Gavazza;1;;yes;other;7;reg;3;2;no;no;0.0764;0.0166
AB;Journal of Political Economy;119.2;2011;325;Gavazza;1;;yes;other;7;reg;3;3;no;no;0.0660;0.0276
AB;Journal of Political Economy;119.2;2011;325;Gavazza;1;;yes;other;7;reg;3;4;no;no;0.0627;0.0319
