ra;journal_id;issue;year;article_page;first_author;num_authors;JEL;model;type;table_panel;type_emp;row;column;stars;main;coefficient;standard_deviation;standard_deviation_2;standard_deviation_3;t_stat;p_value
ML;Journal of Political Economy;117.1;2009;87;Bronnenberg;2;;no;other;4;reg;1;1;no;yes;0.141;0.010;;;;
ML;Journal of Political Economy;117.1;2009;87;Bronnenberg;2;;no;other;4;reg;1;2;no;yes;0.149;0.011;;;;
ML;Journal of Political Economy;117.1;2009;87;Bronnenberg;2;;no;other;4;reg;1;3;no;yes;0.139;0.011;;;;
ML;Journal of Political Economy;117.1;2009;87;Bronnenberg;2;;no;other;4;reg;2;2;no;yes;0.118;0.016;;;;
ML;Journal of Political Economy;117.1;2009;87;Bronnenberg;2;;no;other;4;reg;2;3;no;yes;0.020;0.026;;;;
ML;Journal of Political Economy;117.1;2009;87;Bronnenberg;2;;no;other;4;reg;4;1;no;yes;0.134;0.014;;;;
ML;Journal of Political Economy;117.1;2009;87;Bronnenberg;2;;no;other;4;reg;4;3;no;yes;0.117;0.026;;;;
ML;Journal of Political Economy;117.1;2009;87;Bronnenberg;2;;no;other;4;reg;6;1;no;yes;0.139;0.011;;;;
ML;Journal of Political Economy;117.1;2009;87;Bronnenberg;2;;no;other;4;reg;6;2;no;yes;0.059;0.014;;;;
ML;Journal of Political Economy;117.1;2009;87;Bronnenberg;2;;no;other;4;reg;6;3;no;yes;0.052;0.011;;;;
ML;Journal of Political Economy;117.1;2009;87;Bronnenberg;2;;no;other;4;reg;7;2;no;yes;0.251;0.020;;;;
ML;Journal of Political Economy;117.1;2009;87;Bronnenberg;2;;no;other;4;reg;7;3;no;yes;0.206;0.015;;;;
ML;Journal of Political Economy;117.1;2009;87;Bronnenberg;2;;no;other;4;reg;8;2;no;yes;0.197;0.020;;;;
ML;Journal of Political Economy;117.1;2009;87;Bronnenberg;2;;no;other;4;reg;8;3;no;yes;0.088;0.018;;;;
ML;Journal of Political Economy;117.1;2009;87;Bronnenberg;2;;no;other;4;reg;10;1;no;yes;0.208;0.019;;;;
ML;Journal of Political Economy;117.1;2009;87;Bronnenberg;2;;no;other;4;reg;10;3;no;yes;0.175;0.015
ML;Journal of Political Economy;117.1;2009;87;Bronnenberg;2;;no;other;4;reg;12;3;no;yes;0.388;0.019
ML;Journal of Political Economy;117.1;2009;87;Bronnenberg;2;;no;other;4;reg;14;3;no;yes;0.072;0.025
ML;Journal of Political Economy;117.1;2009;87;Bronnenberg;2;;no;other;4;reg;16;1;no;yes;0.248;0.019
ML;Journal of Political Economy;117.1;2009;87;Bronnenberg;2;;no;other;4;reg;16;2;no;yes;0.292;0.027
ML;Journal of Political Economy;117.1;2009;87;Bronnenberg;2;;no;other;4;reg;16;3;no;yes;0.189;0.020
ML;Journal of Political Economy;117.1;2009;87;Bronnenberg;2;;no;other;4;reg;17;2;no;yes;0.205;0.039
ML;Journal of Political Economy;117.1;2009;87;Bronnenberg;2;;no;other;4;reg;17;3;no;yes;0.144;0.025
ML;Journal of Political Economy;117.1;2009;87;Bronnenberg;2;;no;other;4;reg;19;1;no;yes;0.332;0.029
ML;Journal of Political Economy;117.1;2009;87;Bronnenberg;2;;no;other;4;reg;19;3;no;yes;0.303;0.026
ML;Journal of Political Economy;117.1;2009;87;Bronnenberg;2;;no;other;4;reg;21;1;no;yes;0.144;0.009
ML;Journal of Political Economy;117.1;2009;87;Bronnenberg;2;;no;other;4;reg;21;2;no;yes;0.062;0.009
ML;Journal of Political Economy;117.1;2009;87;Bronnenberg;2;;no;other;4;reg;21;3;no;yes;0.058;0.008
ML;Journal of Political Economy;117.1;2009;87;Bronnenberg;2;;no;other;4;reg;22;2;no;yes;0.211;0.012
ML;Journal of Political Economy;117.1;2009;87;Bronnenberg;2;;no;other;4;reg;22;3;no;yes;0.171;0.015
ML;Journal of Political Economy;117.1;2009;87;Bronnenberg;2;;no;other;4;reg;23;2;no;yes;0.161;0.012
ML;Journal of Political Economy;117.1;2009;87;Bronnenberg;2;;no;other;4;reg;23;3;no;yes;0.158;0.012
ML;Journal of Political Economy;117.1;2009;87;Bronnenberg;2;;no;other;4;reg;25;1;no;yes;0.126;0.016
ML;Journal of Political Economy;117.1;2009;87;Bronnenberg;2;;no;other;4;reg;25;3;no;yes;0.056;0.014
ML;Journal of Political Economy;117.1;2009;87;Bronnenberg;2;;no;other;4;reg;27;1;no;yes;0.171;0.014
ML;Journal of Political Economy;117.1;2009;87;Bronnenberg;2;;no;other;4;reg;27;2;no;yes;0.162;0.013
ML;Journal of Political Economy;117.1;2009;87;Bronnenberg;2;;no;other;4;reg;27;3;no;yes;0.154;0.014
ML;Journal of Political Economy;117.1;2009;87;Bronnenberg;2;;no;other;4;reg;28;2;no;yes;0.145;0.019
ML;Journal of Political Economy;117.1;2009;87;Bronnenberg;2;;no;other;4;reg;28;3;no;yes;0.111;0.025
ML;Journal of Political Economy;117.1;2009;87;Bronnenberg;2;;no;other;4;reg;30;1;no;yes;0.126;0.020
ML;Journal of Political Economy;117.1;2009;87;Bronnenberg;2;;no;other;4;reg;30;3;no;yes;0.051;0.025
ML;Journal of Political Economy;117.1;2009;87;Bronnenberg;2;;no;other;5;reg;1;1;no;yes;15.461;0.426
ML;Journal of Political Economy;117.1;2009;87;Bronnenberg;2;;no;other;5;reg;1;2;no;yes;15.169;0.382
ML;Journal of Political Economy;117.1;2009;87;Bronnenberg;2;;no;other;5;reg;1;3;no;yes;15.055;0.389
ML;Journal of Political Economy;117.1;2009;87;Bronnenberg;2;;no;other;5;reg;2;2;no;yes;5.868;0.540
ML;Journal of Political Economy;117.1;2009;87;Bronnenberg;2;;no;other;5;reg;2;3;no;yes;4.765;0.962
ML;Journal of Political Economy;117.1;2009;87;Bronnenberg;2;;no;other;5;reg;4;1;no;yes;5.284;0.602
ML;Journal of Political Economy;117.1;2009;87;Bronnenberg;2;;no;other;5;reg;4;3;no;yes;1.330;0.962
ML;Journal of Political Economy;117.1;2009;87;Bronnenberg;2;;no;other;5;reg;6;1;no;yes;19.385;0.504
ML;Journal of Political Economy;117.1;2009;87;Bronnenberg;2;;no;other;5;reg;6;2;no;yes;15.623;0.516
ML;Journal of Political Economy;117.1;2009;87;Bronnenberg;2;;no;other;5;reg;6;3;no;yes;15.455;0.460
ML;Journal of Political Economy;117.1;2009;87;Bronnenberg;2;;no;other;5;reg;7;2;no;yes;10.547;0.730
ML;Journal of Political Economy;117.1;2009;87;Bronnenberg;2;;no;other;5;reg;7;3;no;yes;9.456;0.672
ML;Journal of Political Economy;117.1;2009;87;Bronnenberg;2;;no;other;5;reg;8;2;no;yes;6.251;0.730
ML;Journal of Political Economy;117.1;2009;87;Bronnenberg;2;;no;other;5;reg;8;3;no;yes;3.648;0.770
ML;Journal of Political Economy;117.1;2009;87;Bronnenberg;2;;no;other;5;reg;10;1;no;yes;5.513;0.873
ML;Journal of Political Economy;117.1;2009;87;Bronnenberg;2;;no;other;5;reg;10;3;no;yes;4.198;0.668
ML;Journal of Political Economy;117.1;2009;87;Bronnenberg;2;;no;other;5;reg;13;3;no;yes;33.634;0.700
ML;Journal of Political Economy;117.1;2009;87;Bronnenberg;2;;no;other;5;reg;14;3;no;yes;3.544;0.889
ML;Journal of Political Economy;117.1;2009;87;Bronnenberg;2;;no;other;5;reg;16;1;no;yes;30.240;0.595
ML;Journal of Political Economy;117.1;2009;87;Bronnenberg;2;;no;other;5;reg;16;2;no;yes;29.982;0.649
ML;Journal of Political Economy;117.1;2009;87;Bronnenberg;2;;no;other;5;reg;16;3;no;yes;27.842;0.538
ML;Journal of Political Economy;117.1;2009;87;Bronnenberg;2;;no;other;5;reg;17;2;no;yes;7.098;0.918
ML;Journal of Political Economy;117.1;2009;87;Bronnenberg;2;;no;other;5;reg;17;3;no;yes;5.839;0.696
ML;Journal of Political Economy;117.1;2009;87;Bronnenberg;2;;no;other;5;reg;19;1;no;yes;7.481;0.897
ML;Journal of Political Economy;117.1;2009;87;Bronnenberg;2;;no;other;5;reg;19;3;no;yes;6.296;0.701
ML;Journal of Political Economy;117.1;2009;87;Bronnenberg;2;;no;other;5;reg;21;1;no;yes;24.920;0.511
ML;Journal of Political Economy;117.1;2009;87;Bronnenberg;2;;no;other;5;reg;21;2;no;yes;21.722;0.596
ML;Journal of Political Economy;117.1;2009;87;Bronnenberg;2;;no;other;5;reg;21;3;no;yes;21.450;0.577
ML;Journal of Political Economy;117.1;2009;87;Bronnenberg;2;;no;other;5;reg;22;2;no;yes;12.072;0.842
ML;Journal of Political Economy;117.1;2009;87;Bronnenberg;2;;no;other;5;reg;22;3;no;yes;9.555;1.060
ML;Journal of Political Economy;117.1;2009;87;Bronnenberg;2;;no;other;5;reg;23;2;no;yes;5.888;0.842
ML;Journal of Political Economy;117.1;2009;87;Bronnenberg;2;;no;other;5;reg;23;3;no;yes;5.684;0.812
ML;Journal of Political Economy;117.1;2009;87;Bronnenberg;2;;no;other;5;reg;25;1;no;yes;8.366;0.885
ML;Journal of Political Economy;117.1;2009;87;Bronnenberg;2;;no;other;5;reg;25;3;no;yes;3.537;0.962
ML;Journal of Political Economy;117.1;2009;87;Bronnenberg;2;;no;other;5;reg;27;1;no;yes;22.002;0.394
ML;Journal of Political Economy;117.1;2009;87;Bronnenberg;2;;no;other;5;reg;27;2;no;yes;22.685;0.420
ML;Journal of Political Economy;117.1;2009;87;Bronnenberg;2;;no;other;5;reg;27;3;no;yes;22.202;0.409
ML;Journal of Political Economy;117.1;2009;87;Bronnenberg;2;;no;other;5;reg;28;2;no;yes;0.799;0.593
ML;Journal of Political Economy;117.1;2009;87;Bronnenberg;2;;no;other;5;reg;28;3;no;yes;-1.253;0.754
ML;Journal of Political Economy;117.1;2009;87;Bronnenberg;2;;no;other;5;reg;30;1;no;yes;2.166;0.558
ML;Journal of Political Economy;117.1;2009;87;Bronnenberg;2;;no;other;5;reg;30;3;no;yes;3.018;0.754
ML;Journal of Political Economy;117.1;2009;87;Bronnenberg;2;;no;other;6;reg;1;1;no;yes;0.149;0.011
ML;Journal of Political Economy;117.1;2009;87;Bronnenberg;2;;no;other;6;reg;1;2;no;yes;0.182;0.016
ML;Journal of Political Economy;117.1;2009;87;Bronnenberg;2;;no;other;6;reg;1;3;no;yes;0.234;0.025
ML;Journal of Political Economy;117.1;2009;87;Bronnenberg;2;;no;other;6;reg;1;4;no;yes;0.239;0.024
ML;Journal of Political Economy;117.1;2009;87;Bronnenberg;2;;no;other;6;reg;2;1;no;yes;0.118;0.016
ML;Journal of Political Economy;117.1;2009;87;Bronnenberg;2;;no;other;6;reg;2;2;no;yes;0.109;0.016
ML;Journal of Political Economy;117.1;2009;87;Bronnenberg;2;;no;other;6;reg;2;3;no;yes;0.105;0.015
ML;Journal of Political Economy;117.1;2009;87;Bronnenberg;2;;no;other;6;reg;2;4;no;yes;0.021;0.024
ML;Journal of Political Economy;117.1;2009;87;Bronnenberg;2;;no;other;6;reg;4;4;no;yes;0.096;0.024
ML;Journal of Political Economy;117.1;2009;87;Bronnenberg;2;;no;other;6;reg;5;2;no;yes;-0.112;0.038
ML;Journal of Political Economy;117.1;2009;87;Bronnenberg;2;;no;other;6;reg;5;4;no;yes;-0.086;0.033
ML;Journal of Political Economy;117.1;2009;87;Bronnenberg;2;;no;other;6;reg;6;3;no;yes;0.118;0.031
ML;Journal of Political Economy;117.1;2009;87;Bronnenberg;2;;no;other;6;reg;6;4;no;yes;0.101;0.028
ML;Journal of Political Economy;117.1;2009;87;Bronnenberg;2;;no;other;6;reg;8;1;no;yes;0.059;0.014
ML;Journal of Political Economy;117.1;2009;87;Bronnenberg;2;;no;other;6;reg;8;2;no;yes;0.065;0.020
ML;Journal of Political Economy;117.1;2009;87;Bronnenberg;2;;no;other;6;reg;8;3;no;yes;0.077;0.031
ML;Journal of Political Economy;117.1;2009;87;Bronnenberg;2;;no;other;6;reg;8;4;no;yes;0.087;0.026
ML;Journal of Political Economy;117.1;2009;87;Bronnenberg;2;;no;other;6;reg;9;1;no;yes;0.251;0.020
ML;Journal of Political Economy;117.1;2009;87;Bronnenberg;2;;no;other;6;reg;9;2;no;yes;0.253;0.021
ML;Journal of Political Economy;117.1;2009;87;Bronnenberg;2;;no;other;6;reg;9;3;no;yes;0.262;0.026
ML;Journal of Political Economy;117.1;2009;87;Bronnenberg;2;;no;other;6;reg;9;4;no;yes;0.217;0.020
ML;Journal of Political Economy;117.1;2009;87;Bronnenberg;2;;no;other;6;reg;10;1;no;yes;0.197;0.020
ML;Journal of Political Economy;117.1;2009;87;Bronnenberg;2;;no;other;6;reg;10;2;no;yes;0.197;0.021
ML;Journal of Political Economy;117.1;2009;87;Bronnenberg;2;;no;other;6;reg;10;3;no;yes;0.203;0.022
ML;Journal of Political Economy;117.1;2009;87;Bronnenberg;2;;no;other;6;reg;10;4;no;yes;0.090;0.019
ML;Journal of Political Economy;117.1;2009;87;Bronnenberg;2;;no;other;6;reg;12;4;no;yes;0.179;0.015
ML;Journal of Political Economy;117.1;2009;87;Bronnenberg;2;;no;other;6;reg;13;2;no;yes;-0.011;0.025
ML;Journal of Political Economy;117.1;2009;87;Bronnenberg;2;;no;other;6;reg;13;4;no;yes;-0.039;0.018
ML;Journal of Political Economy;117.1;2009;87;Bronnenberg;2;;no;other;6;reg;14;3;no;yes;0.027;0.039
ML;Journal of Political Economy;117.1;2009;87;Bronnenberg;2;;no;other;6;reg;14;4;no;yes;0.019;0.029
ML;Journal of Political Economy;117.1;2009;87;Bronnenberg;2;;no;other;6;reg;16;1;no;yes;0.432;0.013
ML;Journal of Political Economy;117.1;2009;87;Bronnenberg;2;;no;other;6;reg;16;2;no;yes;0.510;0.025
ML;Journal of Political Economy;117.1;2009;87;Bronnenberg;2;;no;other;6;reg;16;3;no;yes;0.486;0.072
ML;Journal of Political Economy;117.1;2009;87;Bronnenberg;2;;no;other;6;reg;16;4;no;yes;0.486;0.070
ML;Journal of Political Economy;117.1;2009;87;Bronnenberg;2;;no;other;6;reg;18;4;no;yes;0.050;0.025
ML;Journal of Political Economy;117.1;2009;87;Bronnenberg;2;;no;other;6;reg;19;2;no;yes;-0.194;0.057
ML;Journal of Political Economy;117.1;2009;87;Bronnenberg;2;;no;other;6;reg;19;4;no;yes;-0.154;0.058
ML;Journal of Political Economy;117.1;2009;87;Bronnenberg;2;;no;other;6;reg;20;3;no;yes;0.069;0.091
ML;Journal of Political Economy;117.1;2009;87;Bronnenberg;2;;no;other;6;reg;20;4;no;yes;0.030;0.081
ML;Journal of Political Economy;117.1;2009;87;Bronnenberg;2;;no;other;6;reg;22;1;no;yes;0.292;0.027
ML;Journal of Political Economy;117.1;2009;87;Bronnenberg;2;;no;other;6;reg;22;2;no;yes;0.310;0.040
ML;Journal of Political Economy;117.1;2009;87;Bronnenberg;2;;no;other;6;reg;22;3;no;yes;0.294;0.112
ML;Journal of Political Economy;117.1;2009;87;Bronnenberg;2;;no;other;6;reg;22;4;no;yes;0.315;0.075
ML;Journal of Political Economy;117.1;2009;87;Bronnenberg;2;;no;other;6;reg;23;1;no;yes;0.205;0.039
ML;Journal of Political Economy;117.1;2009;87;Bronnenberg;2;;no;other;6;reg;23;2;no;yes;0.204;0.039
ML;Journal of Political Economy;117.1;2009;87;Bronnenberg;2;;no;other;6;reg;23;3;no;yes;0.204;0.043
ML;Journal of Political Economy;117.1;2009;87;Bronnenberg;2;;no;other;6;reg;23;4;no;yes;0.126;0.028
ML;Journal of Political Economy;117.1;2009;87;Bronnenberg;2;;no;other;6;reg;25;4;no;yes;0.307;0.026
ML;Journal of Political Economy;117.1;2009;87;Bronnenberg;2;;no;other;6;reg;26;2;no;yes;-0.024;0.040
ML;Journal of Political Economy;117.1;2009;87;Bronnenberg;2;;no;other;6;reg;26;4;no;yes;-0.031;0.026
ML;Journal of Political Economy;117.1;2009;87;Bronnenberg;2;;no;other;6;reg;27;3;no;yes;0.002;0.082
ML;Journal of Political Economy;117.1;2009;87;Bronnenberg;2;;no;other;6;reg;27;4;no;yes;0.079;0.053
ML;Journal of Political Economy;117.1;2009;87;Bronnenberg;2;;no;other;6;reg;29;1;no;yes;0.062;0.009
ML;Journal of Political Economy;117.1;2009;87;Bronnenberg;2;;no;other;6;reg;29;2;no;yes;0.070;0.010
ML;Journal of Political Economy;117.1;2009;87;Bronnenberg;2;;no;other;6;reg;29;3;no;yes;0.157;0.024
ML;Journal of Political Economy;117.1;2009;87;Bronnenberg;2;;no;other;6;reg;29;4;no;yes;0.138;0.024
ML;Journal of Political Economy;117.1;2009;87;Bronnenberg;2;;no;other;6;reg;30;1;no;yes;0.211;0.012
ML;Journal of Political Economy;117.1;2009;87;Bronnenberg;2;;no;other;6;reg;30;2;no;yes;0.207;0.012
ML;Journal of Political Economy;117.1;2009;87;Bronnenberg;2;;no;other;6;reg;30;3;no;yes;0.146;0.019
ML;Journal of Political Economy;117.1;2009;87;Bronnenberg;2;;no;other;6;reg;30;4;no;yes;0.126;0.020
ML;Journal of Political Economy;117.1;2009;87;Bronnenberg;2;;no;other;6;reg;31;1;no;yes;0.161;0.012
ML;Journal of Political Economy;117.1;2009;87;Bronnenberg;2;;no;other;6;reg;31;2;no;yes;0.189;0.021
ML;Journal of Political Economy;117.1;2009;87;Bronnenberg;2;;no;other;6;reg;31;3;no;yes;0.097;0.019
ML;Journal of Political Economy;117.1;2009;87;Bronnenberg;2;;no;other;6;reg;31;4;no;yes;0.117;0.027
ML;Journal of Political Economy;117.1;2009;87;Bronnenberg;2;;no;other;6;reg;33;4;no;yes;0.045;0.014
ML;Journal of Political Economy;117.1;2009;87;Bronnenberg;2;;no;other;6;reg;34;2;no;yes;-0.017;0.010
ML;Journal of Political Economy;117.1;2009;87;Bronnenberg;2;;no;other;6;reg;34;4;no;yes;-0.006;0.010
ML;Journal of Political Economy;117.1;2009;87;Bronnenberg;2;;no;other;6;reg;35;3;no;yes;0.067;0.016
ML;Journal of Political Economy;117.1;2009;87;Bronnenberg;2;;no;other;6;reg;35;4;no;yes;0.054;0.016
ML;Journal of Political Economy;117.1;2009;87;Bronnenberg;2;;no;other;6;reg;37;1;no;yes;0.162;0.013
ML;Journal of Political Economy;117.1;2009;87;Bronnenberg;2;;no;other;6;reg;37;2;no;yes;0.189;0.025
ML;Journal of Political Economy;117.1;2009;87;Bronnenberg;2;;no;other;6;reg;37;3;no;yes;0.277;0.035
ML;Journal of Political Economy;117.1;2009;87;Bronnenberg;2;;no;other;6;reg;37;4;no;yes;0.275;0.040
ML;Journal of Political Economy;117.1;2009;87;Bronnenberg;2;;no;other;6;reg;38;1;no;yes;0.145;0.019
ML;Journal of Political Economy;117.1;2009;87;Bronnenberg;2;;no;other;6;reg;38;2;no;yes;0.138;0.020
ML;Journal of Political Economy;117.1;2009;87;Bronnenberg;2;;no;other;6;reg;38;3;no;yes;0.136;0.018
ML;Journal of Political Economy;117.1;2009;87;Bronnenberg;2;;no;other;6;reg;38;4;no;yes;0.107;0.024
ML;Journal of Political Economy;117.1;2009;87;Bronnenberg;2;;no;other;6;reg;40;4;no;yes;0.038;0.025
ML;Journal of Political Economy;117.1;2009;87;Bronnenberg;2;;no;other;6;reg;41;2;no;yes;-0.047;0.035
ML;Journal of Political Economy;117.1;2009;87;Bronnenberg;2;;no;other;6;reg;41;4;no;yes;-0.021;0.035
ML;Journal of Political Economy;117.1;2009;87;Bronnenberg;2;;no;other;6;reg;42;3;no;yes;0.069;0.020
ML;Journal of Political Economy;117.1;2009;87;Bronnenberg;2;;no;other;6;reg;42;4;no;yes;0.065;0.020
ML;Journal of Political Economy;117.1;2009;87;Bronnenberg;2;;no;other;A1;reg;1;1;no;no;0.144;0.011
ML;Journal of Political Economy;117.1;2009;87;Bronnenberg;2;;no;other;A1;reg;2;1;no;no;0.043;0.032
ML;Journal of Political Economy;117.1;2009;87;Bronnenberg;2;;no;other;A1;reg;4;1;no;no;0.085;0.032
ML;Journal of Political Economy;117.1;2009;87;Bronnenberg;2;;no;other;A1;reg;6;1;no;no;0.193;0.029
ML;Journal of Political Economy;117.1;2009;87;Bronnenberg;2;;no;other;A1;reg;7;1;no;no;0.304;0.038
ML;Journal of Political Economy;117.1;2009;87;Bronnenberg;2;;no;other;A1;reg;9;1;no;no;0.292;0.050
ML;Journal of Political Economy;117.1;2009;87;Bronnenberg;2;;no;other;A1;reg;11;1;no;no;0.146;0.078
ML;Journal of Political Economy;117.1;2009;87;Bronnenberg;2;;no;other;A1;reg;12;1;no;no;0.351;0.082
ML;Journal of Political Economy;117.1;2009;87;Bronnenberg;2;;no;other;A1;reg;14;1;no;no;0.166;0.083
ML;Journal of Political Economy;117.1;2009;87;Bronnenberg;2;;no;other;A1;reg;16;1;no;no;0.059;0.009
ML;Journal of Political Economy;117.1;2009;87;Bronnenberg;2;;no;other;A1;reg;17;1;no;no;0.175;0.023
ML;Journal of Political Economy;117.1;2009;87;Bronnenberg;2;;no;other;A1;reg;18;1;no;no;0.164;0.012
ML;Journal of Political Economy;117.1;2009;87;Bronnenberg;2;;no;other;A1;reg;20;1;no;no;0.042;0.023
ML;Journal of Political Economy;117.1;2009;38;Gertler;2;;yes;other;6;reg;1;1;yes;yes;-0.00564;0.0010
ML;Journal of Political Economy;117.1;2009;38;Gertler;2;;yes;other;6;reg;1;2;yes;yes;-0.00576;0.0009
ML;Journal of Political Economy;117.1;2009;38;Gertler;2;;yes;other;6;reg;2;1;yes;yes;-0.1042;0.0038
ML;Journal of Political Economy;117.1;2009;38;Gertler;2;;yes;other;6;reg;2;2;yes;yes;0.00193;0.0037
ML;Journal of Political Economy;117.1;2009;1;Gerardi;2;;no;other;2A;reg;1;1;yes;yes;-0.121;0.022
ML;Journal of Political Economy;117.1;2009;1;Gerardi;2;;no;other;2A;reg;2;2;yes;yes;-0.177;0.029
ML;Journal of Political Economy;117.1;2009;1;Gerardi;2;;no;other;2A;reg;3;3;yes;yes;-0.005;0.004
ML;Journal of Political Economy;117.1;2009;1;Gerardi;2;;no;other;2A;reg;4;3;yes;yes;-0.056;0.007
ML;Journal of Political Economy;117.1;2009;1;Gerardi;2;;no;other;2B;reg;1;1;yes;yes;-0.229;0.038
ML;Journal of Political Economy;117.1;2009;1;Gerardi;2;;no;other;2B;reg;2;2;yes;yes;-0.357;0.060
ML;Journal of Political Economy;117.1;2009;1;Gerardi;2;;no;other;2B;reg;3;3;yes;yes;-0.013;0.006
ML;Journal of Political Economy;117.1;2009;1;Gerardi;2;;no;other;2B;reg;4;3;yes;yes;-0.089;0.010
ML;Journal of Political Economy;117.1;2009;1;Gerardi;2;;no;other;2C;reg;1;1;yes;yes;-0.076;0.044
ML;Journal of Political Economy;117.1;2009;1;Gerardi;2;;no;other;2C;reg;2;2;yes;yes;-0.132;0.058
ML;Journal of Political Economy;117.1;2009;1;Gerardi;2;;no;other;2C;reg;3;3;yes;yes;-0.006;0.009
ML;Journal of Political Economy;117.1;2009;1;Gerardi;2;;no;other;2C;reg;4;3;yes;yes;-0.034;0.012
ML;Journal of Political Economy;117.1;2009;1;Gerardi;2;;no;other;3;reg;1;1;yes;yes;-0.406;0.041
ML;Journal of Political Economy;117.1;2009;1;Gerardi;2;;no;other;3;reg;2;2;yes;yes;-0.652;0.067
ML;Journal of Political Economy;117.1;2009;1;Gerardi;2;;no;other;3;reg;3;3;yes;yes;-0.041;0.005
ML;Journal of Political Economy;117.1;2009;1;Gerardi;2;;no;other;3;reg;4;3;yes;yes;-0.156;0.014
ML;Journal of Political Economy;117.1;2009;1;Gerardi;2;;no;other;3;reg;1;4;yes;yes;-0.166;0.027
ML;Journal of Political Economy;117.1;2009;1;Gerardi;2;;no;other;3;reg;2;5;yes;yes;-0.273;0.039
ML;Journal of Political Economy;117.1;2009;1;Gerardi;2;;no;other;3;reg;3;6;yes;yes;-0.025;0.004
ML;Journal of Political Economy;117.1;2009;1;Gerardi;2;;no;other;3;reg;4;6;yes;yes;-0.054;0.007
ML;Journal of Political Economy;117.1;2009;1;Gerardi;2;;no;other;3;reg;1;7;yes;yes;-0.168;0.028
ML;Journal of Political Economy;117.1;2009;1;Gerardi;2;;no;other;3;reg;2;8;yes;yes;-0.259;0.041
ML;Journal of Political Economy;117.1;2009;1;Gerardi;2;;no;other;3;reg;3;9;yes;yes;-0.011;0.008
ML;Journal of Political Economy;117.1;2009;1;Gerardi;2;;no;other;3;reg;4;9;yes;yes;-0.090;0.011
ML;Journal of Political Economy;117.1;2009;1;Gerardi;2;;no;other;3;reg;1;10;yes;yes;-0.119;0.024
ML;Journal of Political Economy;117.1;2009;1;Gerardi;2;;no;other;3;reg;2;11;yes;yes;-0.176;0.036
ML;Journal of Political Economy;117.1;2009;1;Gerardi;2;;no;other;3;reg;3;12;yes;yes;-0.008;0.007
ML;Journal of Political Economy;117.1;2009;1;Gerardi;2;;no;other;3;reg;4;12;yes;yes;-0.065;0.009
ML;Journal of Political Economy;117.1;2009;1;Gerardi;2;;no;other;4;reg;1;1;yes;yes;0.069;0.055
ML;Journal of Political Economy;117.1;2009;1;Gerardi;2;;no;other;4;reg;1;3;yes;yes;0.337;0.058
ML;Journal of Political Economy;117.1;2009;1;Gerardi;2;;no;other;4;reg;1;5;yes;yes;0.179;0.042
ML;Journal of Political Economy;117.1;2009;1;Gerardi;2;;no;other;4;reg;2;1;yes;yes;0.047;0.015
ML;Journal of Political Economy;117.1;2009;1;Gerardi;2;;no;other;4;reg;2;3;yes;yes;0.119;0.017
ML;Journal of Political Economy;117.1;2009;1;Gerardi;2;;no;other;4;reg;2;5;yes;yes;0.101;0.015
ML;Journal of Political Economy;117.1;2009;1;Gerardi;2;;no;other;4;reg;3;2;yes;yes;0.164;0.038
ML;Journal of Political Economy;117.1;2009;1;Gerardi;2;;no;other;4;reg;3;4;yes;yes;0.244;0.039
ML;Journal of Political Economy;117.1;2009;1;Gerardi;2;;no;other;4;reg;3;6;yes;yes;0.035;0.029
ML;Journal of Political Economy;117.1;2009;1;Gerardi;2;;no;other;5;reg;1;1;yes;yes;0.116;0.007
ML;Journal of Political Economy;117.1;2009;1;Gerardi;2;;no;other;5;reg;1;2;yes;yes;0.380;0.051
ML;Journal of Political Economy;117.1;2009;1;Gerardi;2;;no;other;5;reg;1;3;yes;yes;-0.035;0.012
ML;Journal of Political Economy;117.1;2009;1;Gerardi;2;;no;other;5;reg;1;4;yes;yes;-0.105;0.032
ML;Journal of Political Economy;117.1;2009;1;Gerardi;2;;no;other;5;reg;2;1;yes;yes;0.092;0.003
ML;Journal of Political Economy;117.1;2009;1;Gerardi;2;;no;other;5;reg;2;2;yes;yes;0.154;0.012
ML;Journal of Political Economy;117.1;2009;1;Gerardi;2;;no;other;5;reg;2;3;yes;yes;0.086;0.006
ML;Journal of Political Economy;117.1;2009;1;Gerardi;2;;no;other;5;reg;2;4;yes;yes;0.066;0.018
ML;Journal of Political Economy;117.1;2009;1;Gerardi;2;;no;other;6;reg;1;1;yes;yes;0.069;0.055
ML;Journal of Political Economy;117.1;2009;1;Gerardi;2;;no;other;6;reg;1;3;yes;yes;-0.065;0.064
ML;Journal of Political Economy;117.1;2009;1;Gerardi;2;;no;other;6;reg;2;1;yes;yes;0.047;0.015
ML;Journal of Political Economy;117.1;2009;1;Gerardi;2;;no;other;6;reg;2;3;yes;yes;-0.006;0.018
ML;Journal of Political Economy;117.1;2009;1;Gerardi;2;;no;other;6;reg;3;2;yes;yes;0.164;0.038
ML;Journal of Political Economy;117.1;2009;1;Gerardi;2;;no;other;6;reg;3;4;yes;yes;-0.010;0.048
ML;Journal of Political Economy;117.1;2009;138;Kirwan;1;;no;other;2;reg;1;1;yes;yes;0.658;0.011
ML;Journal of Political Economy;117.1;2009;138;Kirwan;1;;no;other;2;reg;1;2;yes;yes;0.439;0.013
ML;Journal of Political Economy;117.1;2009;138;Kirwan;1;;no;other;2;reg;1;3;yes;yes;0.134;0.017
ML;Journal of Political Economy;117.1;2009;138;Kirwan;1;;no;other;2;reg;1;4;yes;yes;0.206;0.041
ML;Journal of Political Economy;117.1;2009;138;Kirwan;1;;no;other;2;reg;1;5;yes;yes;0.803;0.059
ML;Journal of Political Economy;117.1;2009;138;Kirwan;1;;no;other;3;reg;1;2;yes;no;0.324;0.059
ML;Journal of Political Economy;117.1;2009;138;Kirwan;1;;no;other;3;reg;1;3;yes;no;0.811;0.104
ML;Journal of Political Economy;117.1;2009;138;Kirwan;1;;no;other;3;reg;2;2;yes;no;0.011;0.107
ML;Journal of Political Economy;117.1;2009;138;Kirwan;1;;no;other;3;reg;2;3;yes;no;0.411;0.168
ML;Journal of Political Economy;117.1;2009;138;Kirwan;1;;no;other;3;reg;3;2;yes;no;0.048;0.133
ML;Journal of Political Economy;117.1;2009;138;Kirwan;1;;no;other;3;reg;3;3;yes;no;0.135;0.162
ML;Journal of Political Economy;117.1;2009;138;Kirwan;1;;no;other;3;reg;4;2;yes;no;-0.151;0.119
ML;Journal of Political Economy;117.1;2009;138;Kirwan;1;;no;other;3;reg;4;3;yes;no;0.915;0.174
ML;Journal of Political Economy;117.1;2009;138;Kirwan;1;;no;other;3;reg;5;2;yes;no;0.484;0.248
ML;Journal of Political Economy;117.1;2009;138;Kirwan;1;;no;other;3;reg;5;3;yes;no;0.910;0.372
ML;Journal of Political Economy;117.1;2009;138;Kirwan;1;;no;other;3;reg;6;2;yes;no;0.270;0.139
ML;Journal of Political Economy;117.1;2009;138;Kirwan;1;;no;other;3;reg;6;3;yes;no;0.716;0.184
ML;Journal of Political Economy;117.1;2009;138;Kirwan;1;;no;other;3;reg;7;2;yes;no;0.392;0.203
ML;Journal of Political Economy;117.1;2009;138;Kirwan;1;;no;other;3;reg;7;3;yes;no;0.939;0.218
ML;Journal of Political Economy;117.1;2009;138;Kirwan;1;;no;other;3;reg;8;2;yes;no;-0.342;0.428
ML;Journal of Political Economy;117.1;2009;138;Kirwan;1;;no;other;3;reg;8;3;yes;no;0.758;0.721
ML;Journal of Political Economy;117.1;2009;138;Kirwan;1;;no;other;3;reg;9;2;yes;no;0.165;0.094
ML;Journal of Political Economy;117.1;2009;138;Kirwan;1;;no;other;3;reg;9;3;yes;no;1.070;0.098
ML;Journal of Political Economy;117.1;2009;138;Kirwan;1;;no;other;4;reg;1;1;yes;no;0.181;0.557
ML;Journal of Political Economy;117.1;2009;138;Kirwan;1;;no;other;4;reg;1;2;yes;no;2.351;6.842
ML;Journal of Political Economy;117.1;2009;138;Kirwan;1;;no;other;4;reg;2;1;yes;no;0.061;0.146
ML;Journal of Political Economy;117.1;2009;138;Kirwan;1;;no;other;4;reg;2;2;yes;no;1.095;0.246
ML;Journal of Political Economy;117.1;2009;138;Kirwan;1;;no;other;4;reg;3;1;yes;no;0.165;0.076
ML;Journal of Political Economy;117.1;2009;138;Kirwan;1;;no;other;4;reg;3;2;yes;no;0.762;0.107
ML;Journal of Political Economy;117.1;2009;138;Kirwan;1;;no;other;4;reg;4;1;yes;no;0.133;0.064
ML;Journal of Political Economy;117.1;2009;138;Kirwan;1;;no;other;4;reg;4;2;yes;no;0.706;0.087
ML;Journal of Political Economy;117.1;2009;138;Kirwan;1;;no;other;4;reg;5;1;yes;no;0.318;0.087
ML;Journal of Political Economy;117.1;2009;138;Kirwan;1;;no;other;4;reg;5;2;yes;no;0.897;0.126
ML;Journal of Political Economy;117.1;2009;138;Kirwan;1;;no;other;5;reg;1;1;yes;no;0.347;0.136
ML;Journal of Political Economy;117.1;2009;138;Kirwan;1;;no;other;5;reg;1;2;yes;no;0.563;0.236
ML;Journal of Political Economy;117.1;2009;138;Kirwan;1;;no;other;5;reg;1;3;yes;no;0.265;0.285
ML;Journal of Political Economy;117.1;2009;138;Kirwan;1;;no;other;5;reg;1;4;yes;no;0.904;0.547
ML;Journal of Political Economy;117.1;2009;138;Kirwan;1;;no;other;5;reg;2;3;yes;no;-1.740;1.035
ML;Journal of Political Economy;117.1;2009;138;Kirwan;1;;no;other;5;reg;2;4;yes;no;1.162;6.362
ML;Journal of Political Economy;117.1;2009;138;Kirwan;1;;no;other;6;reg;1;1;yes;no;0.293;0.065
ML;Journal of Political Economy;117.1;2009;138;Kirwan;1;;no;other;6;reg;1;2;yes;no;-3.482;2.095
ML;Journal of Political Economy;117.1;2009;138;Kirwan;1;;no;other;6;reg;2;1;yes;no;0.344;0.128
ML;Journal of Political Economy;117.1;2009;138;Kirwan;1;;no;other;6;reg;2;2;yes;no;-11.205;9.696
ML;Journal of Political Economy;117.1;2009;138;Kirwan;1;;no;other;A1A;MLE;1;1;yes;no;0.004;0.0004
ML;Journal of Political Economy;117.1;2009;138;Kirwan;1;;no;other;A1A;reg;1;2;yes;no;0.004;0.0004
ML;Journal of Political Economy;117.1;2009;138;Kirwan;1;;no;other;A1B;MLe;1;1;yes;no;0.140;0.014
ML;Journal of Political Economy;117.1;2009;138;Kirwan;1;;no;other;A1B;reg;1;2;yes;no;0.140;0.015
