ra;journal_id;issue;year;article_page;first_author;num_authors;JEL;model;type;table_panel;type_emp;row;column;stars;main;coefficient;standard_deviation;standard_deviation_2;standard_deviation_3;t_stat;p_value
ML;Journal of Political Economy;117.3;2009;417;Olken;2;;yes;other;2A;reg;1;1;yes;yes;-0.545;0.157;;;;
ML;Journal of Political Economy;117.3;2009;417;Olken;2;;yes;other;2A;reg;1;2;yes;yes;-0.580;0.167;;;;
ML;Journal of Political Economy;117.3;2009;417;Olken;2;;yes;other;2A;reg;1;3;yes;yes;-0.684;0.257;;;;
ML;Journal of Political Economy;117.3;2009;417;Olken;2;;yes;other;2A;reg;1;4;yes;yes;-0.788;0.217;;;;
ML;Journal of Political Economy;117.3;2009;417;Olken;2;;yes;other;2A;reg;1;5;yes;yes;-0.701;0.202;;;;
ML;Journal of Political Economy;117.3;2009;417;Olken;2;;yes;other;2A;reg;1;6;yes;yes;-0.787;0.203;;;;
ML;Journal of Political Economy;117.3;2009;417;Olken;2;;yes;other;2B;reg;1;1;yes;yes;-0.736;0.064;;;;
ML;Journal of Political Economy;117.3;2009;417;Olken;2;;yes;other;2B;reg;1;2;yes;yes;-0.695;0.069;;;;
ML;Journal of Political Economy;117.3;2009;417;Olken;2;;yes;other;2B;reg;1;3;yes;yes;-0.643;0.237;;;;
ML;Journal of Political Economy;117.3;2009;417;Olken;2;;yes;other;2B;reg;1;4;yes;yes;-0.782;0.131;;;;
ML;Journal of Political Economy;117.3;2009;417;Olken;2;;yes;other;2B;reg;1;5;yes;yes;-1.107;0.444;;;;
ML;Journal of Political Economy;117.3;2009;417;Olken;2;;yes;other;2B;reg;1;6;yes;yes;-1.026;0.405;;;;
ML;Journal of Political Economy;117.3;2009;417;Olken;2;;yes;other;3;reg;1;1;yes;yes;0.663;0.081;;;;
ML;Journal of Political Economy;117.3;2009;417;Olken;2;;yes;other;3;reg;1;2;yes;yes;1.522;0.390;;;;
ML;Journal of Political Economy;117.3;2009;417;Olken;2;;yes;other;3;reg;1;3;yes;yes;0.586;0.082;;;;
ML;Journal of Political Economy;117.3;2009;417;Olken;2;;yes;other;3;reg;1;4;yes;yes;0.786;0.359
ML;Journal of Political Economy;117.3;2009;417;Olken;2;;yes;other;4;reg;1;1;yes;yes;0.166;0.066
ML;Journal of Political Economy;117.3;2009;417;Olken;2;;yes;other;4;reg;1;2;yes;yes;0.154;0.070
ML;Journal of Political Economy;117.3;2009;417;Olken;2;;yes;other;4;reg;1;3;yes;yes;0.042;0.018
ML;Journal of Political Economy;117.3;2009;417;Olken;2;;yes;other;4;reg;1;4;yes;yes;0.047;0.018
ML;Journal of Political Economy;117.3;2009;417;Olken;2;;yes;other;4;reg;2;2;yes;yes;0.016;0.024
ML;Journal of Political Economy;117.3;2009;417;Olken;2;;yes;other;4;reg;2;4;yes;yes;0.016;0.018
ML;Journal of Political Economy;117.3;2009;417;Olken;2;;yes;other;4;reg;3;1;yes;yes;0.047;0.010
ML;Journal of Political Economy;117.3;2009;417;Olken;2;;yes;other;4;reg;3;2;yes;yes;0.050;0.009
ML;Journal of Political Economy;117.3;2009;417;Olken;2;;yes;other;4;reg;3;3;yes;yes;0.017;0.004
ML;Journal of Political Economy;117.3;2009;417;Olken;2;;yes;other;4;reg;3;4;yes;yes;0.016;0.005
ML;Journal of Political Economy;117.3;2009;417;Olken;2;;yes;other;4;reg;4;2;yes;yes;-0.003;0.007
ML;Journal of Political Economy;117.3;2009;417;Olken;2;;yes;other;4;reg;4;4;yes;yes;-0.003;0.004
ML;Journal of Political Economy;117.3;2009;417;Olken;2;;yes;other;5;reg;1;1;yes;yes;0.145;0.045
ML;Journal of Political Economy;117.3;2009;417;Olken;2;;yes;other;5;reg;1;2;yes;yes;-0.178;0.225
ML;Journal of Political Economy;117.3;2009;417;Olken;2;;yes;other;6;reg;1;1;yes;yes;0.387;0.144
ML;Journal of Political Economy;117.3;2009;417;Olken;2;;yes;other;6;reg;2;1;yes;yes;-0.063;0.059
ML;Journal of Political Economy;117.3;2009;417;Olken;2;;yes;other;6;reg;3;1;yes;yes;0.025;0.039
ML;Journal of Political Economy;117.3;2009;417;Olken;2;;yes;other;6;reg;4;1;yes;yes;0.106;0.073
ML;Journal of Political Economy;117.3;2009;417;Olken;2;;yes;other;6;reg;5;1;yes;yes;-0.210;0.074
ML;Journal of Political Economy;117.3;2009;417;Olken;2;;yes;other;6;reg;6;1;yes;yes;-0.037;0.529
ML;Journal of Political Economy;117.3;2009;417;Olken;2;;yes;other;6;reg;7;2;yes;yes;0.072;0.036
ML;Journal of Political Economy;117.3;2009;417;Olken;2;;yes;other;6;reg;8;1;yes;yes;0.050;0.025
ML;Journal of Political Economy;117.3;2009;417;Olken;2;;yes;other;6;reg;8;2;yes;yes;0.028;0.031
ML;Journal of Political Economy;117.3;2009;417;Olken;2;;yes;other;6;reg;9;1;yes;yes;-0.002;0.002
ML;Journal of Political Economy;117.3;2009;417;Olken;2;;yes;other;6;reg;9;2;yes;yes;-0.001;0.002
ML;Journal of Political Economy;117.3;2009;417;Olken;2;;yes;other;6;reg;10;1;yes;yes;-0.001;0.003
ML;Journal of Political Economy;117.3;2009;417;Olken;2;;yes;other;6;reg;10;2;yes;yes;0.006;0.003
ML;Journal of Political Economy;117.3;2009;417;Olken;2;;yes;other;6;reg;11;1;yes;yes;0.006;0.004
ML;Journal of Political Economy;117.3;2009;417;Olken;2;;yes;other;6;reg;11;2;yes;yes;0.001;0.004
ML;Journal of Political Economy;117.3;2009;417;Olken;2;;yes;other;6;reg;12;1;yes;yes;0.002;0.004
ML;Journal of Political Economy;117.3;2009;417;Olken;2;;yes;other;6;reg;12;2;yes;yes;-0.11;0.007
ML;Journal of Political Economy;117.3;2009;417;Olken;2;;yes;other;6;reg;13;1;yes;yes;-0.029;0.039
ML;Journal of Political Economy;117.3;2009;417;Olken;2;;yes;other;6;reg;13;2;yes;yes;0.045;0.045
ML;Journal of Political Economy;117.3;2009;417;Olken;2;;yes;other;6;reg;14;1;yes;yes;-0.003;0.003
ML;Journal of Political Economy;117.3;2009;417;Olken;2;;yes;other;6;reg;14;2;yes;yes;0.003;0.004
ML;Journal of Political Economy;117.3;2009;417;Olken;2;;yes;other;6;reg;15;1;yes;yes;-0.049;0.015
ML;Journal of Political Economy;117.3;2009;417;Olken;2;;yes;other;6;reg;15;2;yes;yes;-0.007;0.031
ML;Journal of Political Economy;117.3;2009;417;Olken;2;;yes;other;6;reg;16;1;yes;yes;0.090;0.042
ML;Journal of Political Economy;117.3;2009;417;Olken;2;;yes;other;6;reg;16;2;yes;yes;0.026;0.057
ML;Journal of Political Economy;117.3;2009;417;Olken;2;;yes;other;7;reg;1;1;yes;yes;0.003;0.010
ML;Journal of Political Economy;117.3;2009;417;Olken;2;;yes;other;7;reg;1;3;yes;yes;0.039;0.019
ML;Journal of Political Economy;117.3;2009;417;Olken;2;;yes;other;7;reg;2;2;yes;yes;0.305;0.119
ML;Journal of Political Economy;117.3;2009;555;Kocherlakota;2;;yes;other;2;GMM;1;1;no;yes;5.3326;1.3270
ML;Journal of Political Economy;117.3;2009;555;Kocherlakota;2;;yes;other;2;GMM;1;2;no;yes;1.5246;NA
ML;Journal of Political Economy;117.3;2009;555;Kocherlakota;2;;yes;other;2;GMM;1;3;no;yes;53.2607;21.1679
ML;Journal of Political Economy;117.3;2009;555;Kocherlakota;2;;yes;other;2;GMM;1;4;no;yes;4.9231;1.2451
ML;Journal of Political Economy;117.3;2009;555;Kocherlakota;2;;yes;other;2;GMM;1;5;no;yes;2.1969;NA
ML;Journal of Political Economy;117.3;2009;555;Kocherlakota;2;;yes;other;2;GMM;1;6;no;yes;4.8564;NA
ML;Journal of Political Economy;117.3;2009;555;Kocherlakota;2;;yes;other;2;GMM;1;7;no;yes;4.5357;3.1786
ML;Journal of Political Economy;117.3;2009;555;Kocherlakota;2;;yes;other;2;GMM;1;8;no;yes;2.3236;NA
ML;Journal of Political Economy;117.3;2009;555;Kocherlakota;2;;yes;other;2;GMM;1;9;no;yes;10.5233;NA
ML;Journal of Political Economy;117.3;2009;555;Kocherlakota;2;;yes;other;3;GMM;1;1;no;yes;4.9216;1.2211
ML;Journal of Political Economy;117.3;2009;555;Kocherlakota;2;;yes;other;3;GMM;1;2;no;yes;2.0491;12.2032
ML;Journal of Political Economy;117.3;2009;555;Kocherlakota;2;;yes;other;3;GMM;1;3;no;yes;7.5931;50.4559
ML;Journal of Political Economy;117.3;2009;555;Kocherlakota;2;;yes;other;5;GMM;1;1;no;yes;5.3326;1.3271
ML;Journal of Political Economy;117.3;2009;555;Kocherlakota;2;;yes;other;5;GMM;1;2;no;yes;1.5246;NA
ML;Journal of Political Economy;117.3;2009;555;Kocherlakota;2;;yes;other;5;GMM;1;3;no;yes;53.2607;21.1679
ML;Journal of Political Economy;117.3;2009;555;Kocherlakota;2;;yes;other;5;GMM;1;4;no;yes;4.9231;1.2451
ML;Journal of Political Economy;117.3;2009;555;Kocherlakota;2;;yes;other;5;GMM;1;5;no;yes;2.1969;NA
ML;Journal of Political Economy;117.3;2009;555;Kocherlakota;2;;yes;other;5;GMM;1;6;no;yes;4.8564;NA
ML;Journal of Political Economy;117.3;2009;555;Kocherlakota;2;;yes;other;5;GMM;1;7;no;yes;4.5357;3.1786
ML;Journal of Political Economy;117.3;2009;555;Kocherlakota;2;;yes;other;5;GMM;1;8;no;yes;2.3235;NA
ML;Journal of Political Economy;117.3;2009;555;Kocherlakota;2;;yes;other;5;GMM;1;9;no;yes;10.5232;NA
ML;Journal of Political Economy;117.3;2009;504;Gorodnichenko;3;;no;other;2A;reg;1;1;yes;yes;-0.010;0.013
ML;Journal of Political Economy;117.3;2009;504;Gorodnichenko;3;;no;other;2A;reg;1;2;yes;yes;-0.033;0.013
ML;Journal of Political Economy;117.3;2009;504;Gorodnichenko;3;;no;other;2A;reg;1;3;yes;yes;0.018;0.013
ML;Journal of Political Economy;117.3;2009;504;Gorodnichenko;3;;no;other;2A;reg;1;4;yes;yes;-0.005;0.013
ML;Journal of Political Economy;117.3;2009;504;Gorodnichenko;3;;no;other;2A;reg;2;1;yes;yes;-0.210;0.022
ML;Journal of Political Economy;117.3;2009;504;Gorodnichenko;3;;no;other;2A;reg;2;2;yes;yes;-0.200;0.022
ML;Journal of Political Economy;117.3;2009;504;Gorodnichenko;3;;no;other;2A;reg;2;3;yes;yes;-0.180;0.022
ML;Journal of Political Economy;117.3;2009;504;Gorodnichenko;3;;no;other;2A;reg;2;4;yes;yes;-0.169;0.022
ML;Journal of Political Economy;117.3;2009;504;Gorodnichenko;3;;no;other;2A;reg;3;1;yes;yes;0.088;0.022
ML;Journal of Political Economy;117.3;2009;504;Gorodnichenko;3;;no;other;2A;reg;3;2;yes;yes;0.076;0.022
ML;Journal of Political Economy;117.3;2009;504;Gorodnichenko;3;;no;other;2A;reg;3;3;yes;yes;0.034;0.021
ML;Journal of Political Economy;117.3;2009;504;Gorodnichenko;3;;no;other;2A;reg;3;4;yes;yes;0.023;0.021
ML;Journal of Political Economy;117.3;2009;504;Gorodnichenko;3;;no;other;2A;reg;4;1;yes;yes;-0.026;0.020
ML;Journal of Political Economy;117.3;2009;504;Gorodnichenko;3;;no;other;2A;reg;4;2;yes;yes;-0.025;0.020
ML;Journal of Political Economy;117.3;2009;504;Gorodnichenko;3;;no;other;2A;reg;4;3;yes;yes;-0.026;0.020
ML;Journal of Political Economy;117.3;2009;504;Gorodnichenko;3;;no;other;2A;reg;4;4;yes;yes;-0.025;0.020
ML;Journal of Political Economy;117.3;2009;504;Gorodnichenko;3;;no;other;2A;reg;5;1;yes;yes;-0.142;0.017
ML;Journal of Political Economy;117.3;2009;504;Gorodnichenko;3;;no;other;2A;reg;5;2;yes;yes;-0.139;0.017
ML;Journal of Political Economy;117.3;2009;504;Gorodnichenko;3;;no;other;2A;reg;5;3;yes;yes;-0.140;0.018
ML;Journal of Political Economy;117.3;2009;504;Gorodnichenko;3;;no;other;2A;reg;5;4;yes;yes;-0.137;0.018
ML;Journal of Political Economy;117.3;2009;504;Gorodnichenko;3;;no;other;2A;reg;6;1;yes;yes;-0.221;0.018
ML;Journal of Political Economy;117.3;2009;504;Gorodnichenko;3;;no;other;2A;reg;6;2;yes;yes;-0.213;0.018
ML;Journal of Political Economy;117.3;2009;504;Gorodnichenko;3;;no;other;2A;reg;6;3;yes;yes;-0.216;0.018
ML;Journal of Political Economy;117.3;2009;504;Gorodnichenko;3;;no;other;2A;reg;6;4;yes;yes;-0.208;0.018
ML;Journal of Political Economy;117.3;2009;504;Gorodnichenko;3;;no;other;2A;reg;7;1;yes;yes;-0.208;0.018
ML;Journal of Political Economy;117.3;2009;504;Gorodnichenko;3;;no;other;2A;reg;7;2;yes;yes;-0.203;0.018
ML;Journal of Political Economy;117.3;2009;504;Gorodnichenko;3;;no;other;2A;reg;7;3;yes;yes;-0.217;0.018
ML;Journal of Political Economy;117.3;2009;504;Gorodnichenko;3;;no;other;2A;reg;7;4;yes;yes;-0.213;0.018
ML;Journal of Political Economy;117.3;2009;504;Gorodnichenko;3;;no;other;2A;reg;8;1;yes;yes;-0.268;0.018
ML;Journal of Political Economy;117.3;2009;504;Gorodnichenko;3;;no;other;2A;reg;8;2;yes;yes;-0.262;0.018
ML;Journal of Political Economy;117.3;2009;504;Gorodnichenko;3;;no;other;2A;reg;8;3;yes;yes;-0.265;0.018
ML;Journal of Political Economy;117.3;2009;504;Gorodnichenko;3;;no;other;2A;reg;8;4;yes;yes;-0.260;0.018
ML;Journal of Political Economy;117.3;2009;504;Gorodnichenko;3;;no;other;2A;reg;9;1;yes;yes;-0.004;0.001
ML;Journal of Political Economy;117.3;2009;504;Gorodnichenko;3;;no;other;2A;reg;9;2;yes;yes;-0.004;0.001
ML;Journal of Political Economy;117.3;2009;504;Gorodnichenko;3;;no;other;2A;reg;9;3;yes;yes;-0.002;0.001
ML;Journal of Political Economy;117.3;2009;504;Gorodnichenko;3;;no;other;2A;reg;9;4;yes;yes;-0.001;0.001
ML;Journal of Political Economy;117.3;2009;504;Gorodnichenko;3;;no;other;2A;reg;10;1;yes;yes;-0.006;0.004
ML;Journal of Political Economy;117.3;2009;504;Gorodnichenko;3;;no;other;2A;reg;10;2;yes;yes;-0.004;0.004
ML;Journal of Political Economy;117.3;2009;504;Gorodnichenko;3;;no;other;2A;reg;10;3;yes;yes;-0.007;0.004
ML;Journal of Political Economy;117.3;2009;504;Gorodnichenko;3;;no;other;2A;reg;10;4;yes;yes;-0.005;0.004
ML;Journal of Political Economy;117.3;2009;504;Gorodnichenko;3;;no;other;2A;reg;11;1;yes;yes;-0.093;0.024
ML;Journal of Political Economy;117.3;2009;504;Gorodnichenko;3;;no;other;2A;reg;11;2;yes;yes;-0.087;0.024
ML;Journal of Political Economy;117.3;2009;504;Gorodnichenko;3;;no;other;2A;reg;11;3;yes;yes;-0.060;0.023
ML;Journal of Political Economy;117.3;2009;504;Gorodnichenko;3;;no;other;2A;reg;11;4;yes;yes;-0.053;0.023
ML;Journal of Political Economy;117.3;2009;504;Gorodnichenko;3;;no;other;2A;reg;12;1;yes;yes;-0.298;0.055
ML;Journal of Political Economy;117.3;2009;504;Gorodnichenko;3;;no;other;2A;reg;12;2;yes;yes;-0.278;0.054
ML;Journal of Political Economy;117.3;2009;504;Gorodnichenko;3;;no;other;2A;reg;12;3;yes;yes;-0.151;0.052
ML;Journal of Political Economy;117.3;2009;504;Gorodnichenko;3;;no;other;2A;reg;12;4;yes;yes;-0.130;0.052
ML;Journal of Political Economy;117.3;2009;504;Gorodnichenko;3;;no;other;2A;reg;13;1;yes;yes;0.003;0.001
ML;Journal of Political Economy;117.3;2009;504;Gorodnichenko;3;;no;other;2A;reg;13;2;yes;yes;0.003;0.001
ML;Journal of Political Economy;117.3;2009;504;Gorodnichenko;3;;no;other;2A;reg;13;3;yes;yes;0.002;0.001
ML;Journal of Political Economy;117.3;2009;504;Gorodnichenko;3;;no;other;2A;reg;13;4;yes;yes;0.002;0.001
ML;Journal of Political Economy;117.3;2009;504;Gorodnichenko;3;;no;other;2A;reg;14;1;yes;yes;-0.076;0.046
ML;Journal of Political Economy;117.3;2009;504;Gorodnichenko;3;;no;other;2A;reg;14;2;yes;yes;-0.083;0.045
ML;Journal of Political Economy;117.3;2009;504;Gorodnichenko;3;;no;other;2A;reg;14;3;yes;yes;-0.081;0.044
ML;Journal of Political Economy;117.3;2009;504;Gorodnichenko;3;;no;other;2A;reg;14;4;yes;yes;-0.089;0.044
ML;Journal of Political Economy;117.3;2009;504;Gorodnichenko;3;;no;other;2A;reg;15;1;yes;yes;-0.105;0.021
ML;Journal of Political Economy;117.3;2009;504;Gorodnichenko;3;;no;other;2A;reg;15;2;yes;yes;-0.105;0.021
ML;Journal of Political Economy;117.3;2009;504;Gorodnichenko;3;;no;other;2A;reg;15;3;yes;yes;-0.085;0.021
ML;Journal of Political Economy;117.3;2009;504;Gorodnichenko;3;;no;other;2A;reg;15;4;yes;yes;-0.084;0.021
ML;Journal of Political Economy;117.3;2009;504;Gorodnichenko;3;;no;other;2A;reg;16;1;yes;yes;-0.020;0.006
ML;Journal of Political Economy;117.3;2009;504;Gorodnichenko;3;;no;other;2A;reg;16;2;yes;yes;-0.019;0.006
ML;Journal of Political Economy;117.3;2009;504;Gorodnichenko;3;;no;other;2A;reg;16;3;yes;yes;-0.016;0.006
ML;Journal of Political Economy;117.3;2009;504;Gorodnichenko;3;;no;other;2A;reg;16;4;yes;yes;-0.015;0.006
ML;Journal of Political Economy;117.3;2009;504;Gorodnichenko;3;;no;other;2B;reg;1;1;yes;yes;-0.067;0.005
ML;Journal of Political Economy;117.3;2009;504;Gorodnichenko;3;;no;other;2B;reg;1;2;yes;yes;-0.066;0.005
ML;Journal of Political Economy;117.3;2009;504;Gorodnichenko;3;;no;other;2B;reg;1;3;yes;yes;-0.066;0.005
ML;Journal of Political Economy;117.3;2009;504;Gorodnichenko;3;;no;other;2B;reg;1;4;yes;yes;-0.065;0.005
ML;Journal of Political Economy;117.3;2009;504;Gorodnichenko;3;;no;other;3;reg;1;1;yes;yes;0.244;0.119
ML;Journal of Political Economy;117.3;2009;504;Gorodnichenko;3;;no;other;3;reg;1;2;yes;yes;0.246;0.119
ML;Journal of Political Economy;117.3;2009;504;Gorodnichenko;3;;no;other;3;reg;1;3;yes;yes;0.368;0.118
ML;Journal of Political Economy;117.3;2009;504;Gorodnichenko;3;;no;other;3;reg;1;4;yes;yes;0.370;0.118
ML;Journal of Political Economy;117.3;2009;504;Gorodnichenko;3;;no;other;3;reg;2;1;yes;yes;-0.173;0.020
ML;Journal of Political Economy;117.3;2009;504;Gorodnichenko;3;;no;other;3;reg;2;2;yes;yes;-0.162;0.020
ML;Journal of Political Economy;117.3;2009;504;Gorodnichenko;3;;no;other;3;reg;2;3;yes;yes;-0.170;0.020
ML;Journal of Political Economy;117.3;2009;504;Gorodnichenko;3;;no;other;3;reg;2;4;yes;yes;-0.160;0.020
ML;Journal of Political Economy;117.3;2009;504;Gorodnichenko;3;;no;other;5;reg;17;1;yes;yes;-0.109;0.033
ML;Journal of Political Economy;117.3;2009;504;Gorodnichenko;3;;no;other;5;reg;17;2;yes;yes;-0.108;0.033
ML;Journal of Political Economy;117.3;2009;504;Gorodnichenko;3;;no;other;5;reg;17;3;yes;yes;-0.105;0.033
ML;Journal of Political Economy;117.3;2009;504;Gorodnichenko;3;;no;other;5;reg;17;4;yes;yes;-0.102;0.033
ML;Journal of Political Economy;117.3;2009;504;Gorodnichenko;3;;no;other;6A;reg;1;1;yes;yes;-0.095;0.032
ML;Journal of Political Economy;117.3;2009;504;Gorodnichenko;3;;no;other;6A;reg;1;2;yes;yes;-0.091;0.032
ML;Journal of Political Economy;117.3;2009;504;Gorodnichenko;3;;no;other;6A;reg;1;3;yes;yes;-0.101;0.032
ML;Journal of Political Economy;117.3;2009;504;Gorodnichenko;3;;no;other;6A;reg;1;4;yes;yes;-0.096;0.032
ML;Journal of Political Economy;117.3;2009;504;Gorodnichenko;3;;no;other;6A;reg;2;1;yes;yes;-0.117;0.034
ML;Journal of Political Economy;117.3;2009;504;Gorodnichenko;3;;no;other;6A;reg;2;2;yes;yes;-0.109;0.034
ML;Journal of Political Economy;117.3;2009;504;Gorodnichenko;3;;no;other;6A;reg;2;3;yes;yes;-0.120;0.034
ML;Journal of Political Economy;117.3;2009;504;Gorodnichenko;3;;no;other;6A;reg;2;4;yes;yes;-0.112;0.034
ML;Journal of Political Economy;117.3;2009;504;Gorodnichenko;3;;no;other;6A;reg;3;1;yes;yes;-0.11;0.033
ML;Journal of Political Economy;117.3;2009;504;Gorodnichenko;3;;no;other;6A;reg;3;2;yes;yes;-0.117;0.033
ML;Journal of Political Economy;117.3;2009;504;Gorodnichenko;3;;no;other;6A;reg;3;3;yes;yes;-0.099;0.033
ML;Journal of Political Economy;117.3;2009;504;Gorodnichenko;3;;no;other;6A;reg;3;4;yes;yes;-0.104;0.033
ML;Journal of Political Economy;117.3;2009;504;Gorodnichenko;3;;no;other;6A;reg;4;1;yes;yes;-0.122;0.035
ML;Journal of Political Economy;117.3;2009;504;Gorodnichenko;3;;no;other;6A;reg;4;2;yes;yes;-0.109;0.036
ML;Journal of Political Economy;117.3;2009;504;Gorodnichenko;3;;no;other;6A;reg;4;3;yes;yes;-0.118;0.036
ML;Journal of Political Economy;117.3;2009;504;Gorodnichenko;3;;no;other;6A;reg;4;4;yes;yes;-0.107;0.036
ML;Journal of Political Economy;117.3;2009;504;Gorodnichenko;3;;no;other;6A;reg;5;1;yes;yes;-0.131;0.032
ML;Journal of Political Economy;117.3;2009;504;Gorodnichenko;3;;no;other;6A;reg;5;2;yes;yes;-0.128;0.032
ML;Journal of Political Economy;117.3;2009;504;Gorodnichenko;3;;no;other;6A;reg;5;3;yes;yes;-0.145;0.032
ML;Journal of Political Economy;117.3;2009;504;Gorodnichenko;3;;no;other;6A;reg;5;4;yes;yes;-0.142;0.032
ML;Journal of Political Economy;117.3;2009;504;Gorodnichenko;3;;no;other;6A;reg;6;1;yes;yes;-0.116;0.035
ML;Journal of Political Economy;117.3;2009;504;Gorodnichenko;3;;no;other;6A;reg;6;2;yes;yes;-0.109;0.035
ML;Journal of Political Economy;117.3;2009;504;Gorodnichenko;3;;no;other;6A;reg;6;3;yes;yes;-0.123;0.035
ML;Journal of Political Economy;117.3;2009;504;Gorodnichenko;3;;no;other;6A;reg;6;4;yes;yes;-0.117;0.035
ML;Journal of Political Economy;117.3;2009;504;Gorodnichenko;3;;no;other;6A;reg;7;1;yes;yes;-0.123;0.034
ML;Journal of Political Economy;117.3;2009;504;Gorodnichenko;3;;no;other;6A;reg;7;2;yes;yes;-0.115;0.034
ML;Journal of Political Economy;117.3;2009;504;Gorodnichenko;3;;no;other;6A;reg;7;3;yes;yes;-0.136;0.034
ML;Journal of Political Economy;117.3;2009;504;Gorodnichenko;3;;no;other;6A;reg;7;4;yes;yes;-0.129;0.034
ML;Journal of Political Economy;117.3;2009;504;Gorodnichenko;3;;no;other;6B;reg;1;1;yes;yes;-0.033;0.010
ML;Journal of Political Economy;117.3;2009;504;Gorodnichenko;3;;no;other;6B;reg;1;2;yes;yes;-0.031;0.010
ML;Journal of Political Economy;117.3;2009;504;Gorodnichenko;3;;no;other;6B;reg;1;3;yes;yes;-0.034;0.010
ML;Journal of Political Economy;117.3;2009;504;Gorodnichenko;3;;no;other;6B;reg;1;4;yes;yes;-0.032;0.010
ML;Journal of Political Economy;117.3;2009;504;Gorodnichenko;3;;no;other;6B;reg;2;1;yes;yes;-0.037;0.011
ML;Journal of Political Economy;117.3;2009;504;Gorodnichenko;3;;no;other;6B;reg;2;2;yes;yes;-0.033;0.011
ML;Journal of Political Economy;117.3;2009;504;Gorodnichenko;3;;no;other;6B;reg;2;3;yes;yes;-0.040;0.010
ML;Journal of Political Economy;117.3;2009;504;Gorodnichenko;3;;no;other;6B;reg;2;4;yes;yes;-0.036;0.010
ML;Journal of Political Economy;117.3;2009;504;Gorodnichenko;3;;no;other;6B;reg;3;1;yes;yes;-0.038;0.010
ML;Journal of Political Economy;117.3;2009;504;Gorodnichenko;3;;no;other;6B;reg;3;2;yes;yes;-0.036;0.010
ML;Journal of Political Economy;117.3;2009;504;Gorodnichenko;3;;no;other;6B;reg;3;3;yes;yes;-0.034;0.010
ML;Journal of Political Economy;117.3;2009;504;Gorodnichenko;3;;no;other;6B;reg;3;4;yes;yes;-0.032;0.010
ML;Journal of Political Economy;117.3;2009;504;Gorodnichenko;3;;no;other;6B;reg;4;1;yes;yes;-0.036;0.011
ML;Journal of Political Economy;117.3;2009;504;Gorodnichenko;3;;no;other;6B;reg;4;2;yes;yes;-0.034;0.011
ML;Journal of Political Economy;117.3;2009;504;Gorodnichenko;3;;no;other;6B;reg;4;3;yes;yes;-0.039;0.011
ML;Journal of Political Economy;117.3;2009;504;Gorodnichenko;3;;no;other;6B;reg;4;4;yes;yes;-0.037;0.011
ML;Journal of Political Economy;117.3;2009;504;Gorodnichenko;3;;no;other;7;reg;1;1;yes;yes;0.001;0.054
ML;Journal of Political Economy;117.3;2009;504;Gorodnichenko;3;;no;other;7;reg;1;2;yes;yes;-0.017;0.054
ML;Journal of Political Economy;117.3;2009;504;Gorodnichenko;3;;no;other;7;reg;1;3;yes;yes;-0.014;0.052
ML;Journal of Political Economy;117.3;2009;504;Gorodnichenko;3;;no;other;7;reg;1;4;yes;yes;-0.030;0.052
ML;Journal of Political Economy;117.3;2009;504;Gorodnichenko;3;;no;other;7;reg;2;1;yes;yes;-0.229;0.080
ML;Journal of Political Economy;117.3;2009;504;Gorodnichenko;3;;no;other;7;reg;2;2;yes;yes;-0.192;0.080
ML;Journal of Political Economy;117.3;2009;504;Gorodnichenko;3;;no;other;7;reg;2;3;yes;yes;-0.236;0.079
ML;Journal of Political Economy;117.3;2009;504;Gorodnichenko;3;;no;other;7;reg;2;4;yes;yes;-0.201;0.079
ML;Journal of Political Economy;117.3;2009;504;Gorodnichenko;3;;no;other;7;reg;4;1;yes;yes;-0.111;0.103
ML;Journal of Political Economy;117.3;2009;504;Gorodnichenko;3;;no;other;7;reg;4;2;yes;yes;-0.073;0.103
ML;Journal of Political Economy;117.3;2009;504;Gorodnichenko;3;;no;other;7;reg;4;3;yes;yes;-0.133;0.099
ML;Journal of Political Economy;117.3;2009;504;Gorodnichenko;3;;no;other;7;reg;4;4;yes;yes;-0.097;0.099
ML;Journal of Political Economy;117.3;2009;504;Gorodnichenko;3;;no;other;7;reg;5;1;yes;yes;-0.302;0.123
ML;Journal of Political Economy;117.3;2009;504;Gorodnichenko;3;;no;other;7;reg;5;2;yes;yes;-0.0308;0.125
ML;Journal of Political Economy;117.3;2009;504;Gorodnichenko;3;;no;other;7;reg;5;3;yes;yes;-0.295;0.124
ML;Journal of Political Economy;117.3;2009;504;Gorodnichenko;3;;no;other;7;reg;5;4;yes;yes;-0.297;0.124
ML;Journal of Political Economy;117.3;2009;504;Gorodnichenko;3;;no;other;8;reg;1;1;yes;yes;-0.120;0.050
ML;Journal of Political Economy;117.3;2009;504;Gorodnichenko;3;;no;other;8;reg;1;2;yes;yes;-0.120;0.050
ML;Journal of Political Economy;117.3;2009;504;Gorodnichenko;3;;no;other;8;reg;1;3;yes;yes;-0.123;0.050
ML;Journal of Political Economy;117.3;2009;504;Gorodnichenko;3;;no;other;8;reg;1;4;yes;yes;-0.123;0.050
ML;Journal of Political Economy;117.3;2009;504;Gorodnichenko;3;;no;other;8;reg;4;1;yes;yes;-0.098;0.048
ML;Journal of Political Economy;117.3;2009;504;Gorodnichenko;3;;no;other;8;reg;4;2;yes;yes;-0.095;0.048
ML;Journal of Political Economy;117.3;2009;504;Gorodnichenko;3;;no;other;8;reg;4;3;yes;yes;-0.109;0.047
ML;Journal of Political Economy;117.3;2009;504;Gorodnichenko;3;;no;other;8;reg;4;4;yes;yes;-0.108;0.046
ML;Journal of Political Economy;117.3;2009;504;Gorodnichenko;3;;no;other;10;reg;1;1;yes;yes;0.189;0.029
ML;Journal of Political Economy;117.3;2009;504;Gorodnichenko;3;;no;other;10;reg;1;2;yes;yes;0.080;0.024
ML;Journal of Political Economy;117.3;2009;504;Gorodnichenko;3;;no;other;10;reg;1;3;yes;yes;0.188;0.030
ML;Journal of Political Economy;117.3;2009;504;Gorodnichenko;3;;no;other;10;reg;1;4;yes;yes;0.087;0.024
ML;Journal of Political Economy;117.3;2009;504;Gorodnichenko;3;;no;other;10;reg;4;1;yes;yes;0.175;0.028
ML;Journal of Political Economy;117.3;2009;504;Gorodnichenko;3;;no;other;10;reg;4;2;yes;yes;0.080;0.023
ML;Journal of Political Economy;117.3;2009;504;Gorodnichenko;3;;no;other;10;reg;4;3;yes;yes;0.184;0.029
ML;Journal of Political Economy;117.3;2009;504;Gorodnichenko;3;;no;other;10;reg;4;4;yes;yes;0.088;0.023
ML;Journal of Political Economy;117.3;2009;504;Gorodnichenko;3;;no;other;A3;reg;17;1;yes;no;-0.091;0.034
ML;Journal of Political Economy;117.3;2009;504;Gorodnichenko;3;;no;other;A3;reg;17;2;yes;no;-0.105;0.035
ML;Journal of Political Economy;117.3;2009;504;Gorodnichenko;3;;no;other;A3;reg;17;3;yes;no;-0.114;0.032
ML;Journal of Political Economy;117.3;2009;504;Gorodnichenko;3;;no;other;A4;reg;1;1;yes;no;0.139;0.030
ML;Journal of Political Economy;117.3;2009;504;Gorodnichenko;3;;no;other;A4;reg;1;2;yes;no;0.052;0.025
ML;Journal of Political Economy;117.3;2009;504;Gorodnichenko;3;;no;other;A4;reg;1;3;yes;no;0.136;0.031
ML;Journal of Political Economy;117.3;2009;504;Gorodnichenko;3;;no;other;A4;reg;1;4;yes;no;0.059;0.025
ML;Journal of Political Economy;117.3;2009;504;Gorodnichenko;3;;no;other;A4;reg;2;1;yes;no;0.212;0.041
ML;Journal of Political Economy;117.3;2009;504;Gorodnichenko;3;;no;other;A4;reg;2;2;yes;no;0.120;0.032
ML;Journal of Political Economy;117.3;2009;504;Gorodnichenko;3;;no;other;A4;reg;2;3;yes;no;0.225;0.041
ML;Journal of Political Economy;117.3;2009;504;Gorodnichenko;3;;no;other;A4;reg;2;4;yes;no;0.119;0.033
ML;Journal of Political Economy;117.3;2009;504;Gorodnichenko;3;;no;other;A4;reg;5;1;yes;no;0.143;0.029
ML;Journal of Political Economy;117.3;2009;504;Gorodnichenko;3;;no;other;A4;reg;5;2;yes;no;0.062;0.024
ML;Journal of Political Economy;117.3;2009;504;Gorodnichenko;3;;no;other;A4;reg;5;3;yes;no;0.145;0.030
ML;Journal of Political Economy;117.3;2009;504;Gorodnichenko;3;;no;other;A4;reg;5;4;yes;no;0.065;0.024
ML;Journal of Political Economy;117.3;2009;504;Gorodnichenko;3;;no;other;A4;reg;6;1;yes;no;0.198;0.046
ML;Journal of Political Economy;117.3;2009;504;Gorodnichenko;3;;no;other;A4;reg;6;2;yes;no;0.091;0.036
ML;Journal of Political Economy;117.3;2009;504;Gorodnichenko;3;;no;other;A4;reg;6;3;yes;no;0.217;0.046
ML;Journal of Political Economy;117.3;2009;504;Gorodnichenko;3;;no;other;A4;reg;6;4;yes;no;0.093;0.037
ML;Journal of Political Economy;117.3;2009;453;Bobonis;1;;yes;exp;3A;reg;1;1;yes;yes;56.57;15.14
ML;Journal of Political Economy;117.3;2009;453;Bobonis;1;;yes;exp;3A;reg;1;2;yes;yes;77.60;17.10
ML;Journal of Political Economy;117.3;2009;453;Bobonis;1;;yes;exp;3A;reg;1;3;yes;yes;59.64;23.20
ML;Journal of Political Economy;117.3;2009;453;Bobonis;1;;yes;exp;3A;reg;1;4;yes;yes;-259.94;223.34
ML;Journal of Political Economy;117.3;2009;453;Bobonis;1;;yes;exp;3A;reg;1;5;yes;yes;0.0054;0.0024
ML;Journal of Political Economy;117.3;2009;453;Bobonis;1;;yes;exp;3A;reg;2;1;yes;yes;-1.10;0.19
ML;Journal of Political Economy;117.3;2009;453;Bobonis;1;;yes;exp;3A;reg;2;2;yes;yes;-1.05;0.23
ML;Journal of Political Economy;117.3;2009;453;Bobonis;1;;yes;exp;3A;reg;2;3;yes;yes;-0.82;0.26
ML;Journal of Political Economy;117.3;2009;453;Bobonis;1;;yes;exp;3A;reg;2;4;yes;yes;3.44;3.48
ML;Journal of Political Economy;117.3;2009;453;Bobonis;1;;yes;exp;3A;reg;2;5;yes;yes;-0.000024;0.000035
ML;Journal of Political Economy;117.3;2009;453;Bobonis;1;;yes;exp;3A;reg;3;2;yes;yes;-1.19;0.37
ML;Journal of Political Economy;117.3;2009;453;Bobonis;1;;yes;exp;3A;reg;4;3;yes;yes;-1.27;0.29
ML;Journal of Political Economy;117.3;2009;453;Bobonis;1;;yes;exp;3B;reg;1;1;yes;yes;56.66;15.26
ML;Journal of Political Economy;117.3;2009;453;Bobonis;1;;yes;exp;3B;reg;1;2;yes;yes;76.49;17.20
ML;Journal of Political Economy;117.3;2009;453;Bobonis;1;;yes;exp;3B;reg;1;3;yes;yes;60.40;23.45
ML;Journal of Political Economy;117.3;2009;453;Bobonis;1;;yes;exp;3B;reg;1;4;yes;yes;-254.89;223.40
ML;Journal of Political Economy;117.3;2009;453;Bobonis;1;;yes;exp;3B;reg;1;5;yes;yes;0.0054;0.0024
ML;Journal of Political Economy;117.3;2009;453;Bobonis;1;;yes;exp;3B;reg;2;1;yes;yes;-117.04;27.79
ML;Journal of Political Economy;117.3;2009;453;Bobonis;1;;yes;exp;3B;reg;2;2;yes;yes;-151.52;24.87
ML;Journal of Political Economy;117.3;2009;453;Bobonis;1;;yes;exp;3B;reg;2;3;yes;yes;-171.01;26.25
ML;Journal of Political Economy;117.3;2009;453;Bobonis;1;;yes;exp;3B;reg;2;4;yes;yes;-334.81;651.09
ML;Journal of Political Economy;117.3;2009;453;Bobonis;1;;yes;exp;3B;reg;2;5;yes;yes;-0.0045;0.0022
ML;Journal of Political Economy;117.3;2009;453;Bobonis;1;;yes;exp;3B;reg;3;2;yes;yes;-59.00;59.54
ML;Journal of Political Economy;117.3;2009;453;Bobonis;1;;yes;exp;3B;reg;4;3;yes;yes;-119.29;39.54
ML;Journal of Political Economy;117.3;2009;453;Bobonis;1;;yes;exp;4;reg;1;1;yes;yes;0.351;0.140
ML;Journal of Political Economy;117.3;2009;453;Bobonis;1;;yes;exp;4;reg;1;2;yes;yes;-0.781;0.254
ML;Journal of Political Economy;117.3;2009;453;Bobonis;1;;yes;exp;4;reg;1;3;yes;yes;0.007;0.006
ML;Journal of Political Economy;117.3;2009;453;Bobonis;1;;yes;exp;4;reg;2;1;yes;yes;0.173;0.133
ML;Journal of Political Economy;117.3;2009;453;Bobonis;1;;yes;exp;4;reg;2;2;yes;yes;-0.608;0.204
ML;Journal of Political Economy;117.3;2009;453;Bobonis;1;;yes;exp;4;reg;2;3;yes;yes;0.011;0.006
ML;Journal of Political Economy;117.3;2009;453;Bobonis;1;;yes;exp;4;reg;3;1;yes;yes;0.941;0.143
ML;Journal of Political Economy;117.3;2009;453;Bobonis;1;;yes;exp;4;reg;3;2;yes;yes;-0.912;0.256
ML;Journal of Political Economy;117.3;2009;453;Bobonis;1;;yes;exp;4;reg;3;3;yes;yes;-0.002;0.006
ML;Journal of Political Economy;117.3;2009;453;Bobonis;1;;yes;exp;4;reg;4;1;yes;yes;0.141;0.123
ML;Journal of Political Economy;117.3;2009;453;Bobonis;1;;yes;exp;4;reg;4;2;yes;yes;0.280;0.241
ML;Journal of Political Economy;117.3;2009;453;Bobonis;1;;yes;exp;4;reg;4;3;yes;yes;0.008;0.005
ML;Journal of Political Economy;117.3;2009;453;Bobonis;1;;yes;exp;4;reg;5;1;yes;yes;0.252;0.077
ML;Journal of Political Economy;117.3;2009;453;Bobonis;1;;yes;exp;4;reg;5;2;yes;yes;0.293;0.126
ML;Journal of Political Economy;117.3;2009;453;Bobonis;1;;yes;exp;4;reg;5;3;yes;yes;0.006;0.003
ML;Journal of Political Economy;117.3;2009;453;Bobonis;1;;yes;exp;4;reg;6;1;yes;yes;-0.073;0.055
ML;Journal of Political Economy;117.3;2009;453;Bobonis;1;;yes;exp;4;reg;6;2;yes;yes;-0.033;0.099
ML;Journal of Political Economy;117.3;2009;453;Bobonis;1;;yes;exp;4;reg;6;3;yes;yes;0.001;0.003
ML;Journal of Political Economy;117.3;2009;453;Bobonis;1;;yes;exp;4;reg;7;1;yes;yes;0.193;0.105
ML;Journal of Political Economy;117.3;2009;453;Bobonis;1;;yes;exp;4;reg;7;2;yes;yes;-0.243;0.221
ML;Journal of Political Economy;117.3;2009;453;Bobonis;1;;yes;exp;4;reg;7;3;yes;yes;0.024;0.004
ML;Journal of Political Economy;117.3;2009;453;Bobonis;1;;yes;exp;4;reg;8;1;yes;yes;0.037;0.041
ML;Journal of Political Economy;117.3;2009;453;Bobonis;1;;yes;exp;4;reg;8;2;yes;yes;0.229;0.062
ML;Journal of Political Economy;117.3;2009;453;Bobonis;1;;yes;exp;4;reg;8;3;yes;yes;-0.002;0.002
ML;Journal of Political Economy;117.3;2009;453;Bobonis;1;;yes;exp;4;reg;9;1;yes;yes;-0.014;0.095
ML;Journal of Political Economy;117.3;2009;453;Bobonis;1;;yes;exp;4;reg;9;2;yes;yes;0.378;0.199
ML;Journal of Political Economy;117.3;2009;453;Bobonis;1;;yes;exp;4;reg;9;3;yes;yes;0.014;0.004
ML;Journal of Political Economy;117.3;2009;453;Bobonis;1;;yes;exp;4;reg;10;1;yes;yes;-0.106;0.051
ML;Journal of Political Economy;117.3;2009;453;Bobonis;1;;yes;exp;4;reg;10;2;yes;yes;0.471;0.165
ML;Journal of Political Economy;117.3;2009;453;Bobonis;1;;yes;exp;4;reg;10;3;yes;yes;0.006;0.003
ML;Journal of Political Economy;117.3;2009;453;Bobonis;1;;yes;exp;4;reg;11;1;yes;yes;-0.019;0.050
ML;Journal of Political Economy;117.3;2009;453;Bobonis;1;;yes;exp;4;reg;11;2;yes;yes;0.208;0.108
ML;Journal of Political Economy;117.3;2009;453;Bobonis;1;;yes;exp;4;reg;11;3;yes;yes;0.001;0.003
ML;Journal of Political Economy;117.3;2009;453;Bobonis;1;;yes;exp;4;reg;12;1;yes;yes;-0.159;0.107
ML;Journal of Political Economy;117.3;2009;453;Bobonis;1;;yes;exp;4;reg;12;2;yes;yes;0.342;0.232
ML;Journal of Political Economy;117.3;2009;453;Bobonis;1;;yes;exp;4;reg;12;3;yes;yes;0.007;0.006
ML;Journal of Political Economy;117.3;2009;453;Bobonis;1;;yes;exp;4;reg;13;1;yes;yes;-0.068;0.151
ML;Journal of Political Economy;117.3;2009;453;Bobonis;1;;yes;exp;4;reg;13;2;yes;yes;0.900;0.188
ML;Journal of Political Economy;117.3;2009;453;Bobonis;1;;yes;exp;4;reg;13;3;yes;yes;0.019;0.005
ML;Journal of Political Economy;117.3;2009;453;Bobonis;1;;yes;exp;5A;reg;1;1;yes;no;-0.440;0.253
ML;Journal of Political Economy;117.3;2009;453;Bobonis;1;;yes;exp;5A;reg;1;2;yes;no;0.007;0.004
ML;Journal of Political Economy;117.3;2009;453;Bobonis;1;;yes;exp;5A;reg;2;1;yes;no;-0.440;0.184
ML;Journal of Political Economy;117.3;2009;453;Bobonis;1;;yes;exp;5A;reg;2;2;yes;no;0.011;0.005
ML;Journal of Political Economy;117.3;2009;453;Bobonis;1;;yes;exp;5A;reg;3;1;yes;no;0.417;0.262
ML;Journal of Political Economy;117.3;2009;453;Bobonis;1;;yes;exp;5A;reg;3;2;yes;no;0.008;0.005
ML;Journal of Political Economy;117.3;2009;453;Bobonis;1;;yes;exp;5A;reg;4;1;yes;no;0.537;0.150
ML;Journal of Political Economy;117.3;2009;453;Bobonis;1;;yes;exp;5A;reg;4;2;yes;no;0.007;0.003
ML;Journal of Political Economy;117.3;2009;453;Bobonis;1;;yes;exp;5A;reg;5;1;yes;no;-0.103;0.100
ML;Journal of Political Economy;117.3;2009;453;Bobonis;1;;yes;exp;5A;reg;5;2;yes;no;0.001;0.003
ML;Journal of Political Economy;117.3;2009;453;Bobonis;1;;yes;exp;5A;reg;6;1;yes;no;-0.056;0.240
ML;Journal of Political Economy;117.3;2009;453;Bobonis;1;;yes;exp;5A;reg;6;2;yes;no;0.025;0.004
ML;Journal of Political Economy;117.3;2009;453;Bobonis;1;;yes;exp;5A;reg;7;1;yes;no;0.265;0.073
ML;Journal of Political Economy;117.3;2009;453;Bobonis;1;;yes;exp;5A;reg;7;2;yes;no;-0.001;0.002
ML;Journal of Political Economy;117.3;2009;453;Bobonis;1;;yes;exp;5A;reg;8;1;yes;no;0.363;0.218
ML;Journal of Political Economy;117.3;2009;453;Bobonis;1;;yes;exp;5A;reg;8;2;yes;no;0.013;0.003
ML;Journal of Political Economy;117.3;2009;453;Bobonis;1;;yes;exp;5A;reg;9;1;yes;no;0.368;0.172
ML;Journal of Political Economy;117.3;2009;453;Bobonis;1;;yes;exp;5A;reg;9;2;yes;no;0.006;0.003
ML;Journal of Political Economy;117.3;2009;453;Bobonis;1;;yes;exp;5A;reg;10;1;yes;no;0.191;0.112
ML;Journal of Political Economy;117.3;2009;453;Bobonis;1;;yes;exp;5A;reg;10;2;yes;no;0.001;0.003
ML;Journal of Political Economy;117.3;2009;453;Bobonis;1;;yes;exp;5A;reg;11;1;yes;no;0.187;0.240
ML;Journal of Political Economy;117.3;2009;453;Bobonis;1;;yes;exp;5A;reg;11;2;yes;no;0.007;0.006
ML;Journal of Political Economy;117.3;2009;453;Bobonis;1;;yes;exp;5A;reg;12;1;yes;no;0.834;0.213
ML;Journal of Political Economy;117.3;2009;453;Bobonis;1;;yes;exp;5A;reg;12;2;yes;no;0.019;0.005
ML;Journal of Political Economy;117.3;2009;453;Bobonis;1;;yes;exp;5B;reg;1;1;yes;no;-0.0018;0.0014
ML;Journal of Political Economy;117.3;2009;453;Bobonis;1;;yes;exp;5B;reg;1;2;yes;no;0.007;0.004
ML;Journal of Political Economy;117.3;2009;453;Bobonis;1;;yes;exp;5B;reg;2;1;yes;no;-0.0006;0.0014
ML;Journal of Political Economy;117.3;2009;453;Bobonis;1;;yes;exp;5B;reg;2;2;yes;no;0.011;0.005
ML;Journal of Political Economy;117.3;2009;453;Bobonis;1;;yes;exp;5B;reg;3;1;yes;no;0.0058;0.0016
ML;Journal of Political Economy;117.3;2009;453;Bobonis;1;;yes;exp;5B;reg;3;2;yes;no;0.009;0.005
ML;Journal of Political Economy;117.3;2009;453;Bobonis;1;;yes;exp;5B;reg;4;1;yes;no;0.0026;0.0009
ML;Journal of Political Economy;117.3;2009;453;Bobonis;1;;yes;exp;5B;reg;4;2;yes;no;-0.007;0.003
ML;Journal of Political Economy;117.3;2009;453;Bobonis;1;;yes;exp;5B;reg;5;1;yes;no;0.0006;0.0006
ML;Journal of Political Economy;117.3;2009;453;Bobonis;1;;yes;exp;5B;reg;5;2;yes;no;0.001;0.003
ML;Journal of Political Economy;117.3;2009;453;Bobonis;1;;yes;exp;5B;reg;6;1;yes;no;0.0016;0.0016
ML;Journal of Political Economy;117.3;2009;453;Bobonis;1;;yes;exp;5B;reg;6;2;yes;no;0.025;0.004
ML;Journal of Political Economy;117.3;2009;453;Bobonis;1;;yes;exp;5B;reg;7;1;yes;no;0.0016;0.0005
ML;Journal of Political Economy;117.3;2009;453;Bobonis;1;;yes;exp;5B;reg;7;2;yes;no;-0.001;0.002
ML;Journal of Political Economy;117.3;2009;453;Bobonis;1;;yes;exp;5B;reg;8;1;yes;no;0.0017;0.0011
ML;Journal of Political Economy;117.3;2009;453;Bobonis;1;;yes;exp;5B;reg;8;2;yes;no;0.014;0.003
ML;Journal of Political Economy;117.3;2009;453;Bobonis;1;;yes;exp;5B;reg;9;1;yes;no;0.0014;0.009
ML;Journal of Political Economy;117.3;2009;453;Bobonis;1;;yes;exp;5B;reg;9;2;yes;no;0.006;0.003
ML;Journal of Political Economy;117.3;2009;453;Bobonis;1;;yes;exp;5B;reg;10;1;yes;no;0.0015;0.0008
ML;Journal of Political Economy;117.3;2009;453;Bobonis;1;;yes;exp;5B;reg;10;2;yes;no;0.001;0.003
ML;Journal of Political Economy;117.3;2009;453;Bobonis;1;;yes;exp;5B;reg;11;1;yes;no;-0.0012;0.0014
ML;Journal of Political Economy;117.3;2009;453;Bobonis;1;;yes;exp;5B;reg;11;2;yes;no;0.007;0.006
ML;Journal of Political Economy;117.3;2009;453;Bobonis;1;;yes;exp;5B;reg;12;1;yes;no;0.0065;0.0014
ML;Journal of Political Economy;117.3;2009;453;Bobonis;1;;yes;exp;5B;reg;12;2;yes;no;0.020;0.005
ML;Journal of Political Economy;117.3;2009;453;Bobonis;1;;yes;exp;6;reg;1;1;yes;no;-0.150;0.256
ML;Journal of Political Economy;117.3;2009;453;Bobonis;1;;yes;exp;6;reg;1;2;yes;no;0.049;0.264
ML;Journal of Political Economy;117.3;2009;453;Bobonis;1;;yes;exp;6;reg;1;3;yes;no;0.022;0.005
ML;Journal of Political Economy;117.3;2009;453;Bobonis;1;;yes;exp;6;reg;2;1;yes;no;-0.156;0.223
ML;Journal of Political Economy;117.3;2009;453;Bobonis;1;;yes;exp;6;reg;2;2;yes;no;0.261;0.199
ML;Journal of Political Economy;117.3;2009;453;Bobonis;1;;yes;exp;6;reg;2;3;yes;no;0.025;0.005
ML;Journal of Political Economy;117.3;2009;453;Bobonis;1;;yes;exp;6;reg;3;1;yes;no;0.547;0.224
ML;Journal of Political Economy;117.3;2009;453;Bobonis;1;;yes;exp;6;reg;3;2;yes;no;-0.146;0.291
ML;Journal of Political Economy;117.3;2009;453;Bobonis;1;;yes;exp;6;reg;3;3;yes;no;0.005;0.006
ML;Journal of Political Economy;117.3;2009;453;Bobonis;1;;yes;exp;6;reg;4;1;yes;no;-0.098;0.256
ML;Journal of Political Economy;117.3;2009;453;Bobonis;1;;yes;exp;6;reg;4;2;yes;no;-0.020;0.258
ML;Journal of Political Economy;117.3;2009;453;Bobonis;1;;yes;exp;6;reg;4;3;yes;no;0.010;0.005
ML;Journal of Political Economy;117.3;2009;453;Bobonis;1;;yes;exp;6;reg;5;1;yes;no;0.223;0.076
ML;Journal of Political Economy;117.3;2009;453;Bobonis;1;;yes;exp;6;reg;5;2;yes;no;0.200;0.118
ML;Journal of Political Economy;117.3;2009;453;Bobonis;1;;yes;exp;6;reg;5;3;yes;no;0.001;0.002
ML;Journal of Political Economy;117.3;2009;453;Bobonis;1;;yes;exp;6;reg;6;1;yes;no;-0.031;0.078
ML;Journal of Political Economy;117.3;2009;453;Bobonis;1;;yes;exp;6;reg;6;2;yes;no;-0.179;0.078
ML;Journal of Political Economy;117.3;2009;453;Bobonis;1;;yes;exp;6;reg;6;3;yes;no;-0.001;0.002
ML;Journal of Political Economy;117.3;2009;453;Bobonis;1;;yes;exp;6;reg;7;1;yes;no;0.365;0.166
ML;Journal of Political Economy;117.3;2009;453;Bobonis;1;;yes;exp;6;reg;7;2;yes;no;-0.169;0.242
ML;Journal of Political Economy;117.3;2009;453;Bobonis;1;;yes;exp;6;reg;7;3;yes;no;0.011;0.003
ML;Journal of Political Economy;117.3;2009;453;Bobonis;1;;yes;exp;6;reg;8;1;yes;no;0.005;0.067
ML;Journal of Political Economy;117.3;2009;453;Bobonis;1;;yes;exp;6;reg;8;2;yes;no;-0.018;0.076
ML;Journal of Political Economy;117.3;2009;453;Bobonis;1;;yes;exp;6;reg;8;3;yes;no;-0.002;0.001
ML;Journal of Political Economy;117.3;2009;453;Bobonis;1;;yes;exp;6;reg;9;1;yes;no;0.133;0.155
ML;Journal of Political Economy;117.3;2009;453;Bobonis;1;;yes;exp;6;reg;9;2;yes;no;0.458;0.217
ML;Journal of Political Economy;117.3;2009;453;Bobonis;1;;yes;exp;6;reg;9;3;yes;no;0.007;0.003
ML;Journal of Political Economy;117.3;2009;453;Bobonis;1;;yes;exp;6;reg;10;1;yes;no;-0.130;0.119
ML;Journal of Political Economy;117.3;2009;453;Bobonis;1;;yes;exp;6;reg;10;2;yes;no;0.368;0.162
ML;Journal of Political Economy;117.3;2009;453;Bobonis;1;;yes;exp;6;reg;10;3;yes;no;0.005;0.002
ML;Journal of Political Economy;117.3;2009;453;Bobonis;1;;yes;exp;6;reg;11;1;yes;no;0.161;0.106
ML;Journal of Political Economy;117.3;2009;453;Bobonis;1;;yes;exp;6;reg;11;2;yes;no;0.248;0.121
ML;Journal of Political Economy;117.3;2009;453;Bobonis;1;;yes;exp;6;reg;11;3;yes;no;0.000;0.002
ML;Journal of Political Economy;117.3;2009;453;Bobonis;1;;yes;exp;6;reg;12;1;yes;no;-0.471;0.235
ML;Journal of Political Economy;117.3;2009;453;Bobonis;1;;yes;exp;6;reg;12;2;yes;no;0.012;0.233
ML;Journal of Political Economy;117.3;2009;453;Bobonis;1;;yes;exp;6;reg;12;3;yes;no;0.002;0.006
ML;Journal of Political Economy;117.3;2009;453;Bobonis;1;;yes;exp;6;reg;13;1;yes;no;-0.027;0.214
ML;Journal of Political Economy;117.3;2009;453;Bobonis;1;;yes;exp;6;reg;13;2;yes;no;1.168;0.229
ML;Journal of Political Economy;117.3;2009;453;Bobonis;1;;yes;exp;6;reg;13;3;yes;no;0.014;0.004
ML;Journal of Political Economy;117.3;2009;453;Bobonis;1;;yes;exp;7;reg;1;1;yes;no;-0.223;0.201
ML;Journal of Political Economy;117.3;2009;453;Bobonis;1;;yes;exp;7;reg;1;2;yes;no;-0.181;0.215
ML;Journal of Political Economy;117.3;2009;453;Bobonis;1;;yes;exp;7;reg;1;3;yes;no;0.102;0.643
ML;Journal of Political Economy;117.3;2009;453;Bobonis;1;;yes;exp;7;reg;1;4;yes;no;0.152;0.156
ML;Journal of Political Economy;117.3;2009;453;Bobonis;1;;yes;exp;7;reg;1;5;yes;no;0.163;0.157
ML;Journal of Political Economy;117.3;2009;453;Bobonis;1;;yes;exp;7;reg;1;6;yes;no;0.167;0.155
ML;Journal of Political Economy;117.3;2009;453;Bobonis;1;;yes;exp;B2A;reg;1;1;yes;no;0.019;0.232
ML;Journal of Political Economy;117.3;2009;453;Bobonis;1;;yes;exp;B2A;reg;1;2;yes;no;0.013;0.005
ML;Journal of Political Economy;117.3;2009;453;Bobonis;1;;yes;exp;B2A;reg;2;1;yes;no;0.159;0.166
ML;Journal of Political Economy;117.3;2009;453;Bobonis;1;;yes;exp;B2A;reg;2;2;yes;no;0.019;0.005
ML;Journal of Political Economy;117.3;2009;453;Bobonis;1;;yes;exp;B2A;reg;3;1;yes;no;0.094;0.247
ML;Journal of Political Economy;117.3;2009;453;Bobonis;1;;yes;exp;B2A;reg;3;2;yes;no;0.009;0.005
ML;Journal of Political Economy;117.3;2009;453;Bobonis;1;;yes;exp;B2A;reg;4;1;yes;no;0.225;0.127
ML;Journal of Political Economy;117.3;2009;453;Bobonis;1;;yes;exp;B2A;reg;4;2;yes;no;0.004;0.003
ML;Journal of Political Economy;117.3;2009;453;Bobonis;1;;yes;exp;B2A;reg;5;1;yes;no;-0.115;0.103
ML;Journal of Political Economy;117.3;2009;453;Bobonis;1;;yes;exp;B2A;reg;5;2;yes;no;0.000;0.003
ML;Journal of Political Economy;117.3;2009;453;Bobonis;1;;yes;exp;B2A;reg;6;1;yes;no;-0.047;0.232
ML;Journal of Political Economy;117.3;2009;453;Bobonis;1;;yes;exp;B2A;reg;6;2;yes;no;0.024;0.004
ML;Journal of Political Economy;117.3;2009;453;Bobonis;1;;yes;exp;B2A;reg;7;1;yes;no;0.019;0.076
ML;Journal of Political Economy;117.3;2009;453;Bobonis;1;;yes;exp;B2A;reg;7;2;yes;no;-0.002;0.002
ML;Journal of Political Economy;117.3;2009;453;Bobonis;1;;yes;exp;B2A;reg;8;1;yes;no;0.398;0.210
ML;Journal of Political Economy;117.3;2009;453;Bobonis;1;;yes;exp;B2A;reg;8;2;yes;no;0.004;0.005
ML;Journal of Political Economy;117.3;2009;453;Bobonis;1;;yes;exp;B2A;reg;9;1;yes;no;0.364;0.176
ML;Journal of Political Economy;117.3;2009;453;Bobonis;1;;yes;exp;B2A;reg;9;2;yes;no;0.007;0.003
ML;Journal of Political Economy;117.3;2009;453;Bobonis;1;;yes;exp;B2A;reg;10;1;yes;no;0.282;0.120
ML;Journal of Political Economy;117.3;2009;453;Bobonis;1;;yes;exp;B2A;reg;10;2;yes;no;0.003;0.003
ML;Journal of Political Economy;117.3;2009;453;Bobonis;1;;yes;exp;B2A;reg;11;1;yes;no;0.182;0.248
ML;Journal of Political Economy;117.3;2009;453;Bobonis;1;;yes;exp;B2A;reg;11;2;yes;no;0.008;0.006
ML;Journal of Political Economy;117.3;2009;453;Bobonis;1;;yes;exp;B2A;reg;12;1;yes;no;1.356;0.232
ML;Journal of Political Economy;117.3;2009;453;Bobonis;1;;yes;exp;B2A;reg;12;2;yes;no;0.021;0.005
ML;Journal of Political Economy;117.3;2009;453;Bobonis;1;;yes;exp;B2B;reg;1;1;yes;no;0.0005;0.0013
ML;Journal of Political Economy;117.3;2009;453;Bobonis;1;;yes;exp;B2B;reg;1;2;yes;no;0.013;0.005
ML;Journal of Political Economy;117.3;2009;453;Bobonis;1;;yes;exp;B2B;reg;2;1;yes;no;0.0021;0.0014
ML;Journal of Political Economy;117.3;2009;453;Bobonis;1;;yes;exp;B2B;reg;2;2;yes;no;0.019;0.005
ML;Journal of Political Economy;117.3;2009;453;Bobonis;1;;yes;exp;B2B;reg;3;1;yes;no;0.0027;0.0017
ML;Journal of Political Economy;117.3;2009;453;Bobonis;1;;yes;exp;B2B;reg;3;2;yes;no;0.009;0.005
ML;Journal of Political Economy;117.3;2009;453;Bobonis;1;;yes;exp;B2B;reg;4;1;yes;no;0.0005;0.0007
ML;Journal of Political Economy;117.3;2009;453;Bobonis;1;;yes;exp;B2B;reg;4;2;yes;no;0.004;0.003
ML;Journal of Political Economy;117.3;2009;453;Bobonis;1;;yes;exp;B2B;reg;5;1;yes;no;0.0003;0.0005
ML;Journal of Political Economy;117.3;2009;453;Bobonis;1;;yes;exp;B2B;reg;5;2;yes;no;0.000;0.003
ML;Journal of Political Economy;117.3;2009;453;Bobonis;1;;yes;exp;B2B;reg;6;1;yes;no;0.0003;0.0013
ML;Journal of Political Economy;117.3;2009;453;Bobonis;1;;yes;exp;B2B;reg;6;2;yes;no;0.024;0.004
ML;Journal of Political Economy;117.3;2009;453;Bobonis;1;;yes;exp;B2B;reg;7;1;yes;no;0.0008;0.0005
ML;Journal of Political Economy;117.3;2009;453;Bobonis;1;;yes;exp;B2B;reg;7;2;yes;no;-0.002;0.002
ML;Journal of Political Economy;117.3;2009;453;Bobonis;1;;yes;exp;B2B;reg;8;1;yes;no;0.0012;0.0011
ML;Journal of Political Economy;117.3;2009;453;Bobonis;1;;yes;exp;B2B;reg;8;2;yes;no;0.014;0.004
ML;Journal of Political Economy;117.3;2009;453;Bobonis;1;;yes;exp;B2B;reg;9;1;yes;no;0.0015;0.0009
ML;Journal of Political Economy;117.3;2009;453;Bobonis;1;;yes;exp;B2B;reg;9;2;yes;no;0.007;0.003
ML;Journal of Political Economy;117.3;2009;453;Bobonis;1;;yes;exp;B2B;reg;10;1;yes;no;0.001;0.0008
ML;Journal of Political Economy;117.3;2009;453;Bobonis;1;;yes;exp;B2B;reg;10;2;yes;no;0.003;0.003
ML;Journal of Political Economy;117.3;2009;453;Bobonis;1;;yes;exp;B2B;reg;11;1;yes;no;-0.0007;0.0014
ML;Journal of Political Economy;117.3;2009;453;Bobonis;1;;yes;exp;B2B;reg;11;2;yes;no;0.008;0.007
ML;Journal of Political Economy;117.3;2009;453;Bobonis;1;;yes;exp;B2B;reg;12;1;yes;no;0.0067;0.0016
ML;Journal of Political Economy;117.3;2009;453;Bobonis;1;;yes;exp;B2B;reg;12;2;yes;no;0.022;0.006
ML;Journal of Political Economy;117.3;2009;453;Bobonis;1;;yes;exp;B3A;reg;1;1;yes;no;-0.032;0.248
ML;Journal of Political Economy;117.3;2009;453;Bobonis;1;;yes;exp;B3A;reg;2;1;yes;no;0.170;0.174
ML;Journal of Political Economy;117.3;2009;453;Bobonis;1;;yes;exp;B3A;reg;3;1;yes;no;0.192;0.252
ML;Journal of Political Economy;117.3;2009;453;Bobonis;1;;yes;exp;B3A;reg;4;1;yes;no;0.310;0.132
ML;Journal of Political Economy;117.3;2009;453;Bobonis;1;;yes;exp;B3A;reg;5;1;yes;no;0.004;0.110
ML;Journal of Political Economy;117.3;2009;453;Bobonis;1;;yes;exp;B3A;reg;6;1;yes;no;0.013;0.243
ML;Journal of Political Economy;117.3;2009;453;Bobonis;1;;yes;exp;B3A;reg;7;1;yes;no;0.013;0.075
ML;Journal of Political Economy;117.3;2009;453;Bobonis;1;;yes;exp;B3A;reg;8;1;yes;no;0.481;0.212
ML;Journal of Political Economy;117.3;2009;453;Bobonis;1;;yes;exp;B3A;reg;9;1;yes;no;0.414;0.181
ML;Journal of Political Economy;117.3;2009;453;Bobonis;1;;yes;exp;B3A;reg;10;1;yes;no;0.282;0.116
ML;Journal of Political Economy;117.3;2009;453;Bobonis;1;;yes;exp;B3A;reg;11;1;yes;no;0.044;0.265
ML;Journal of Political Economy;117.3;2009;453;Bobonis;1;;yes;exp;B3A;reg;12;1;yes;no;1.230;0.225
ML;Journal of Political Economy;117.3;2009;453;Bobonis;1;;yes;exp;B3B;reg;1;1;yes;no;-0.030;0.272
ML;Journal of Political Economy;117.3;2009;453;Bobonis;1;;yes;exp;B3B;reg;2;1;yes;no;0.162;0.208
ML;Journal of Political Economy;117.3;2009;453;Bobonis;1;;yes;exp;B3B;reg;3;1;yes;no;0.223;0.269
ML;Journal of Political Economy;117.3;2009;453;Bobonis;1;;yes;exp;B3B;reg;4;1;yes;no;0.355;0.152
ML;Journal of Political Economy;117.3;2009;453;Bobonis;1;;yes;exp;B3B;reg;5;1;yes;no;0.071;0.129
ML;Journal of Political Economy;117.3;2009;453;Bobonis;1;;yes;exp;B3B;reg;6;1;yes;no;0.022;0.259
ML;Journal of Political Economy;117.3;2009;453;Bobonis;1;;yes;exp;B3B;reg;7;1;yes;no;0.003;0.076
ML;Journal of Political Economy;117.3;2009;453;Bobonis;1;;yes;exp;B3B;reg;8;1;yes;no;0.510;0.224
ML;Journal of Political Economy;117.3;2009;453;Bobonis;1;;yes;exp;B3B;reg;9;1;yes;no;0.044;0.187
ML;Journal of Political Economy;117.3;2009;453;Bobonis;1;;yes;exp;B3B;reg;10;1;yes;no;0.231;0.126
ML;Journal of Political Economy;117.3;2009;453;Bobonis;1;;yes;exp;B3B;reg;11;1;yes;no;-0.021;0.296
ML;Journal of Political Economy;117.3;2009;453;Bobonis;1;;yes;exp;B3B;reg;12;1;yes;no;1.112;0.235
ML;Journal of Political Economy;117.3;2009;453;Bobonis;1;;yes;exp;B3C;reg;1;1;yes;no;-0.036;0.285
ML;Journal of Political Economy;117.3;2009;453;Bobonis;1;;yes;exp;B3C;reg;2;1;yes;no;0.227;0.248
ML;Journal of Political Economy;117.3;2009;453;Bobonis;1;;yes;exp;B3C;reg;3;1;yes;no;0.055;0.314
ML;Journal of Political Economy;117.3;2009;453;Bobonis;1;;yes;exp;B3C;reg;4;1;yes;no;0.156;0.183
ML;Journal of Political Economy;117.3;2009;453;Bobonis;1;;yes;exp;B3C;reg;5;1;yes;no;-0.240;0.155
ML;Journal of Political Economy;117.3;2009;453;Bobonis;1;;yes;exp;B3C;reg;6;1;yes;no;0.018;0.240
ML;Journal of Political Economy;117.3;2009;453;Bobonis;1;;yes;exp;B3C;reg;7;1;yes;no;0.058;0.082
ML;Journal of Political Economy;117.3;2009;453;Bobonis;1;;yes;exp;B3C;reg;8;1;yes;no;0.382;0.246
ML;Journal of Political Economy;117.3;2009;453;Bobonis;1;;yes;exp;B3C;reg;9;1;yes;no;0.298;0.191
ML;Journal of Political Economy;117.3;2009;453;Bobonis;1;;yes;exp;B3C;reg;10;1;yes;no;0.495;0.144
ML;Journal of Political Economy;117.3;2009;453;Bobonis;1;;yes;exp;B3C;reg;11;1;yes;no;0.270;0.325
ML;Journal of Political Economy;117.3;2009;453;Bobonis;1;;yes;exp;B3C;reg;12;1;yes;no;1.707;0.289
