ra;journal_id;issue;year;article_page;first_author;num_authors;JEL;model;type;table_panel;type_emp;row;column;stars;main;coefficient;standard_deviation;standard_deviation_2;standard_deviation_3;T_stat;p_value
MS;Quarterly Journal of Economics;125.4;2010;1727;Goldberg;4;;no;other;1;reg;1;1;yes;yes;0.180;0.308;;;;
MS;Quarterly Journal of Economics;125.4;2010;1727;Goldberg;4;;no;other;1;reg;1;2;yes;yes;-0.744;0.745;;;;
MS;Quarterly Journal of Economics;125.4;2010;1727;Goldberg;4;;no;other;1;reg;1;3;yes;yes;0.517;0.507;;;;
MS;Quarterly Journal of Economics;125.4;2010;1727;Goldberg;4;;no;other;1;reg;1;4;yes;yes;-1.531;1.341;;;;
MS;Quarterly Journal of Economics;125.4;2010;1727;Goldberg;4;;no;other;3a;reg;1;1;yes;yes;-0.136;0.035;;;;
MS;Quarterly Journal of Economics;125.4;2010;1727;Goldberg;4;;no;other;3a;reg;1;2;yes;yes;-0.117;0.044;;;;
MS;Quarterly Journal of Economics;125.4;2010;1727;Goldberg;4;;no;other;3a;reg;1;3;yes;yes;-0.151;0.076;;;;
MS;Quarterly Journal of Economics;125.4;2010;1727;Goldberg;4;;no;other;3b;reg;1;1;yes;yes;0.273;0.050;;;;
MS;Quarterly Journal of Economics;125.4;2010;1727;Goldberg;4;;no;other;3b;reg;1;2;yes;yes;0.304;0.077;;;;
MS;Quarterly Journal of Economics;125.4;2010;1727;Goldberg;4;;no;other;3b;reg;1;3;yes;yes;0.245;0.079;;;;
MS;Quarterly Journal of Economics;125.4;2010;1727;Goldberg;4;;no;other;3ca;reg;1;1;yes;yes;-0.082;0.012;;;;
MS;Quarterly Journal of Economics;125.4;2010;1727;Goldberg;4;;no;other;3ca;reg;1;2;yes;yes;-0.106;0.014;;;;
MS;Quarterly Journal of Economics;125.4;2010;1727;Goldberg;4;;no;other;3ca;reg;1;3;yes;yes;-0.049;0.026;;;;
MS;Quarterly Journal of Economics;125.4;2010;1727;Goldberg;4;;no;other;3cb;reg;1;1;yes;yes;-0.015;0.007;;;;
MS;Quarterly Journal of Economics;125.4;2010;1727;Goldberg;4;;no;other;3cb;reg;1;2;yes;yes;-0.023;0.009;;;;
MS;Quarterly Journal of Economics;125.4;2010;1727;Goldberg;4;;no;other;3cb;reg;1;3;yes;yes;-0.005;0.014
MS;Quarterly Journal of Economics;125.4;2010;1727;Goldberg;4;;no;other;3cc;reg;1;1;yes;yes;-0.095;0.013
MS;Quarterly Journal of Economics;125.4;2010;1727;Goldberg;4;;no;other;3cc;reg;1;2;yes;yes;-0.129;0.016
MS;Quarterly Journal of Economics;125.4;2010;1727;Goldberg;4;;no;other;3cc;reg;1;3;yes;yes;-0.042;0.028
MS;Quarterly Journal of Economics;125.4;2010;1727;Goldberg;4;;no;other;4a;reg;1;1;yes;yes;-0.323;0.139
MS;Quarterly Journal of Economics;125.4;2010;1727;Goldberg;4;;no;other;4a;reg;1;2;yes;yes;-0.310;0.150
MS;Quarterly Journal of Economics;125.4;2010;1727;Goldberg;4;;no;other;4a;reg;1;3;yes;yes;-0.327;0.150
MS;Quarterly Journal of Economics;125.4;2010;1727;Goldberg;4;;no;other;4a;reg;1;4;yes;yes;-0.281;0.125
MS;Quarterly Journal of Economics;125.4;2010;1727;Goldberg;4;;no;other;4b;reg;1;1;yes;no;-0.323;0.191
MS;Quarterly Journal of Economics;125.4;2010;1727;Goldberg;4;;no;other;4b;reg;2;2;yes;no;-0.424;0.204
MS;Quarterly Journal of Economics;125.4;2010;1727;Goldberg;4;;no;other;4b;reg;3;3;yes;no;-0.327;0.145
MS;Quarterly Journal of Economics;125.4;2010;1727;Goldberg;4;;no;other;4b;reg;4;4;yes;no;-0.315;0.141
MS;Quarterly Journal of Economics;125.4;2010;1727;Goldberg;4;;no;other;4b;reg;5;5;yes;no;-0.336;0.141
MS;Quarterly Journal of Economics;125.4;2010;1727;Goldberg;4;;no;other;4b;reg;6;6;yes;no;-0.393;0.127
MS;Quarterly Journal of Economics;125.4;2010;1727;Goldberg;4;;no;other;4b;reg;7;7;yes;no;-0.408;0.128
MS;Quarterly Journal of Economics;125.4;2010;1727;Goldberg;4;;no;other;4b;reg;8;8;yes;no;-0.311;0.146
MS;Quarterly Journal of Economics;125.4;2010;1727;Goldberg;4;;no;other;4b;reg;9;9;yes;no;-0.321;0.163
MS;Quarterly Journal of Economics;125.4;2010;1727;Goldberg;4;;no;other;4b;reg;10;10;yes;no;-0.312;0.154
MS;Quarterly Journal of Economics;125.4;2010;1727;Goldberg;4;;no;other;4b;reg;11;11;yes;no;-0.286;0.162
MS;Quarterly Journal of Economics;125.4;2010;1727;Goldberg;4;;no;other;4b;reg;12;12;yes;no;-0.403;0.206
MS;Quarterly Journal of Economics;125.4;2010;1727;Goldberg;4;;no;other;4b;reg;13;13;yes;no;-0.315;0.237
MS;Quarterly Journal of Economics;125.4;2010;1727;Goldberg;4;;no;other;4b;reg;14;14;yes;no;-0.234;0.251
MS;Quarterly Journal of Economics;125.4;2010;1727;Goldberg;4;;no;other;4c;reg;1;1;yes;no;-1.125;0.436
MS;Quarterly Journal of Economics;125.4;2010;1727;Goldberg;4;;no;other;4c;reg;1;2;yes;no;-0.454;0.233
MS;Quarterly Journal of Economics;125.4;2010;1727;Goldberg;4;;no;other;4c;reg;1;3;yes;no;-1.559;1.751
MS;Quarterly Journal of Economics;125.4;2010;1727;Goldberg;4;;no;other;4c;reg;1;4;yes;no;-0.077;1.124
MS;Quarterly Journal of Economics;125.4;2010;1727;Goldberg;4;;no;other;4c;reg;2;4;yes;no;-1.903;1.111
MS;Quarterly Journal of Economics;125.4;2010;1727;Goldberg;4;;no;other;6a;reg;1;1;yes;no;-0.156;0.121
MS;Quarterly Journal of Economics;125.4;2010;1727;Goldberg;4;;no;other;6a;reg;1;3;yes;no;-0.124;0.113
MS;Quarterly Journal of Economics;125.4;2010;1727;Goldberg;4;;no;other;6a;reg;2;2;yes;no;-5.97;2.55
MS;Quarterly Journal of Economics;125.4;2010;1727;Goldberg;4;;no;other;6a;reg;2;3;yes;no;-5.70;2.41
MS;Quarterly Journal of Economics;125.4;2010;1727;Goldberg;4;;no;other;6b;reg;1;1;yes;no;1.340;0.476
MS;Quarterly Journal of Economics;125.4;2010;1727;Goldberg;4;;no;other;6b;reg;1;2;yes;no;-0.007;0.020
MS;Quarterly Journal of Economics;125.4;2010;1727;Goldberg;4;;no;other;6b;reg;2;1;yes;no;-0.707;1.618
MS;Quarterly Journal of Economics;125.4;2010;1727;Goldberg;4;;no;other;6b;reg;2;2;yes;no;0.121;0.065
MS;Quarterly Journal of Economics;125.4;2010;1727;Goldberg;4;;no;other;6b;reg;3;3;yes;no;-0.240;0.211
MS;Quarterly Journal of Economics;125.4;2010;1727;Goldberg;4;;no;other;6b;reg;3;5;yes;no;-0.033;0.299
MS;Quarterly Journal of Economics;125.4;2010;1727;Goldberg;4;;no;other;6b;reg;3;6;yes;no;-0.047;0.245
MS;Quarterly Journal of Economics;125.4;2010;1727;Goldberg;4;;no;other;6b;reg;3;7;yes;no;-0.493;0.271
MS;Quarterly Journal of Economics;125.4;2010;1727;Goldberg;4;;no;other;6b;reg;4;4;yes;no;-14.24;7.56
MS;Quarterly Journal of Economics;125.4;2010;1727;Goldberg;4;;no;other;6b;reg;4;5;yes;no;-13.40;10.46
MS;Quarterly Journal of Economics;125.4;2010;1727;Goldberg;4;;no;other;6b;reg;4;6;yes;no;-14.88;8.97
MS;Quarterly Journal of Economics;125.4;2010;1727;Goldberg;4;;no;other;6b;reg;4;7;yes;no;-14.80;5.00
MS;Quarterly Journal of Economics;125.4;2010;1459;Gould;2;;no;other;3;reg;1;1;yes;yes;-0.0846;0.20
MS;Quarterly Journal of Economics;125.4;2010;1459;Gould;2;;no;other;3;reg;1;2;yes;yes;0.0832;0.48
MS;Quarterly Journal of Economics;125.4;2010;1459;Gould;2;;no;other;3;reg;1;3;yes;yes;0.0796;0.17
MS;Quarterly Journal of Economics;125.4;2010;1459;Gould;2;;no;other;3;reg;1;4;yes;yes;-0.3086;0.65
MS;Quarterly Journal of Economics;125.4;2010;1459;Gould;2;;no;other;3;reg;1;5;yes;yes;0.4502;0.49
MS;Quarterly Journal of Economics;125.4;2010;1459;Gould;2;;no;other;3;reg;1;6;yes;yes;-178.699;658.3
MS;Quarterly Journal of Economics;125.4;2010;1459;Gould;2;;no;other;3;reg;1;7;yes;yes;-0.07139;0.14
MS;Quarterly Journal of Economics;125.4;2010;1459;Gould;2;;no;other;3;reg;2;1;yes;yes;1.2400;1.94
MS;Quarterly Journal of Economics;125.4;2010;1459;Gould;2;;no;other;3;reg;2;2;yes;yes;0.3925;5.32
MS;Quarterly Journal of Economics;125.4;2010;1459;Gould;2;;no;other;3;reg;2;3;yes;yes;-0.9097;1.50
MS;Quarterly Journal of Economics;125.4;2010;1459;Gould;2;;no;other;3;reg;2;4;yes;yes;0.0702;5.11
MS;Quarterly Journal of Economics;125.4;2010;1459;Gould;2;;no;other;3;reg;2;5;yes;yes;-3.6838;4.84
MS;Quarterly Journal of Economics;125.4;2010;1459;Gould;2;;no;other;3;reg;2;6;yes;yes;2577.698;7768.0
MS;Quarterly Journal of Economics;125.4;2010;1459;Gould;2;;no;other;3;reg;2;7;yes;yes;0.25239;1.53
MS;Quarterly Journal of Economics;125.4;2010;1459;Gould;2;;no;other;3;reg;3;1;yes;yes;-0.0610;0.31
MS;Quarterly Journal of Economics;125.4;2010;1459;Gould;2;;no;other;3;reg;3;2;yes;yes;0.6862;0.51
MS;Quarterly Journal of Economics;125.4;2010;1459;Gould;2;;no;other;3;reg;3;3;yes;yes;-0.6252;0.71
MS;Quarterly Journal of Economics;125.4;2010;1459;Gould;2;;no;other;3;reg;3;4;yes;yes;1.8236;1.36
MS;Quarterly Journal of Economics;125.4;2010;1459;Gould;2;;no;other;3;reg;3;5;yes;yes;1.0316;1.47
MS;Quarterly Journal of Economics;125.4;2010;1459;Gould;2;;no;other;3;reg;3;6;yes;yes;2.834;1.50
MS;Quarterly Journal of Economics;125.4;2010;1459;Gould;2;;no;other;3;reg;3;7;yes;yes;-0.22459;0.41
MS;Quarterly Journal of Economics;125.4;2010;1459;Gould;2;;no;other;3;reg;4;1;yes;yes;1.0685;2.80
MS;Quarterly Journal of Economics;125.4;2010;1459;Gould;2;;no;other;3;reg;4;2;yes;yes;-5.3373;4.62
MS;Quarterly Journal of Economics;125.4;2010;1459;Gould;2;;no;other;3;reg;4;3;yes;yes;4.2688;5.48
MS;Quarterly Journal of Economics;125.4;2010;1459;Gould;2;;no;other;3;reg;4;4;yes;yes;-11.0021;14.09
MS;Quarterly Journal of Economics;125.4;2010;1459;Gould;2;;no;other;3;reg;4;5;yes;yes;-14.3044;11.59
MS;Quarterly Journal of Economics;125.4;2010;1459;Gould;2;;no;other;3;reg;4;6;yes;yes;-25.033;16.5
MS;Quarterly Journal of Economics;125.4;2010;1459;Gould;2;;no;other;3;reg;4;7;yes;yes;-0.08029;3.23
MS;Quarterly Journal of Economics;125.4;2010;1459;Gould;2;;no;other;4;reg;1;1;yes;yes;0.0227;0.027
MS;Quarterly Journal of Economics;125.4;2010;1459;Gould;2;;no;other;4;reg;1;2;yes;yes;0.0450;0.118
MS;Quarterly Journal of Economics;125.4;2010;1459;Gould;2;;no;other;4;reg;1;3;yes;yes;0.0383;0.103
MS;Quarterly Journal of Economics;125.4;2010;1459;Gould;2;;no;other;4;reg;1;4;yes;yes;-0.0415;0.101
MS;Quarterly Journal of Economics;125.4;2010;1459;Gould;2;;no;other;4;reg;1;5;yes;yes;-0.2148;0.118
MS;Quarterly Journal of Economics;125.4;2010;1459;Gould;2;;no;other;4;reg;2;2;yes;yes;-0.0272;0.160
MS;Quarterly Journal of Economics;125.4;2010;1459;Gould;2;;no;other;4;reg;2;3;yes;yes;-0.0732;0.123
MS;Quarterly Journal of Economics;125.4;2010;1459;Gould;2;;no;other;4;reg;2;4;yes;yes;-0.0271;0.129
MS;Quarterly Journal of Economics;125.4;2010;1459;Gould;2;;no;other;4;reg;2;5;yes;yes;0.2329;0.138
MS;Quarterly Journal of Economics;125.4;2010;1459;Gould;2;;no;other;4;reg;3;1;yes;yes;0.0405;0.024
MS;Quarterly Journal of Economics;125.4;2010;1459;Gould;2;;no;other;4;reg;3;2;yes;yes;-0.0019;0.092
MS;Quarterly Journal of Economics;125.4;2010;1459;Gould;2;;no;other;4;reg;3;3;yes;yes;0.0046;0.113
MS;Quarterly Journal of Economics;125.4;2010;1459;Gould;2;;no;other;4;reg;3;4;yes;yes;-0.0150;0.118
MS;Quarterly Journal of Economics;125.4;2010;1459;Gould;2;;no;other;4;reg;3;5;yes;yes;-0.0899;0.071
MS;Quarterly Journal of Economics;125.4;2010;1459;Gould;2;;no;other;4;reg;4;2;yes;yes;0.0497;0.120
MS;Quarterly Journal of Economics;125.4;2010;1459;Gould;2;;no;other;4;reg;4;3;yes;yes;0.0180;0.132
MS;Quarterly Journal of Economics;125.4;2010;1459;Gould;2;;no;other;4;reg;4;4;yes;yes;0.0059;0.127
MS;Quarterly Journal of Economics;125.4;2010;1459;Gould;2;;no;other;4;reg;4;5;yes;yes;0.0651;0.102
MS;Quarterly Journal of Economics;125.4;2010;1459;Gould;2;;no;other;4;reg;5;1;yes;yes;0.0158;0.027
MS;Quarterly Journal of Economics;125.4;2010;1459;Gould;2;;no;other;4;reg;5;2;yes;yes;-0.0173;0.075
MS;Quarterly Journal of Economics;125.4;2010;1459;Gould;2;;no;other;4;reg;5;3;yes;yes;0.0337;0.079
MS;Quarterly Journal of Economics;125.4;2010;1459;Gould;2;;no;other;4;reg;5;4;yes;yes;0.1313;0.129
MS;Quarterly Journal of Economics;125.4;2010;1459;Gould;2;;no;other;4;reg;5;5;yes;yes;0.0239;0.174
MS;Quarterly Journal of Economics;125.4;2010;1459;Gould;2;;no;other;4;reg;6;2;yes;yes;0.0364;0.073
MS;Quarterly Journal of Economics;125.4;2010;1459;Gould;2;;no;other;4;reg;6;3;yes;yes;0.0335;0.094
MS;Quarterly Journal of Economics;125.4;2010;1459;Gould;2;;no;other;4;reg;6;4;yes;yes;-0.0631;0.141
MS;Quarterly Journal of Economics;125.4;2010;1459;Gould;2;;no;other;4;reg;6;5;yes;yes;-0.0301;0.153
MS;Quarterly Journal of Economics;125.4;2010;1459;Gould;2;;no;other;4;reg;7;1;yes;yes;0.0086;0.014
MS;Quarterly Journal of Economics;125.4;2010;1459;Gould;2;;no;other;4;reg;7;2;yes;yes;0.0103;0.015
MS;Quarterly Journal of Economics;125.4;2010;1459;Gould;2;;no;other;4;reg;7;3;yes;yes;-0.0105;0.015
MS;Quarterly Journal of Economics;125.4;2010;1459;Gould;2;;no;other;4;reg;7;4;yes;yes;-0.0285;0.017
MS;Quarterly Journal of Economics;125.4;2010;1459;Gould;2;;no;other;4;reg;7;5;yes;yes;-0.0051;0.014
MS;Quarterly Journal of Economics;125.4;2010;1459;Gould;2;;no;other;4;reg;8;2;yes;yes;0.0209;0.026
MS;Quarterly Journal of Economics;125.4;2010;1459;Gould;2;;no;other;4;reg;8;3;yes;yes;0.0357;0.027
MS;Quarterly Journal of Economics;125.4;2010;1459;Gould;2;;no;other;4;reg;8;4;yes;yes;0.0245;0.031
MS;Quarterly Journal of Economics;125.4;2010;1459;Gould;2;;no;other;4;reg;8;5;yes;yes;0.0087;0.028
MS;Quarterly Journal of Economics;125.4;2010;1459;Gould;2;;no;other;4;reg;9;1;yes;yes;-0.0229;0.039
MS;Quarterly Journal of Economics;125.4;2010;1459;Gould;2;;no;other;4;reg;9;2;yes;yes;-0.0906;0.166
MS;Quarterly Journal of Economics;125.4;2010;1459;Gould;2;;no;other;4;reg;9;3;yes;yes;-0.0365;0.137
MS;Quarterly Journal of Economics;125.4;2010;1459;Gould;2;;no;other;4;reg;9;4;yes;yes;-0.0555;0.132
MS;Quarterly Journal of Economics;125.4;2010;1459;Gould;2;;no;other;4;reg;9;5;yes;yes;-0.0094;0.145
MS;Quarterly Journal of Economics;125.4;2010;1459;Gould;2;;no;other;4;reg;10;2;yes;yes;0.0668;0.146
MS;Quarterly Journal of Economics;125.4;2010;1459;Gould;2;;no;other;4;reg;10;3;yes;yes;0.0492;0.136
MS;Quarterly Journal of Economics;125.4;2010;1459;Gould;2;;no;other;4;reg;10;4;yes;yes;0.0803;0.142
MS;Quarterly Journal of Economics;125.4;2010;1459;Gould;2;;no;other;4;reg;10;5;yes;yes;0.0182;0.147
MS;Quarterly Journal of Economics;125.4;2010;1459;Gould;2;;no;other;5;reg;1;1;yes;yes;0.5144;0.901
MS;Quarterly Journal of Economics;125.4;2010;1459;Gould;2;;no;other;5;reg;1;2;yes;yes;0.2617;0.872
MS;Quarterly Journal of Economics;125.4;2010;1459;Gould;2;;no;other;5;reg;1;3;yes;yes;0.5666;0.500
MS;Quarterly Journal of Economics;125.4;2010;1459;Gould;2;;no;other;5;reg;1;4;yes;yes;0.3392;0.498
MS;Quarterly Journal of Economics;125.4;2010;1459;Gould;2;;no;other;5;reg;1;5;yes;yes;0.4112;0.452
MS;Quarterly Journal of Economics;125.4;2010;1459;Gould;2;;no;other;5;reg;1;6;yes;yes;0.2874;0.452
MS;Quarterly Journal of Economics;125.4;2010;1459;Gould;2;;no;other;5;reg;1;7;yes;yes;0.3129;0.445
MS;Quarterly Journal of Economics;125.4;2010;1459;Gould;2;;no;other;6;reg;1;1;yes;yes;4.285;2.26
MS;Quarterly Journal of Economics;125.4;2010;1459;Gould;2;;no;other;6;reg;1;2;yes;yes;5.538;1.89
MS;Quarterly Journal of Economics;125.4;2010;1459;Gould;2;;no;other;6;reg;1;3;yes;yes;2.029;1.75
MS;Quarterly Journal of Economics;125.4;2010;1459;Gould;2;;no;other;6;reg;1;4;yes;yes;3.526;1.27
MS;Quarterly Journal of Economics;125.4;2010;1459;Gould;2;;no;other;6;reg;1;5;yes;yes;3.648;1.18
MS;Quarterly Journal of Economics;125.4;2010;1459;Gould;2;;no;other;6;reg;1;6;yes;yes;3.943;0.93
MS;Quarterly Journal of Economics;125.4;2010;1459;Gould;2;;no;other;6;reg;1;7;yes;yes;5.585;1.19
MS;Quarterly Journal of Economics;125.4;2010;1459;Gould;2;;no;other;6;reg;2;1;yes;yes;-43.459;19.74
MS;Quarterly Journal of Economics;125.4;2010;1459;Gould;2;;no;other;6;reg;2;2;yes;yes;-59.346;15.48
MS;Quarterly Journal of Economics;125.4;2010;1459;Gould;2;;no;other;6;reg;2;3;yes;yes;-16.590;16.63
MS;Quarterly Journal of Economics;125.4;2010;1459;Gould;2;;no;other;6;reg;2;4;yes;yes;-34.180;12.23
MS;Quarterly Journal of Economics;125.4;2010;1459;Gould;2;;no;other;6;reg;2;5;yes;yes;-34.683;10.80
MS;Quarterly Journal of Economics;125.4;2010;1459;Gould;2;;no;other;6;reg;2;6;yes;yes;-38.044;9.07
MS;Quarterly Journal of Economics;125.4;2010;1459;Gould;2;;no;other;6;reg;2;7;yes;yes;-56.648;12.46
MS;Quarterly Journal of Economics;125.4;2010;1459;Gould;2;;no;other;7;reg;1;1;yes;no;4.6758;1.36
MS;Quarterly Journal of Economics;125.4;2010;1459;Gould;2;;no;other;7;reg;1;2;yes;no;2.7568;1.43
MS;Quarterly Journal of Economics;125.4;2010;1459;Gould;2;;no;other;7;reg;1;3;yes;no;4.2452;1.50
MS;Quarterly Journal of Economics;125.4;2010;1459;Gould;2;;no;other;7;reg;1;4;yes;no;2.8184;1.68
MS;Quarterly Journal of Economics;125.4;2010;1459;Gould;2;;no;other;7;reg;1;5;yes;no;2.8471;1.75
MS;Quarterly Journal of Economics;125.4;2010;1459;Gould;2;;no;other;7;reg;1;6;yes;no;3.1391;1.88
MS;Quarterly Journal of Economics;125.4;2010;1459;Gould;2;;no;other;7;reg;1;7;yes;no;3.7498;1.50
MS;Quarterly Journal of Economics;125.4;2010;1459;Gould;2;;no;other;7;reg;1;8;yes;no;2.9905;1.71
MS;Quarterly Journal of Economics;125.4;2010;1459;Gould;2;;no;other;7;reg;2;1;yes;no;-38.113;13.53
MS;Quarterly Journal of Economics;125.4;2010;1459;Gould;2;;no;other;7;reg;2;2;yes;no;-32.607;12.45
MS;Quarterly Journal of Economics;125.4;2010;1459;Gould;2;;no;other;7;reg;2;3;yes;no;-40.018;14.23
MS;Quarterly Journal of Economics;125.4;2010;1459;Gould;2;;no;other;7;reg;2;4;yes;no;-20.643;15.56
MS;Quarterly Journal of Economics;125.4;2010;1459;Gould;2;;no;other;7;reg;2;5;yes;no;-30.317;16.14
MS;Quarterly Journal of Economics;125.4;2010;1459;Gould;2;;no;other;7;reg;2;6;yes;no;-34.774;17.00
MS;Quarterly Journal of Economics;125.4;2010;1459;Gould;2;;no;other;7;reg;2;7;yes;no;-33.246;14.60
MS;Quarterly Journal of Economics;125.4;2010;1459;Gould;2;;no;other;7;reg;2;8;yes;no;-29.743;15.38
MS;Quarterly Journal of Economics;125.4;2010;1459;Gould;2;;no;other;7;reg;3;1;yes;no;7.6632;1.46
MS;Quarterly Journal of Economics;125.4;2010;1459;Gould;2;;no;other;7;reg;3;2;yes;no;4.4340;1.87
MS;Quarterly Journal of Economics;125.4;2010;1459;Gould;2;;no;other;7;reg;3;3;yes;no;5.7143;2.08
MS;Quarterly Journal of Economics;125.4;2010;1459;Gould;2;;no;other;7;reg;3;4;yes;no;4.6022;1.78
MS;Quarterly Journal of Economics;125.4;2010;1459;Gould;2;;no;other;7;reg;3;5;yes;no;5.4123;2.15
MS;Quarterly Journal of Economics;125.4;2010;1459;Gould;2;;no;other;7;reg;3;6;yes;no;8.4501;2.37
MS;Quarterly Journal of Economics;125.4;2010;1459;Gould;2;;no;other;7;reg;3;7;yes;no;3.9925;1.56
MS;Quarterly Journal of Economics;125.4;2010;1459;Gould;2;;no;other;7;reg;3;8;yes;no;5.0405;2.16
MS;Quarterly Journal of Economics;125.4;2010;1459;Gould;2;;no;other;7;reg;4;1;yes;no;-77.189;14.97
MS;Quarterly Journal of Economics;125.4;2010;1459;Gould;2;;no;other;7;reg;4;2;yes;no;-46.567;20.04
MS;Quarterly Journal of Economics;125.4;2010;1459;Gould;2;;no;other;7;reg;4;3;yes;no;-53.679;19.35
MS;Quarterly Journal of Economics;125.4;2010;1459;Gould;2;;no;other;7;reg;4;4;yes;no;-49.005;18.70
MS;Quarterly Journal of Economics;125.4;2010;1459;Gould;2;;no;other;7;reg;4;5;yes;no;-55.192;20.41
MS;Quarterly Journal of Economics;125.4;2010;1459;Gould;2;;no;other;7;reg;4;6;yes;no;-98.509;25.14
MS;Quarterly Journal of Economics;125.4;2010;1459;Gould;2;;no;other;7;reg;4;7;yes;no;-31.267;15.04
MS;Quarterly Journal of Economics;125.4;2010;1459;Gould;2;;no;other;7;reg;4;8;yes;no;-49.181;22.23
MS;Quarterly Journal of Economics;125.4;2010;1459;Gould;2;;no;other;7;reg;5;1;yes;no;4.7347;1.44
MS;Quarterly Journal of Economics;125.4;2010;1459;Gould;2;;no;other;7;reg;5;2;yes;no;2.0906;1.60
MS;Quarterly Journal of Economics;125.4;2010;1459;Gould;2;;no;other;7;reg;5;3;yes;no;2.4068;1.38
MS;Quarterly Journal of Economics;125.4;2010;1459;Gould;2;;no;other;7;reg;5;4;yes;no;6.1954;1.71
MS;Quarterly Journal of Economics;125.4;2010;1459;Gould;2;;no;other;7;reg;5;5;yes;no;5.9583;1.83
MS;Quarterly Journal of Economics;125.4;2010;1459;Gould;2;;no;other;7;reg;5;6;yes;no;2.3811;1.31
MS;Quarterly Journal of Economics;125.4;2010;1459;Gould;2;;no;other;7;reg;5;7;yes;no;6.6334;1.96
MS;Quarterly Journal of Economics;125.4;2010;1459;Gould;2;;no;other;7;reg;5;8;yes;no;2.0451;1.05
MS;Quarterly Journal of Economics;125.4;2010;1459;Gould;2;;no;other;7;reg;6;1;yes;no;-27.560;14.14
MS;Quarterly Journal of Economics;125.4;2010;1459;Gould;2;;no;other;7;reg;6;2;yes;no;-29.565;14.68
MS;Quarterly Journal of Economics;125.4;2010;1459;Gould;2;;no;other;7;reg;6;3;yes;no;-24.580;13.22
MS;Quarterly Journal of Economics;125.4;2010;1459;Gould;2;;no;other;7;reg;6;4;yes;no;-56.509;17.00
MS;Quarterly Journal of Economics;125.4;2010;1459;Gould;2;;no;other;7;reg;6;5;yes;no;-58.674;17.45
MS;Quarterly Journal of Economics;125.4;2010;1459;Gould;2;;no;other;7;reg;6;6;yes;no;-23.580;12.89
MS;Quarterly Journal of Economics;125.4;2010;1459;Gould;2;;no;other;7;reg;6;7;yes;no;-61.902;18.04
MS;Quarterly Journal of Economics;125.4;2010;1459;Gould;2;;no;other;7;reg;6;8;yes;no;-22.686;9.37
MS;Quarterly Journal of Economics;125.4;2010;1459;Gould;2;;no;other;7;reg;7;1;yes;no;5.8537;1.57
MS;Quarterly Journal of Economics;125.4;2010;1459;Gould;2;;no;other;7;reg;7;2;yes;no;5.7778;2.03
MS;Quarterly Journal of Economics;125.4;2010;1459;Gould;2;;no;other;7;reg;7;3;yes;no;5.9378;1.53
MS;Quarterly Journal of Economics;125.4;2010;1459;Gould;2;;no;other;7;reg;7;4;yes;no;4.8865;2.20
MS;Quarterly Journal of Economics;125.4;2010;1459;Gould;2;;no;other;7;reg;7;5;yes;no;9.1530;2.40
MS;Quarterly Journal of Economics;125.4;2010;1459;Gould;2;;no;other;7;reg;7;6;yes;no;3.8223;1.44
MS;Quarterly Journal of Economics;125.4;2010;1459;Gould;2;;no;other;7;reg;7;7;yes;no;6.5823;1.73
MS;Quarterly Journal of Economics;125.4;2010;1459;Gould;2;;no;other;7;reg;7;8;yes;no;4.9349;1.43
MS;Quarterly Journal of Economics;125.4;2010;1459;Gould;2;;no;other;7;reg;8;1;yes;no;-59.425;17.19
MS;Quarterly Journal of Economics;125.4;2010;1459;Gould;2;;no;other;7;reg;8;2;yes;no;-56.762;19.96
MS;Quarterly Journal of Economics;125.4;2010;1459;Gould;2;;no;other;7;reg;8;3;yes;no;-56.964;15.56
MS;Quarterly Journal of Economics;125.4;2010;1459;Gould;2;;no;other;7;reg;8;4;yes;no;-64.616;22.03
MS;Quarterly Journal of Economics;125.4;2010;1459;Gould;2;;no;other;7;reg;8;5;yes;no;-94.835;22.83
MS;Quarterly Journal of Economics;125.4;2010;1459;Gould;2;;no;other;7;reg;8;6;yes;no;-40.823;15.09
MS;Quarterly Journal of Economics;125.4;2010;1459;Gould;2;;no;other;7;reg;8;7;yes;no;-76.013;19.38
MS;Quarterly Journal of Economics;125.4;2010;1459;Gould;2;;no;other;7;reg;8;8;yes;no;-43.977;13.94
MS;Quarterly Journal of Economics;125.4;2010;1459;Gould;2;;no;other;8;reg;1;1;yes;no;15.2331;5.45
MS;Quarterly Journal of Economics;125.4;2010;1459;Gould;2;;no;other;8;reg;1;2;yes;no;6.059;3.10
MS;Quarterly Journal of Economics;125.4;2010;1459;Gould;2;;no;other;8;reg;1;3;yes;no;0.5682;0.68
MS;Quarterly Journal of Economics;125.4;2010;1459;Gould;2;;no;other;8;reg;1;4;yes;no;1.5921;0.95
MS;Quarterly Journal of Economics;125.4;2010;1459;Gould;2;;no;other;8;reg;1;5;yes;no;2.7388;0.82
MS;Quarterly Journal of Economics;125.4;2010;1459;Gould;2;;no;other;8;reg;2;1;yes;no;-619.6;289
MS;Quarterly Journal of Economics;125.4;2010;1459;Gould;2;;no;other;8;reg;2;2;yes;no;-171.5;72
MS;Quarterly Journal of Economics;125.4;2010;1459;Gould;2;;no;other;8;reg;2;3;yes;no;-3.282;4.51
MS;Quarterly Journal of Economics;125.4;2010;1459;Gould;2;;no;other;8;reg;2;4;yes;no;-18.375;9.05
MS;Quarterly Journal of Economics;125.4;2010;1459;Gould;2;;no;other;8;reg;2;5;yes;no;-30.984;7.02
MS;Quarterly Journal of Economics;125.4;2010;1459;Gould;2;;no;other;8;reg;3;1;yes;no;25.486;5.37
MS;Quarterly Journal of Economics;125.4;2010;1459;Gould;2;;no;other;8;reg;3;2;yes;no;10.387;3.58
MS;Quarterly Journal of Economics;125.4;2010;1459;Gould;2;;no;other;8;reg;3;3;yes;no;2.2995;0.60
MS;Quarterly Journal of Economics;125.4;2010;1459;Gould;2;;no;other;8;reg;3;4;yes;no;2.1419;1.31
MS;Quarterly Journal of Economics;125.4;2010;1459;Gould;2;;no;other;8;reg;3;5;yes;no;4.5820;0.65
MS;Quarterly Journal of Economics;125.4;2010;1459;Gould;2;;no;other;8;reg;4;1;yes;no;-1236.2;312
MS;Quarterly Journal of Economics;125.4;2010;1459;Gould;2;;no;other;8;reg;4;2;yes;no;-285.4;107
MS;Quarterly Journal of Economics;125.4;2010;1459;Gould;2;;no;other;8;reg;4;3;yes;no;-14.089;4.55
MS;Quarterly Journal of Economics;125.4;2010;1459;Gould;2;;no;other;8;reg;4;4;yes;no;-21.814;14.40
MS;Quarterly Journal of Economics;125.4;2010;1459;Gould;2;;no;other;8;reg;4;5;yes;no;-46.777;6.03
MS;Quarterly Journal of Economics;125.4;2010;1459;Gould;2;;no;other;8;reg;5;1;yes;no;2.8397;1.28
MS;Quarterly Journal of Economics;125.4;2010;1459;Gould;2;;no;other;8;reg;5;2;yes;no;4.4180;1.51
MS;Quarterly Journal of Economics;125.4;2010;1459;Gould;2;;no;other;8;reg;5;3;yes;no;6.0163;1.70
MS;Quarterly Journal of Economics;125.4;2010;1459;Gould;2;;no;other;8;reg;5;4;yes;no;4.2215;1.36
MS;Quarterly Journal of Economics;125.4;2010;1459;Gould;2;;no;other;8;reg;5;5;yes;no;3.5676;2.01
MS;Quarterly Journal of Economics;125.4;2010;1459;Gould;2;;no;other;8;reg;6;1;yes;no;-27.441;11.45
MS;Quarterly Journal of Economics;125.4;2010;1459;Gould;2;;no;other;8;reg;6;2;yes;no;-39.832;15.17
MS;Quarterly Journal of Economics;125.4;2010;1459;Gould;2;;no;other;8;reg;6;3;yes;no;-63.176;15.80
MS;Quarterly Journal of Economics;125.4;2010;1459;Gould;2;;no;other;8;reg;6;4;yes;no;-39.882;12.61
MS;Quarterly Journal of Economics;125.4;2010;1459;Gould;2;;no;other;8;reg;6;5;yes;no;-32.302;43.83
MS;Quarterly Journal of Economics;125.4;2010;1459;Gould;2;;no;other;8;reg;7;5;yes;no;-16.372;258.72
MS;Quarterly Journal of Economics;125.4;2010;1459;Gould;2;;no;other;8;reg;8;1;yes;no;3.1428;1.29
MS;Quarterly Journal of Economics;125.4;2010;1459;Gould;2;;no;other;8;reg;8;2;yes;no;6.7684;1.26
MS;Quarterly Journal of Economics;125.4;2010;1459;Gould;2;;no;other;8;reg;8;3;yes;no;7.9114;1.57
MS;Quarterly Journal of Economics;125.4;2010;1459;Gould;2;;no;other;8;reg;8;4;yes;no;6.3722;1.33
MS;Quarterly Journal of Economics;125.4;2010;1459;Gould;2;;no;other;8;reg;8;5;yes;no;8.5875;1.90
MS;Quarterly Journal of Economics;125.4;2010;1459;Gould;2;;no;other;8;reg;9;1;yes;no;-37.916;12.90
MS;Quarterly Journal of Economics;125.4;2010;1459;Gould;2;;no;other;8;reg;9;2;yes;no;-67.448;14.62
MS;Quarterly Journal of Economics;125.4;2010;1459;Gould;2;;no;other;8;reg;9;3;yes;no;-87.880;19.84
MS;Quarterly Journal of Economics;125.4;2010;1459;Gould;2;;no;other;8;reg;9;4;yes;no;-64.165;13.78
MS;Quarterly Journal of Economics;125.4;2010;1459;Gould;2;;no;other;8;reg;9;5;yes;no;-145.069;50.73
MS;Quarterly Journal of Economics;125.4;2010;1459;Gould;2;;no;other;8;reg;10;5;yes;no;621.608;362.98
MS;Quarterly Journal of Economics;125.4;2010;1459;Gould;2;;no;other;9;reg;1;1;yes;no;5.2083;1.75
MS;Quarterly Journal of Economics;125.4;2010;1459;Gould;2;;no;other;9;reg;1;2;yes;no;4.608;2.27
MS;Quarterly Journal of Economics;125.4;2010;1459;Gould;2;;no;other;9;reg;1;3;yes;no;3.478;1.78
MS;Quarterly Journal of Economics;125.4;2010;1459;Gould;2;;no;other;9;arellano bond;1;4;yes;no;3.9685;1.63
MS;Quarterly Journal of Economics;125.4;2010;1459;Gould;2;;no;other;9;dynamic panel;1;5;yes;no;4.7583;1.83
MS;Quarterly Journal of Economics;125.4;2010;1459;Gould;2;;no;other;9;reg;2;1;yes;no;-57.306;18.29
MS;Quarterly Journal of Economics;125.4;2010;1459;Gould;2;;no;other;9;reg;2;2;yes;no;-56.489;21.75
MS;Quarterly Journal of Economics;125.4;2010;1459;Gould;2;;no;other;9;reg;2;3;yes;no;-39.225;18.44
MS;Quarterly Journal of Economics;125.4;2010;1459;Gould;2;;no;other;9;arellano bond;2;4;yes;no;-55.361;16.17
MS;Quarterly Journal of Economics;125.4;2010;1459;Gould;2;;no;other;9;dynamic panel;2;5;yes;no;-57.622;18.02
MS;Quarterly Journal of Economics;125.4;2010;1459;Gould;2;;no;other;10;reg;1;1;yes;no;4.7977;2.56
MS;Quarterly Journal of Economics;125.4;2010;1459;Gould;2;;no;other;10;reg;1;2;yes;no;5.885;3.24
MS;Quarterly Journal of Economics;125.4;2010;1459;Gould;2;;no;other;10;reg;1;3;yes;no;5.299;2.75
MS;Quarterly Journal of Economics;125.4;2010;1459;Gould;2;;no;other;10;reg;1;4;yes;no;3.072;3.80
MS;Quarterly Journal of Economics;125.4;2010;1459;Gould;2;;no;other;10;reg;1;5;yes;no;4.197;3.66
MS;Quarterly Journal of Economics;125.4;2010;1459;Gould;2;;no;other;10;reg;1;6;yes;no;3.2673;3.24
MS;Quarterly Journal of Economics;125.4;2010;1459;Gould;2;;no;other;10;reg;1;7;yes;no;3.049;4.51
MS;Quarterly Journal of Economics;125.4;2010;1459;Gould;2;;no;other;10;reg;1;8;yes;no;8.726;2.69
MS;Quarterly Journal of Economics;125.4;2010;1459;Gould;2;;no;other;10;reg;1;9;yes;no;2.2953;3.42
MS;Quarterly Journal of Economics;125.4;2010;1459;Gould;2;;no;other;10;reg;2;1;yes;no;-56.65;22.7
MS;Quarterly Journal of Economics;125.4;2010;1459;Gould;2;;no;other;10;reg;2;2;yes;no;-56.155;29.8
MS;Quarterly Journal of Economics;125.4;2010;1459;Gould;2;;no;other;10;reg;2;3;yes;no;-74.78;23.5
MS;Quarterly Journal of Economics;125.4;2010;1459;Gould;2;;no;other;10;reg;2;4;yes;no;-35.96;33.5
MS;Quarterly Journal of Economics;125.4;2010;1459;Gould;2;;no;other;10;reg;2;5;yes;no;-19.56;34.5
MS;Quarterly Journal of Economics;125.4;2010;1459;Gould;2;;no;other;10;reg;2;6;yes;no;-65.77;29.2
MS;Quarterly Journal of Economics;125.4;2010;1459;Gould;2;;no;other;10;reg;2;7;yes;no;-45.44;40.0
MS;Quarterly Journal of Economics;125.4;2010;1459;Gould;2;;no;other;10;reg;2;8;yes;no;-91.85;25.8
MS;Quarterly Journal of Economics;125.4;2010;1459;Gould;2;;no;other;10;reg;2;9;yes;no;-37.90;31.0
MS;Quarterly Journal of Economics;125.4;2010;1459;Gould;2;;no;other;10;reg;3;1;yes;no;5.7566;2.75
MS;Quarterly Journal of Economics;125.4;2010;1459;Gould;2;;no;other;10;reg;3;2;yes;no;8.2814;4.12
MS;Quarterly Journal of Economics;125.4;2010;1459;Gould;2;;no;other;10;reg;3;3;yes;no;4.9736;2.30
MS;Quarterly Journal of Economics;125.4;2010;1459;Gould;2;;no;other;10;reg;3;4;yes;no;3.2349;4.35
MS;Quarterly Journal of Economics;125.4;2010;1459;Gould;2;;no;other;10;reg;3;5;yes;no;7.2096;3.91
MS;Quarterly Journal of Economics;125.4;2010;1459;Gould;2;;no;other;10;reg;3;6;yes;no;3.3378;4.42
MS;Quarterly Journal of Economics;125.4;2010;1459;Gould;2;;no;other;10;reg;3;7;yes;no;1.7381;4.66
MS;Quarterly Journal of Economics;125.4;2010;1459;Gould;2;;no;other;10;reg;3;8;yes;no;11.7436;3.32
MS;Quarterly Journal of Economics;125.4;2010;1459;Gould;2;;no;other;10;reg;3;9;yes;no;7.0940;4.19
MS;Quarterly Journal of Economics;125.4;2010;1459;Gould;2;;no;other;10;reg;4;1;yes;no;-64.085;24.7
MS;Quarterly Journal of Economics;125.4;2010;1459;Gould;2;;no;other;10;reg;4;2;yes;no;-83.184;37.0
MS;Quarterly Journal of Economics;125.4;2010;1459;Gould;2;;no;other;10;reg;4;3;yes;no;-66.643;24.2
MS;Quarterly Journal of Economics;125.4;2010;1459;Gould;2;;no;other;10;reg;4;4;yes;no;-37.925;41.6
MS;Quarterly Journal of Economics;125.4;2010;1459;Gould;2;;no;other;10;reg;4;5;yes;no;-49.318;37.6
MS;Quarterly Journal of Economics;125.4;2010;1459;Gould;2;;no;other;10;reg;4;6;yes;no;-68.630;42.9
MS;Quarterly Journal of Economics;125.4;2010;1459;Gould;2;;no;other;10;reg;4;7;yes;no;-55.341;40.3
MS;Quarterly Journal of Economics;125.4;2010;1459;Gould;2;;no;other;10;reg;4;8;yes;no;-81.651;31.1
MS;Quarterly Journal of Economics;125.4;2010;1459;Gould;2;;no;other;10;reg;4;9;yes;no;-94.575;41.6
MS;Quarterly Journal of Economics;125.4;2010;1459;Gould;2;;no;other;10;reg;5;1;yes;no;6.137;2.35
MS;Quarterly Journal of Economics;125.4;2010;1459;Gould;2;;no;other;10;reg;5;2;yes;no;1.975;4.60
MS;Quarterly Journal of Economics;125.4;2010;1459;Gould;2;;no;other;10;reg;5;3;yes;no;0.104;3.48
MS;Quarterly Journal of Economics;125.4;2010;1459;Gould;2;;no;other;10;reg;5;4;yes;no;12.223;3.44
MS;Quarterly Journal of Economics;125.4;2010;1459;Gould;2;;no;other;10;reg;5;5;yes;no;4.525;3.27
MS;Quarterly Journal of Economics;125.4;2010;1459;Gould;2;;no;other;10;reg;5;6;yes;no;4.599;2.70
MS;Quarterly Journal of Economics;125.4;2010;1459;Gould;2;;no;other;10;reg;5;7;yes;no;10.778;3.50
MS;Quarterly Journal of Economics;125.4;2010;1459;Gould;2;;no;other;10;reg;5;8;yes;no;0.724;3.22
MS;Quarterly Journal of Economics;125.4;2010;1459;Gould;2;;no;other;10;reg;6;1;yes;no;-59.19;24.0
MS;Quarterly Journal of Economics;125.4;2010;1459;Gould;2;;no;other;10;reg;6;2;yes;no;-49.23;42.1
MS;Quarterly Journal of Economics;125.4;2010;1459;Gould;2;;no;other;10;reg;6;3;yes;no;-19.33;31.5
MS;Quarterly Journal of Economics;125.4;2010;1459;Gould;2;;no;other;10;reg;6;4;yes;no;-111.97;31.2
MS;Quarterly Journal of Economics;125.4;2010;1459;Gould;2;;no;other;10;reg;6;5;yes;no;-56.78;32.2
MS;Quarterly Journal of Economics;125.4;2010;1459;Gould;2;;no;other;10;reg;6;6;yes;no;-59.52;25.0
MS;Quarterly Journal of Economics;125.4;2010;1459;Gould;2;;no;other;10;reg;6;7;yes;no;-119.75;33.5
MS;Quarterly Journal of Economics;125.4;2010;1459;Gould;2;;no;other;10;reg;6;8;yes;no;-20.55;29.1
MS;Quarterly Journal of Economics;125.4;2010;1459;Gould;2;;no;other;10;reg;7;1;yes;no;8.7890;2.45
MS;Quarterly Journal of Economics;125.4;2010;1459;Gould;2;;no;other;10;reg;7;2;yes;no;1.8101;4.85
MS;Quarterly Journal of Economics;125.4;2010;1459;Gould;2;;no;other;10;reg;7;3;yes;no;4.3563;4.01
MS;Quarterly Journal of Economics;125.4;2010;1459;Gould;2;;no;other;10;reg;7;4;yes;no;10.6170;4.66
MS;Quarterly Journal of Economics;125.4;2010;1459;Gould;2;;no;other;10;reg;7;5;yes;no;-1.0630;4.30
MS;Quarterly Journal of Economics;125.4;2010;1459;Gould;2;;no;other;10;reg;7;6;yes;no;9.9804;2.77
MS;Quarterly Journal of Economics;125.4;2010;1459;Gould;2;;no;other;10;reg;7;7;yes;no;11.9123;3.34
MS;Quarterly Journal of Economics;125.4;2010;1459;Gould;2;;no;other;10;reg;7;8;yes;no;0.9514;3.52
MS;Quarterly Journal of Economics;125.4;2010;1459;Gould;2;;no;other;10;reg;8;1;yes;no;-94.435;25.1
MS;Quarterly Journal of Economics;125.4;2010;1459;Gould;2;;no;other;10;reg;8;2;yes;no;-19.621;42.1
MS;Quarterly Journal of Economics;125.4;2010;1459;Gould;2;;no;other;10;reg;8;3;yes;no;-49.211;36.0
MS;Quarterly Journal of Economics;125.4;2010;1459;Gould;2;;no;other;10;reg;8;4;yes;no;-124.19;43.4
MS;Quarterly Journal of Economics;125.4;2010;1459;Gould;2;;no;other;10;reg;8;5;yes;no;-4.858;37.6
MS;Quarterly Journal of Economics;125.4;2010;1459;Gould;2;;no;other;10;reg;8;6;yes;no;-106.52;27.6
MS;Quarterly Journal of Economics;125.4;2010;1459;Gould;2;;no;other;10;reg;8;7;yes;no;-155.76;34.5
MS;Quarterly Journal of Economics;125.4;2010;1459;Gould;2;;no;other;10;reg;8;8;yes;no;-0.288;32.9
MS;Quarterly Journal of Economics;125.4;2010;1459;Gould;2;;no;other;11;reg;1;1;yes;no;0.7195;0.35
MS;Quarterly Journal of Economics;125.4;2010;1459;Gould;2;;no;other;11;reg;1;2;yes;no;-0.2216;0.50
MS;Quarterly Journal of Economics;125.4;2010;1459;Gould;2;;no;other;11;reg;1;3;yes;no;1.7809;0.43
MS;Quarterly Journal of Economics;125.4;2010;1459;Gould;2;;no;other;11;reg;1;4;yes;no;1.3511;0.53
MS;Quarterly Journal of Economics;125.4;2010;1459;Gould;2;;no;other;11;reg;1;5;yes;no;-0.4158;0.51
MS;Quarterly Journal of Economics;125.4;2010;1459;Gould;2;;no;other;11;reg;1;6;yes;no;1.1080;0.58
MS;Quarterly Journal of Economics;125.4;2010;1459;Gould;2;;no;other;11;reg;1;7;yes;no;1.6769;0.67
MS;Quarterly Journal of Economics;125.4;2010;1459;Gould;2;;no;other;11;reg;1;8;yes;no;-0.1969;0.53
MS;Quarterly Journal of Economics;125.4;2010;1459;Gould;2;;no;other;11;reg;1;9;yes;no;0.7184;0.71
MS;Quarterly Journal of Economics;125.4;2010;1459;Gould;2;;no;other;11;reg;2;1;yes;no;0.7639;0.41
MS;Quarterly Journal of Economics;125.4;2010;1459;Gould;2;;no;other;11;reg;2;2;yes;no;-0.8345;0.60
MS;Quarterly Journal of Economics;125.4;2010;1459;Gould;2;;no;other;11;reg;2;3;yes;no;2.1207;0.53
MS;Quarterly Journal of Economics;125.4;2010;1459;Gould;2;;no;other;11;reg;2;4;yes;no;1.0983;0.63
MS;Quarterly Journal of Economics;125.4;2010;1459;Gould;2;;no;other;11;reg;2;5;yes;no;-0.1460;0.68
MS;Quarterly Journal of Economics;125.4;2010;1459;Gould;2;;no;other;11;reg;2;6;yes;no;1.1542;0.83
MS;Quarterly Journal of Economics;125.4;2010;1459;Gould;2;;no;other;11;reg;2;7;yes;no;1.5026;0.87
MS;Quarterly Journal of Economics;125.4;2010;1459;Gould;2;;no;other;11;reg;2;8;yes;no;-1.5186;0.65
MS;Quarterly Journal of Economics;125.4;2010;1459;Gould;2;;no;other;11;reg;2;9;yes;no;1.7822;0.71
MS;Quarterly Journal of Economics;125.4;2010;1459;Gould;2;;no;other;11;reg;3;2;yes;no;0.6903;0.50
MS;Quarterly Journal of Economics;125.4;2010;1459;Gould;2;;no;other;11;reg;3;3;yes;no;0.9045;0.47
MS;Quarterly Journal of Economics;125.4;2010;1459;Gould;2;;no;other;11;reg;3;4;yes;no;1.1535;0.48
MS;Quarterly Journal of Economics;125.4;2010;1459;Gould;2;;no;other;11;reg;3;5;yes;no;-0.2812;0.58
MS;Quarterly Journal of Economics;125.4;2010;1459;Gould;2;;no;other;11;reg;3;6;yes;no;1.1741;0.56
MS;Quarterly Journal of Economics;125.4;2010;1459;Gould;2;;no;other;11;reg;3;7;yes;no;0.6675;0.50
MS;Quarterly Journal of Economics;125.4;2010;1459;Gould;2;;no;other;11;reg;3;8;yes;no;0.6118;0.66
MS;Quarterly Journal of Economics;125.4;2010;1459;Gould;2;;no;other;11;reg;3;9;yes;no;0.8741;0.39
MS;Quarterly Journal of Economics;125.4;2010;1459;Gould;2;;no;other;11;reg;4;2;yes;no;0.8561;0.50
MS;Quarterly Journal of Economics;125.4;2010;1459;Gould;2;;no;other;11;reg;4;3;yes;no;-0.2633;0.65
MS;Quarterly Journal of Economics;125.4;2010;1459;Gould;2;;no;other;11;reg;4;4;yes;no;0.8770;0.60
MS;Quarterly Journal of Economics;125.4;2010;1459;Gould;2;;no;other;11;reg;4;5;yes;no;0.7232;0.73
MS;Quarterly Journal of Economics;125.4;2010;1459;Gould;2;;no;other;11;reg;4;6;yes;no;1.2452;0.84
MS;Quarterly Journal of Economics;125.4;2010;1459;Gould;2;;no;other;11;reg;4;7;yes;no;0.3775;0.48
MS;Quarterly Journal of Economics;125.4;2010;1459;Gould;2;;no;other;11;reg;4;8;yes;no;1.0530;0.77
MS;Quarterly Journal of Economics;125.4;2010;1459;Gould;2;;no;other;11;reg;4;9;yes;no;0.1191;0.54
MS;Quarterly Journal of Economics;125.4;2010;1683;Hong;2;;no;other;2;reg;1;1;yes;yes;-0.0002;0.0001
MS;Quarterly Journal of Economics;125.4;2010;1683;Hong;2;;no;other;2;reg;1;2;yes;yes;-0.0002;0.0001
MS;Quarterly Journal of Economics;125.4;2010;1683;Hong;2;;no;other;2;reg;1;3;yes;yes;0.0001;0.0001
MS;Quarterly Journal of Economics;125.4;2010;1683;Hong;2;;no;other;2;reg;1;4;yes;yes;-0.0002;0.0001
MS;Quarterly Journal of Economics;125.4;2010;1683;Hong;2;;no;other;2;reg;1;5;yes;yes;-0.0002;0.0001
MS;Quarterly Journal of Economics;125.4;2010;1683;Hong;2;;no;other;2;reg;1;6;yes;yes;0.0001;0.0001
MS;Quarterly Journal of Economics;125.4;2010;1683;Hong;2;;no;other;2;reg;2;1;yes;yes;0.0028;0.0009
MS;Quarterly Journal of Economics;125.4;2010;1683;Hong;2;;no;other;2;reg;2;2;yes;yes;0.0026;0.0009
MS;Quarterly Journal of Economics;125.4;2010;1683;Hong;2;;no;other;2;reg;2;3;yes;yes;0.0044;0.0014
MS;Quarterly Journal of Economics;125.4;2010;1683;Hong;2;;no;other;2;reg;2;4;yes;yes;0.0028;0.0008
MS;Quarterly Journal of Economics;125.4;2010;1683;Hong;2;;no;other;2;reg;2;5;yes;yes;0.0026;0.0008
MS;Quarterly Journal of Economics;125.4;2010;1683;Hong;2;;no;other;2;reg;2;6;yes;yes;0.0042;0.0014
MS;Quarterly Journal of Economics;125.4;2010;1683;Hong;2;;no;other;2;reg;3;1;yes;yes;-0.0093;0.0062
MS;Quarterly Journal of Economics;125.4;2010;1683;Hong;2;;no;other;2;reg;3;2;yes;yes;-0.0031;0.0058
MS;Quarterly Journal of Economics;125.4;2010;1683;Hong;2;;no;other;2;reg;3;3;yes;yes;0.0108;0.0039
MS;Quarterly Journal of Economics;125.4;2010;1683;Hong;2;;no;other;2;reg;3;4;yes;yes;-0.0095;0.0061
MS;Quarterly Journal of Economics;125.4;2010;1683;Hong;2;;no;other;2;reg;3;5;yes;yes;-0.0061;0.0059
MS;Quarterly Journal of Economics;125.4;2010;1683;Hong;2;;no;other;2;reg;3;6;yes;yes;0.0108;0.0041
MS;Quarterly Journal of Economics;125.4;2010;1683;Hong;2;;no;other;2;reg;4;1;yes;yes;-0.1000;0.0199
MS;Quarterly Journal of Economics;125.4;2010;1683;Hong;2;;no;other;2;reg;4;2;yes;yes;-0.0986;0.0199
MS;Quarterly Journal of Economics;125.4;2010;1683;Hong;2;;no;other;2;reg;4;3;yes;yes;-0.0368;0.0133
MS;Quarterly Journal of Economics;125.4;2010;1683;Hong;2;;no;other;2;reg;4;4;yes;yes;-0.0986;0.0192
MS;Quarterly Journal of Economics;125.4;2010;1683;Hong;2;;no;other;2;reg;4;5;yes;yes;-0.0995;0.0198
MS;Quarterly Journal of Economics;125.4;2010;1683;Hong;2;;no;other;2;reg;4;6;yes;yes;-0.0367;0.0135
MS;Quarterly Journal of Economics;125.4;2010;1683;Hong;2;;no;other;2;reg;5;1;yes;yes;0.0121;0.0016
MS;Quarterly Journal of Economics;125.4;2010;1683;Hong;2;;no;other;2;reg;5;2;yes;yes;0.0115;0.0015
MS;Quarterly Journal of Economics;125.4;2010;1683;Hong;2;;no;other;2;reg;5;3;yes;yes;0.0053;0.0013
MS;Quarterly Journal of Economics;125.4;2010;1683;Hong;2;;no;other;2;reg;5;4;yes;yes;0.0118;0.0016
MS;Quarterly Journal of Economics;125.4;2010;1683;Hong;2;;no;other;2;reg;5;5;yes;yes;0.0116;0.0015
MS;Quarterly Journal of Economics;125.4;2010;1683;Hong;2;;no;other;2;reg;5;6;yes;yes;0.0049;0.0013
MS;Quarterly Journal of Economics;125.4;2010;1683;Hong;2;;no;other;2;reg;6;1;yes;yes;0.0062;0.0019
MS;Quarterly Journal of Economics;125.4;2010;1683;Hong;2;;no;other;2;reg;6;2;yes;yes;0.0061;0.0019
MS;Quarterly Journal of Economics;125.4;2010;1683;Hong;2;;no;other;2;reg;6;3;yes;yes;0.0000;0.0000
MS;Quarterly Journal of Economics;125.4;2010;1683;Hong;2;;no;other;2;reg;6;4;yes;yes;0.0060;0.0019
MS;Quarterly Journal of Economics;125.4;2010;1683;Hong;2;;no;other;2;reg;6;5;yes;yes;0.0059;0.0019
MS;Quarterly Journal of Economics;125.4;2010;1683;Hong;2;;no;other;2;reg;6;6;yes;yes;0.0000;0.0000
MS;Quarterly Journal of Economics;125.4;2010;1683;Hong;2;;no;other;2;reg;7;1;yes;yes;0.0579;0.0095
MS;Quarterly Journal of Economics;125.4;2010;1683;Hong;2;;no;other;2;reg;7;2;yes;yes;0.0571;0.0092
MS;Quarterly Journal of Economics;125.4;2010;1683;Hong;2;;no;other;2;reg;7;3;yes;yes;0.0629;0.0115
MS;Quarterly Journal of Economics;125.4;2010;1683;Hong;2;;no;other;2;reg;7;4;yes;yes;0.0578;0.0098
MS;Quarterly Journal of Economics;125.4;2010;1683;Hong;2;;no;other;2;reg;7;5;yes;yes;0.0574;0.0095
MS;Quarterly Journal of Economics;125.4;2010;1683;Hong;2;;no;other;2;reg;7;6;yes;yes;0.0619;0.0115
MS;Quarterly Journal of Economics;125.4;2010;1683;Hong;2;;no;other;2;reg;8;1;yes;yes;-0.0110;0.0024
MS;Quarterly Journal of Economics;125.4;2010;1683;Hong;2;;no;other;2;reg;8;2;yes;yes;-0.0110;0.0024
MS;Quarterly Journal of Economics;125.4;2010;1683;Hong;2;;no;other;2;reg;8;3;yes;yes;-0.0017;0.0072
MS;Quarterly Journal of Economics;125.4;2010;1683;Hong;2;;no;other;2;reg;8;4;yes;yes;-0.0110;0.0025
MS;Quarterly Journal of Economics;125.4;2010;1683;Hong;2;;no;other;2;reg;8;5;yes;yes;-0.0110;0.0024
MS;Quarterly Journal of Economics;125.4;2010;1683;Hong;2;;no;other;2;reg;8;6;yes;yes;-0.0026;0.0075
MS;Quarterly Journal of Economics;125.4;2010;1683;Hong;2;;no;other;5a;reg;1;1;yes;no;-1.021;0.179
MS;Quarterly Journal of Economics;125.4;2010;1683;Hong;2;;no;other;5a;reg;1;2;yes;no;0.0013;0.0007
MS;Quarterly Journal of Economics;125.4;2010;1683;Hong;2;;no;other;5a;reg;1;3;yes;no;0.0016;0.0008
MS;Quarterly Journal of Economics;125.4;2010;1683;Hong;2;;no;other;5b;reg;1;1;yes;no;0.0011;0.0005
MS;Quarterly Journal of Economics;125.4;2010;1683;Hong;2;;no;other;5b;reg;1;2;yes;no;0.0012;0.0005
MS;Quarterly Journal of Economics;125.4;2010;1683;Hong;2;;no;other;5c;reg;1;1;yes;no;0.0078;0.0036
MS;Quarterly Journal of Economics;125.4;2010;1683;Hong;2;;no;other;5c;reg;1;2;yes;no;0.0096;0.0044
MS;Quarterly Journal of Economics;125.4;2010;1683;Hong;2;;no;other;5c;reg;2;1;yes;no;0.0017;0.0011
MS;Quarterly Journal of Economics;125.4;2010;1683;Hong;2;;no;other;5c;reg;2;2;yes;no;0.0020;0.0011
MS;Quarterly Journal of Economics;125.4;2010;1683;Hong;2;;no;other;5c;reg;3;1;yes;no;0.0003;0.0013
MS;Quarterly Journal of Economics;125.4;2010;1683;Hong;2;;no;other;5c;reg;3;2;yes;no;0.0007;0.0013
MS;Quarterly Journal of Economics;125.4;2010;1683;Hong;2;;no;other;6a;reg;1;1;yes;no;-0.0002;0.0005
MS;Quarterly Journal of Economics;125.4;2010;1683;Hong;2;;no;other;6a;reg;1;2;yes;no;-0.0002;0.0005
MS;Quarterly Journal of Economics;125.4;2010;1683;Hong;2;;no;other;6b;reg;1;1;yes;no;0.0397;0.1138
MS;Quarterly Journal of Economics;125.4;2010;1683;Hong;2;;no;other;6b;reg;2;1;yes;no;30.52;20.63
MS;Quarterly Journal of Economics;125.4;2010;1683;Hong;2;;no;other;6b;reg;3;1;yes;no;0.0015;0.0012
MS;Quarterly Journal of Economics;125.4;2010;1683;Hong;2;;no;other;6b;reg;4;1;yes;no;-0.0069;0.0054
MS;Quarterly Journal of Economics;125.4;2010;1683;Hong;2;;no;other;6b;reg;5;1;yes;no;-0.0593;0.0597
MS;Quarterly Journal of Economics;125.4;2010;1683;Hong;2;;no;other;6b;reg;6;1;yes;no;0.0046;0.0090
MS;Quarterly Journal of Economics;125.4;2010;1683;Hong;2;;no;other;6c;reg;1;1;yes;no;0.080;0.106
MS;Quarterly Journal of Economics;125.4;2010;1683;Hong;2;;no;other;6c;reg;1;2;yes;no;0.0001;0.0004
MS;Quarterly Journal of Economics;125.4;2010;1683;Hong;2;;no;other;6c;reg;1;3;yes;no;0.0001;0.0004
MS;Quarterly Journal of Economics;125.4;2010;1683;Hong;2;;no;other;6d;reg;1;1;yes;no;0.0017;0.0006
MS;Quarterly Journal of Economics;125.4;2010;1683;Hong;2;;no;other;6d;reg;1;2;yes;no;0.0018;0.0006
MS;Quarterly Journal of Economics;125.4;2010;1683;Hong;2;;no;other;7;reg;1;1;yes;no;0.0005;0.0008
MS;Quarterly Journal of Economics;125.4;2010;1683;Hong;2;;no;other;7;reg;1;2;yes;no;0.0005;0.0008
MS;Quarterly Journal of Economics;125.4;2010;1683;Hong;2;;no;other;7;reg;1;3;yes;no;0.0005;0.0008
MS;Quarterly Journal of Economics;125.4;2010;1683;Hong;2;;no;other;7;reg;1;4;yes;no;0.0006;0.0008
MS;Quarterly Journal of Economics;125.4;2010;1683;Hong;2;;no;other;7;reg;2;1;yes;no;-0.0019;0.0006
MS;Quarterly Journal of Economics;125.4;2010;1683;Hong;2;;no;other;7;reg;2;2;yes;no;-0.0019;0.0007
MS;Quarterly Journal of Economics;125.4;2010;1683;Hong;2;;no;other;7;reg;2;3;yes;no;-0.0019;0.0006
MS;Quarterly Journal of Economics;125.4;2010;1683;Hong;2;;no;other;7;reg;2;4;yes;no;-0.0019;0.0006
MS;Quarterly Journal of Economics;125.4;2010;1683;Hong;2;;no;other;7;reg;3;1;yes;no;0.0021;0.0012
MS;Quarterly Journal of Economics;125.4;2010;1683;Hong;2;;no;other;7;reg;3;2;yes;no;0.0024;0.0012
MS;Quarterly Journal of Economics;125.4;2010;1683;Hong;2;;no;other;7;reg;3;3;yes;no;0.0021;0.0012
MS;Quarterly Journal of Economics;125.4;2010;1683;Hong;2;;no;other;7;reg;3;4;yes;no;0.0024;0.0012
MS;Quarterly Journal of Economics;125.4;2010;1683;Hong;2;;no;other;7;reg;4;1;yes;no;0.0038;0.0010
MS;Quarterly Journal of Economics;125.4;2010;1683;Hong;2;;no;other;7;reg;4;2;yes;no;0.0037;0.0010
MS;Quarterly Journal of Economics;125.4;2010;1683;Hong;2;;no;other;7;reg;4;3;yes;no;0.0038;0.0009
MS;Quarterly Journal of Economics;125.4;2010;1683;Hong;2;;no;other;7;reg;4;4;yes;no;0.0037;0.0010
MS;Quarterly Journal of Economics;125.4;2010;1683;Hong;2;;no;other;7;reg;5;1;yes;no;0.0005;0.0017
MS;Quarterly Journal of Economics;125.4;2010;1683;Hong;2;;no;other;7;reg;5;2;yes;no;0.0004;0.0017
MS;Quarterly Journal of Economics;125.4;2010;1683;Hong;2;;no;other;7;reg;5;3;yes;no;0.0005;0.0017
MS;Quarterly Journal of Economics;125.4;2010;1683;Hong;2;;no;other;7;reg;5;4;yes;no;0.0004;0.0017
MS;Quarterly Journal of Economics;125.4;2010;1683;Hong;2;;no;other;7;reg;6;1;yes;no;-0.0037;0.0073
MS;Quarterly Journal of Economics;125.4;2010;1683;Hong;2;;no;other;7;reg;6;2;yes;no;0.0001;0.0074
MS;Quarterly Journal of Economics;125.4;2010;1683;Hong;2;;no;other;7;reg;6;3;yes;no;-0.0037;0.0073
MS;Quarterly Journal of Economics;125.4;2010;1683;Hong;2;;no;other;7;reg;6;4;yes;no;0.0001;0.0074
MS;Quarterly Journal of Economics;125.4;2010;1683;Hong;2;;no;other;7;reg;7;1;yes;no;0.0001;0.0001
MS;Quarterly Journal of Economics;125.4;2010;1683;Hong;2;;no;other;7;reg;7;2;yes;no;0.0001;0.0001
MS;Quarterly Journal of Economics;125.4;2010;1683;Hong;2;;no;other;7;reg;7;3;yes;no;0.0001;0.0001
MS;Quarterly Journal of Economics;125.4;2010;1683;Hong;2;;no;other;7;reg;7;4;yes;no;0.0001;0.0001
MS;Quarterly Journal of Economics;125.4;2010;1683;Hong;2;;no;other;7;reg;8;1;yes;no;0.0001;0.0000
MS;Quarterly Journal of Economics;125.4;2010;1683;Hong;2;;no;other;7;reg;8;2;yes;no;0.0000;0.0000
MS;Quarterly Journal of Economics;125.4;2010;1683;Hong;2;;no;other;7;reg;8;3;yes;no;0.0001;0.0001
MS;Quarterly Journal of Economics;125.4;2010;1683;Hong;2;;no;other;7;reg;8;4;yes;no;0.0000;0.0000
MS;Quarterly Journal of Economics;125.4;2010;1683;Hong;2;;no;other;7;reg;9;1;yes;no;0.0000;0.0000
MS;Quarterly Journal of Economics;125.4;2010;1683;Hong;2;;no;other;7;reg;9;2;yes;no;0.0000;0.0000
MS;Quarterly Journal of Economics;125.4;2010;1683;Hong;2;;no;other;7;reg;9;3;yes;no;0.0000;0.0000
MS;Quarterly Journal of Economics;125.4;2010;1683;Hong;2;;no;other;7;reg;9;4;yes;no;0.0000;0.0000
MS;Quarterly Journal of Economics;125.4;2010;1683;Hong;2;;no;other;7;reg;10;1;yes;no;0.0000;0.0000
MS;Quarterly Journal of Economics;125.4;2010;1683;Hong;2;;no;other;7;reg;10;2;yes;no;0.0000;0.0000
MS;Quarterly Journal of Economics;125.4;2010;1683;Hong;2;;no;other;7;reg;10;3;yes;no;0.0000;0.0000
MS;Quarterly Journal of Economics;125.4;2010;1683;Hong;2;;no;other;7;reg;10;4;yes;no;0.0000;0.0000
MS;Quarterly Journal of Economics;125.4;2010;1683;Hong;2;;no;other;7;reg;11;1;yes;no;0.0629;0.0052
MS;Quarterly Journal of Economics;125.4;2010;1683;Hong;2;;no;other;7;reg;11;2;yes;no;0.0620;0.0052
MS;Quarterly Journal of Economics;125.4;2010;1683;Hong;2;;no;other;7;reg;11;3;yes;no;0.0630;0.0052
MS;Quarterly Journal of Economics;125.4;2010;1683;Hong;2;;no;other;7;reg;11;4;yes;no;0.0621;0.0052
MS;Quarterly Journal of Economics;125.4;2010;1683;Hong;2;;no;other;7;reg;12;1;yes;no;0.0032;0.0031
MS;Quarterly Journal of Economics;125.4;2010;1683;Hong;2;;no;other;7;reg;12;2;yes;no;0.0039;0.0037
MS;Quarterly Journal of Economics;125.4;2010;1683;Hong;2;;no;other;7;reg;12;3;yes;no;0.0032;0.0031
MS;Quarterly Journal of Economics;125.4;2010;1683;Hong;2;;no;other;7;reg;12;4;yes;no;0.0039;0.0037
MS;Quarterly Journal of Economics;125.4;2010;1683;Hong;2;;no;other;7;reg;13;3;yes;no;-0.0000;0.0000
MS;Quarterly Journal of Economics;125.4;2010;1683;Hong;2;;no;other;7;reg;13;4;yes;no;-0.0000;0.0000
MS;Quarterly Journal of Economics;125.4;2010;1683;Hong;2;;no;other;8;reg;1;1;yes;no;0.553;0.202
MS;Quarterly Journal of Economics;125.4;2010;1683;Hong;2;;no;other;8;reg;1;2;yes;no;0.352;0.212
MS;Quarterly Journal of Economics;125.4;2010;1683;Hong;2;;no;other;8;reg;2;1;yes;no;0.0501;0.0412
MS;Quarterly Journal of Economics;125.4;2010;1683;Hong;2;;no;other;8;reg;2;2;yes;no;0.0902;0.0556
MS;Quarterly Journal of Economics;125.4;2010;1683;Hong;2;;no;other;9;reg;1;1;yes;no;0.0106;0.0067
MS;Quarterly Journal of Economics;125.4;2010;1683;Hong;2;;no;other;9;reg;1;2;yes;no;0.0448;0.0136
MS;Quarterly Journal of Economics;125.4;2010;1683;Hong;2;;no;other;9;reg;1;3;yes;no;-0.0036;0.0074
MS;Quarterly Journal of Economics;125.4;2010;1683;Hong;2;;no;other;9;reg;1;4;yes;no;-0.0065;0.0092
MS;Quarterly Journal of Economics;125.4;2010;1683;Hong;2;;no;other;9;reg;2;1;yes;no;0.0082;0.0040
MS;Quarterly Journal of Economics;125.4;2010;1683;Hong;2;;no;other;9;reg;2;2;yes;no;0.0183;0.0080
MS;Quarterly Journal of Economics;125.4;2010;1683;Hong;2;;no;other;9;reg;3;3;yes;no;0.0262;0.0062
MS;Quarterly Journal of Economics;125.4;2010;1683;Hong;2;;no;other;9;reg;3;4;yes;no;0.0233;0.0098
MS;Quarterly Journal of Economics;125.4;2010;1683;Hong;2;;no;other;9;reg;4;2;yes;no;-0.0019;0.0006
MS;Quarterly Journal of Economics;125.4;2010;1683;Hong;2;;no;other;9;reg;4;4;yes;no;0.0005;0.0003
MS;Quarterly Journal of Economics;125.4;2010;1683;Hong;2;;no;other;9;reg;5;2;yes;no;-0.0006;0.0004
MS;Quarterly Journal of Economics;125.4;2010;1683;Hong;2;;no;other;9;reg;6;4;yes;no;0.0001;0.0005
MS;Quarterly Journal of Economics;125.4;2010;1683;Hong;2;;no;other;9;reg;7;1;yes;no;-0.0004;0.0002
MS;Quarterly Journal of Economics;125.4;2010;1683;Hong;2;;no;other;9;reg;7;2;yes;no;0.0002;0.0003
MS;Quarterly Journal of Economics;125.4;2010;1683;Hong;2;;no;other;9;reg;7;3;yes;no;0.0004;0.0003
MS;Quarterly Journal of Economics;125.4;2010;1683;Hong;2;;no;other;9;reg;7;4;yes;no;0.0002;0.0003
MS;Quarterly Journal of Economics;125.4;2010;1683;Hong;2;;no;other;9;reg;8;1;yes;no;0.0262;0.0052
MS;Quarterly Journal of Economics;125.4;2010;1683;Hong;2;;no;other;9;reg;8;2;yes;no;0.0265;0.0052
MS;Quarterly Journal of Economics;125.4;2010;1683;Hong;2;;no;other;9;reg;8;3;yes;no;0.0067;0.0043
MS;Quarterly Journal of Economics;125.4;2010;1683;Hong;2;;no;other;9;reg;8;4;yes;no;0.0065;0.0043
MS;Quarterly Journal of Economics;125.4;2010;1683;Hong;2;;no;other;9;reg;9;1;yes;no;-0.0016;0.0003
MS;Quarterly Journal of Economics;125.4;2010;1683;Hong;2;;no;other;9;reg;9;2;yes;no;-0.0016;0.0003
MS;Quarterly Journal of Economics;125.4;2010;1683;Hong;2;;no;other;9;reg;9;3;yes;no;0.0008;0.0002
MS;Quarterly Journal of Economics;125.4;2010;1683;Hong;2;;no;other;9;reg;9;4;yes;no;0.0008;0.0002
MS;Quarterly Journal of Economics;125.4;2010;1859;Price;2;;no;other;0_1;reg;1984;1;no;yes;-0.64;0.017
MS;Quarterly Journal of Economics;125.4;2010;1859;Price;2;;no;other;0_1;reg;1984;2;no;yes;-0.017;0.017
MS;Quarterly Journal of Economics;125.4;2010;1859;Price;2;;no;other;3;reg;1;1;yes;yes;0.182;0.066
MS;Quarterly Journal of Economics;125.4;2010;1859;Price;2;;no;other;4;reg;1;1;yes;yes;0.197;0.061
MS;Quarterly Journal of Economics;125.4;2010;1859;Price;2;;no;other;4;reg;1;2;yes;yes;0.203;0.072
MS;Quarterly Journal of Economics;125.4;2010;1859;Price;2;;no;other;4;reg;1;3;yes;yes;0.181;0.080
MS;Quarterly Journal of Economics;125.4;2010;1859;Price;2;;no;other;5;reg;1;1;yes;yes;0.197;0.061
MS;Quarterly Journal of Economics;125.4;2010;1859;Price;2;;no;other;5;reg;1;2;yes;yes;0.203;0.072
MS;Quarterly Journal of Economics;125.4;2010;1859;Price;2;;no;other;5;reg;1;3;yes;yes;0.181;0.080
MS;Quarterly Journal of Economics;125.4;2010;1859;Price;2;;no;other;5;reg;2;1;yes;yes;0.006;0.005
MS;Quarterly Journal of Economics;125.4;2010;1859;Price;2;;no;other;5;reg;2;2;yes;yes;0.010;0.006
MS;Quarterly Journal of Economics;125.4;2010;1859;Price;2;;no;other;5;reg;2;3;yes;yes;0.009;0.006
MS;Quarterly Journal of Economics;125.4;2010;1859;Price;2;;no;other;5;reg;3;1;yes;yes;0.007;0.010
MS;Quarterly Journal of Economics;125.4;2010;1859;Price;2;;no;other;5;reg;3;2;yes;yes;0.016;0.013
MS;Quarterly Journal of Economics;125.4;2010;1859;Price;2;;no;other;5;reg;3;3;yes;yes;0.015;0.014
MS;Quarterly Journal of Economics;125.4;2010;1859;Price;2;;no;other;5;reg;4;1;yes;yes;-0.408;0.136
MS;Quarterly Journal of Economics;125.4;2010;1859;Price;2;;no;other;5;reg;4;2;yes;yes;-0.503;0.160
MS;Quarterly Journal of Economics;125.4;2010;1859;Price;2;;no;other;5;reg;4;3;yes;yes;-0.403;0.158
MS;Quarterly Journal of Economics;125.4;2010;1859;Price;2;;no;other;5;reg;5;1;yes;yes;-0.000;0.003
MS;Quarterly Journal of Economics;125.4;2010;1859;Price;2;;no;other;5;reg;5;2;yes;yes;0.001;0.004
MS;Quarterly Journal of Economics;125.4;2010;1859;Price;2;;no;other;5;reg;5;3;yes;yes;0.002;0.004
MS;Quarterly Journal of Economics;125.4;2010;1859;Price;2;;no;other;5;reg;6;1;yes;yes;-0.395;0.176
MS;Quarterly Journal of Economics;125.4;2010;1859;Price;2;;no;other;5;reg;6;2;yes;yes;-0.300;0.206
MS;Quarterly Journal of Economics;125.4;2010;1859;Price;2;;no;other;5;reg;6;3;yes;yes;-0.482;0.226
MS;Quarterly Journal of Economics;125.4;2010;1859;Price;2;;no;other;5;reg;7;1;yes;yes;-0.102;0.090
MS;Quarterly Journal of Economics;125.4;2010;1859;Price;2;;no;other;5;reg;7;2;yes;yes;-0.018;0.106
MS;Quarterly Journal of Economics;125.4;2010;1859;Price;2;;no;other;5;reg;7;3;yes;yes;-0.041;0.114
MS;Quarterly Journal of Economics;125.4;2010;1859;Price;2;;no;other;5;reg;8;1;yes;yes;0.002;0.006
MS;Quarterly Journal of Economics;125.4;2010;1859;Price;2;;no;other;5;reg;8;2;yes;yes;0.000;0.007
MS;Quarterly Journal of Economics;125.4;2010;1859;Price;2;;no;other;5;reg;8;3;yes;yes;0.001;0.008
MS;Quarterly Journal of Economics;125.4;2010;1859;Price;2;;no;other;5;reg;9;1;yes;yes;-0.057;0.030
MS;Quarterly Journal of Economics;125.4;2010;1859;Price;2;;no;other;5;reg;9;2;yes;yes;-0.011;0.036
MS;Quarterly Journal of Economics;125.4;2010;1859;Price;2;;no;other;5;reg;9;3;yes;yes;-0.009;0.039
MS;Quarterly Journal of Economics;125.4;2010;1859;Price;2;;no;other;5;reg;10;1;yes;yes;-0.062;0.036
MS;Quarterly Journal of Economics;125.4;2010;1859;Price;2;;no;other;5;reg;10;2;yes;yes;-0.067;0.043
MS;Quarterly Journal of Economics;125.4;2010;1859;Price;2;;no;other;5;reg;10;3;yes;yes;-0.078;0.047
MS;Quarterly Journal of Economics;125.4;2010;1859;Price;2;;no;other;5;reg;11;1;yes;yes;0.112;0.050
MS;Quarterly Journal of Economics;125.4;2010;1859;Price;2;;no;other;5;reg;11;2;yes;yes;0.153;0.058
MS;Quarterly Journal of Economics;125.4;2010;1859;Price;2;;no;other;5;reg;11;3;yes;yes;0.121;0.064
MS;Quarterly Journal of Economics;125.4;2010;1859;Price;2;;no;other;5;reg;12;1;yes;yes;-0.528;0.170
MS;Quarterly Journal of Economics;125.4;2010;1859;Price;2;;no;other;5;reg;12;2;yes;yes;-0.599;0.199
MS;Quarterly Journal of Economics;125.4;2010;1859;Price;2;;no;other;5;reg;12;3;yes;yes;-0.509;0.218
MS;Quarterly Journal of Economics;125.4;2010;1859;Price;2;;no;other;6a;reg;1;1;yes;yes;2.154;0.965
MS;Quarterly Journal of Economics;125.4;2010;1859;Price;2;;no;other;6a;reg;1;2;yes;yes;1.899;0.940
MS;Quarterly Journal of Economics;125.4;2010;1859;Price;2;;no;other;6a;iv_2;1;3;yes;yes;1.687;1.052
MS;Quarterly Journal of Economics;125.4;2010;1859;Price;2;;no;other;6b;reg;1;1;yes;yes;-5.733;2.011
MS;Quarterly Journal of Economics;125.4;2010;1859;Price;2;;no;other;6b;reg;1;2;yes;yes;-3.836;1.953
MS;Quarterly Journal of Economics;125.4;2010;1859;Price;2;;no;other;6b;iv_2;1;3;yes;yes;-6.185;2.245
MS;Quarterly Journal of Economics;125.4;2010;1859;Price;2;;no;other;6c;reg;1;1;yes;yes;-0.195;0.085
MS;Quarterly Journal of Economics;125.4;2010;1859;Price;2;;no;other;6c;reg;1;2;yes;yes;-0.160;0.084
MS;Quarterly Journal of Economics;125.4;2010;1859;Price;2;;no;other;6c;iv_2;1;3;yes;yes;-0.226;0.092
MS;Quarterly Journal of Economics;125.4;2010;1859;Price;2;;no;other;6c;reg;2;1;yes;yes;-0.045;0.028
MS;Quarterly Journal of Economics;125.4;2010;1859;Price;2;;no;other;6c;reg;2;2;yes;yes;-0.055;0.028
MS;Quarterly Journal of Economics;125.4;2010;1859;Price;2;;no;other;6c;iv_2;2;3;yes;yes;-0.052;0.028
MS;Quarterly Journal of Economics;125.4;2010;1627;Putterman;2;;no;other;2;reg;1;1;yes;yes;0.892;0.330
MS;Quarterly Journal of Economics;125.4;2010;1627;Putterman;2;;no;other;2;reg;1;3;yes;yes;-1.43;0.32
MS;Quarterly Journal of Economics;125.4;2010;1627;Putterman;2;;no;other;2;reg;2;2;yes;yes;2.01;0.38
MS;Quarterly Journal of Economics;125.4;2010;1627;Putterman;2;;no;other;2;reg;2;3;yes;yes;3.37;0.41
MS;Quarterly Journal of Economics;125.4;2010;1627;Putterman;2;;no;other;2;reg;3;4;yes;yes;0.134;0.035
MS;Quarterly Journal of Economics;125.4;2010;1627;Putterman;2;;no;other;2;reg;3;6;yes;yes;-0.198;0.044
MS;Quarterly Journal of Economics;125.4;2010;1627;Putterman;2;;no;other;2;reg;4;5;yes;yes;0.269;0.040
MS;Quarterly Journal of Economics;125.4;2010;1627;Putterman;2;;no;other;2;reg;4;6;yes;yes;0.461;0.054
MS;Quarterly Journal of Economics;125.4;2010;1627;Putterman;2;;no;other;3;reg;1;2;yes;no;2.76;0.46
MS;Quarterly Journal of Economics;125.4;2010;1627;Putterman;2;;no;other;3;reg;1;5;yes;no;2.09;0.38
MS;Quarterly Journal of Economics;125.4;2010;1627;Putterman;2;;no;other;3;reg;1;8;yes;no;1.48;0.32
MS;Quarterly Journal of Economics;125.4;2010;1627;Putterman;2;;no;other;3;reg;1;11;yes;no;2.11;0.38
MS;Quarterly Journal of Economics;125.4;2010;1627;Putterman;2;;no;other;3;reg;2;4;yes;no;0.400;0.050
MS;Quarterly Journal of Economics;125.4;2010;1627;Putterman;2;;no;other;3;reg;2;6;yes;no;0.270;0.041
MS;Quarterly Journal of Economics;125.4;2010;1627;Putterman;2;;no;other;3;reg;2;9;yes;no;0.152;0.035
MS;Quarterly Journal of Economics;125.4;2010;1627;Putterman;2;;no;other;3;reg;2;12;yes;no;0.256;0.043
MS;Quarterly Journal of Economics;125.4;2010;1627;Putterman;2;;no;other;3;reg;3;1;yes;no;1.27;0.32
MS;Quarterly Journal of Economics;125.4;2010;1627;Putterman;2;;no;other;3;reg;3;2;yes;no;-0.741;0.355
MS;Quarterly Journal of Economics;125.4;2010;1627;Putterman;2;;no;other;3;reg;4;3;yes;no;0.173;0.034
MS;Quarterly Journal of Economics;125.4;2010;1627;Putterman;2;;no;other;3;reg;4;4;yes;no;-0.133;0.040
MS;Quarterly Journal of Economics;125.4;2010;1627;Putterman;2;;no;other;3;reg;5;5;yes;no;-0.867;0.265
MS;Quarterly Journal of Economics;125.4;2010;1627;Putterman;2;;no;other;3;reg;5;6;yes;no;-0.744;0.270
MS;Quarterly Journal of Economics;125.4;2010;1627;Putterman;2;;no;other;3;reg;6;5;yes;no;-0.800;0.361
MS;Quarterly Journal of Economics;125.4;2010;1627;Putterman;2;;no;other;3;reg;6;6;yes;no;-0.583;0.358
MS;Quarterly Journal of Economics;125.4;2010;1627;Putterman;2;;no;other;3;reg;7;7;yes;no;1.82;0.16
MS;Quarterly Journal of Economics;125.4;2010;1627;Putterman;2;;no;other;3;reg;7;8;yes;no;1.63;0.16
MS;Quarterly Journal of Economics;125.4;2010;1627;Putterman;2;;no;other;3;reg;7;9;yes;no;1.58;0.17
MS;Quarterly Journal of Economics;125.4;2010;1627;Putterman;2;;no;other;3;reg;8;10;yes;no;1.31;0.21
MS;Quarterly Journal of Economics;125.4;2010;1627;Putterman;2;;no;other;3;reg;8;11;yes;no;1.04;0.18
MS;Quarterly Journal of Economics;125.4;2010;1627;Putterman;2;;no;other;3;reg;8;12;yes;no;1.06;0.19
MS;Quarterly Journal of Economics;125.4;2010;1627;Putterman;2;;no;other;4a;reg;1;1;yes;no;2.38;0.40
MS;Quarterly Journal of Economics;125.4;2010;1627;Putterman;2;;no;other;4a;reg;1;2;yes;no;1.32;0.43
MS;Quarterly Journal of Economics;125.4;2010;1627;Putterman;2;;no;other;4a;reg;1;3;yes;no;2.21;0.41
MS;Quarterly Journal of Economics;125.4;2010;1627;Putterman;2;;no;other;4a;reg;1;4;yes;no;1.75;0.55
MS;Quarterly Journal of Economics;125.4;2010;1627;Putterman;2;;no;other;4a;reg;1;5;yes;no;1.31;0.42
MS;Quarterly Journal of Economics;125.4;2010;1627;Putterman;2;;no;other;4a;reg;1;6;yes;no;1.24;0.42
MS;Quarterly Journal of Economics;125.4;2010;1627;Putterman;2;;no;other;4b;reg;1;1;yes;no;0.313;0.048
MS;Quarterly Journal of Economics;125.4;2010;1627;Putterman;2;;no;other;4b;reg;1;2;yes;no;0.172;0.053
MS;Quarterly Journal of Economics;125.4;2010;1627;Putterman;2;;no;other;4b;reg;1;3;yes;no;0.289;0.051
MS;Quarterly Journal of Economics;125.4;2010;1627;Putterman;2;;no;other;4b;reg;1;4;yes;no;0.219;0.062
MS;Quarterly Journal of Economics;125.4;2010;1627;Putterman;2;;no;other;4b;reg;1;5;yes;no;0.178;0.060
MS;Quarterly Journal of Economics;125.4;2010;1627;Putterman;2;;no;other;4b;reg;1;6;yes;no;0.153;0.054
MS;Quarterly Journal of Economics;125.4;2010;1627;Putterman;2;;no;other;5;reg;1;1;yes;no;0.752;0.075
MS;Quarterly Journal of Economics;125.4;2010;1627;Putterman;2;;no;other;5;reg;1;2;yes;no;0.952;0.069
MS;Quarterly Journal of Economics;125.4;2010;1627;Putterman;2;;no;other;5;reg;1;3;yes;no;0.746;0.081
MS;Quarterly Journal of Economics;125.4;2010;1627;Putterman;2;;no;other;5;reg;1;4;yes;no;0.947;0.074
MS;Quarterly Journal of Economics;125.4;2010;1627;Putterman;2;;no;other;5;reg;1;5;yes;no;0.0924;0.3758
MS;Quarterly Journal of Economics;125.4;2010;1627;Putterman;2;;no;other;5;reg;1;6;yes;no;2.51;0.59
MS;Quarterly Journal of Economics;125.4;2010;1627;Putterman;2;;no;other;5;reg;1;7;yes;no;1.55;0.30
MS;Quarterly Journal of Economics;125.4;2010;1627;Putterman;2;;no;other;5;reg;1;8;yes;no;3.26;0.30
MS;Quarterly Journal of Economics;125.4;2010;1627;Putterman;2;;no;other;6;reg;1;1;yes;no;0.158;0.274
MS;Quarterly Journal of Economics;125.4;2010;1627;Putterman;2;;no;other;6;reg;1;2;yes;no;0.670;0.309
MS;Quarterly Journal of Economics;125.4;2010;1627;Putterman;2;;no;other;6;reg;1;3;yes;no;0.658;0.287
MS;Quarterly Journal of Economics;125.4;2010;1627;Putterman;2;;no;other;6;reg;1;4;yes;no;1.33;0.33
MS;Quarterly Journal of Economics;125.4;2010;1627;Putterman;2;;no;other;6;reg;1;5;yes;no;0.445;0.271
MS;Quarterly Journal of Economics;125.4;2010;1627;Putterman;2;;no;other;6;reg;1;6;yes;no;1.32;0.30
MS;Quarterly Journal of Economics;125.4;2010;1627;Putterman;2;;no;other;6;reg;1;7;yes;no;0.872;0.350
MS;Quarterly Journal of Economics;125.4;2010;1627;Putterman;2;;no;other;6;reg;1;8;yes;no;1.40;0.39
MS;Quarterly Journal of Economics;125.4;2010;1627;Putterman;2;;no;other;6;reg;1;9;yes;no;-1.31;0.32
MS;Quarterly Journal of Economics;125.4;2010;1627;Putterman;2;;no;other;6;reg;1;10;yes;no;-0.063;0.434
MS;Quarterly Journal of Economics;125.4;2010;1627;Putterman;2;;no;other;6;reg;1;11;yes;no;-0.931;0.432
MS;Quarterly Journal of Economics;125.4;2010;1627;Putterman;2;;no;other;6;reg;1;12;yes;no;-0.403;0.561
MS;Quarterly Journal of Economics;125.4;2010;1627;Putterman;2;;no;other;6;reg;1;13;yes;no;-1.12;0.35
MS;Quarterly Journal of Economics;125.4;2010;1627;Putterman;2;;no;other;6;reg;1;14;yes;no;-1.64;0.444
MS;Quarterly Journal of Economics;125.4;2010;1627;Putterman;2;;no;other;6;reg;1;15;yes;no;0.911;0.382
MS;Quarterly Journal of Economics;125.4;2010;1627;Putterman;2;;no;other;6;reg;1;16;yes;no;0.822;0.478
MS;Quarterly Journal of Economics;125.4;2010;1627;Putterman;2;;no;other;7;reg;1;1;yes;no;33.7;5.6
MS;Quarterly Journal of Economics;125.4;2010;1627;Putterman;2;;no;other;7;reg;1;2;yes;no;3.03;0.16
MS;Quarterly Journal of Economics;125.4;2010;1627;Putterman;2;;no;other;7;reg;1;3;yes;no;-2273;384
MS;Quarterly Journal of Economics;125.4;2010;1627;Putterman;2;;no;other;7;reg;1;4;yes;no;74.8;12.4
MS;Quarterly Journal of Economics;125.4;2010;1627;Putterman;2;;no;other;7;reg;2;1;yes;no;0.380;0.495
MS;Quarterly Journal of Economics;125.4;2010;1627;Putterman;2;;no;other;7;reg;2;2;yes;no;1.10;0.24
MS;Quarterly Journal of Economics;125.4;2010;1627;Putterman;2;;no;other;7;reg;2;3;yes;no;1.90;1.25
MS;Quarterly Journal of Economics;125.4;2010;1627;Putterman;2;;no;other;7;reg;2;4;yes;no;-0.870;0.710
MS;Quarterly Journal of Economics;125.4;2010;1627;Putterman;2;;no;other;7;reg;3;1;yes;no;3.67;0.81
MS;Quarterly Journal of Economics;125.4;2010;1627;Putterman;2;;no;other;7;reg;3;2;yes;no;1.33;0.30
MS;Quarterly Journal of Economics;125.4;2010;1627;Putterman;2;;no;other;7;reg;3;3;yes;no;0.834;1.884
MS;Quarterly Journal of Economics;125.4;2010;1627;Putterman;2;;no;other;7;reg;3;4;yes;no;0.268;0.221
MS;Quarterly Journal of Economics;125.4;2010;1627;Putterman;2;;no;other;7;reg;4;1;yes;no;0.498;0.229
MS;Quarterly Journal of Economics;125.4;2010;1627;Putterman;2;;no;other;7;reg;4;2;yes;no;1.35;0.20
MS;Quarterly Journal of Economics;125.4;2010;1627;Putterman;2;;no;other;7;reg;4;3;yes;no;1.11;0.51
MS;Quarterly Journal of Economics;125.4;2010;1627;Putterman;2;;no;other;7;reg;4;4;yes;no;-0.415;0.419
MS;Quarterly Journal of Economics;125.4;2010;1627;Putterman;2;;no;other;7;reg;5;1;yes;no;2.35;0.16
MS;Quarterly Journal of Economics;125.4;2010;1627;Putterman;2;;no;other;7;reg;5;2;yes;no;2.23;0.18
MS;Quarterly Journal of Economics;125.4;2010;1627;Putterman;2;;no;other;7;reg;5;3;yes;no;2.66;0.47
MS;Quarterly Journal of Economics;125.4;2010;1627;Putterman;2;;no;other;7;reg;5;4;yes;no;-0.265;0.476
MS;Quarterly Journal of Economics;125.4;2010;1627;Putterman;2;;no;other;7;reg;6;1;yes;no;1.29;0.21
MS;Quarterly Journal of Economics;125.4;2010;1627;Putterman;2;;no;other;7;reg;6;2;yes;no;1.28;0.21
MS;Quarterly Journal of Economics;125.4;2010;1627;Putterman;2;;no;other;7;reg;6;3;yes;no;0.654;1.349
MS;Quarterly Journal of Economics;125.4;2010;1627;Putterman;2;;no;other;7;reg;6;4;yes;no;0.613;1.248
MS;Quarterly Journal of Economics;125.4;2010;1627;Putterman;2;;no;other;7;reg;7;1;yes;no;0.872;0.265
MS;Quarterly Journal of Economics;125.4;2010;1627;Putterman;2;;no;other;7;reg;7;2;yes;no;0.388;0.175
MS;Quarterly Journal of Economics;125.4;2010;1627;Putterman;2;;no;other;7;reg;7;3;yes;no;3.05;0.39
MS;Quarterly Journal of Economics;125.4;2010;1627;Putterman;2;;no;other;7;reg;7;4;yes;no;-2.53;0.39
MS;Quarterly Journal of Economics;125.4;2010;1627;Putterman;2;;no;other;7;reg;8;1;yes;no;2.15;0.54
MS;Quarterly Journal of Economics;125.4;2010;1627;Putterman;2;;no;other;7;reg;8;2;yes;no;1.81;0.56
MS;Quarterly Journal of Economics;125.4;2010;1627;Putterman;2;;no;other;7;reg;8;3;yes;no;4.77;0.57
MS;Quarterly Journal of Economics;125.4;2010;1627;Putterman;2;;no;other;7;reg;8;4;yes;no;-2.81;0.87
MS;Quarterly Journal of Economics;125.4;2010;1627;Putterman;2;;no;other;7;reg;9;1;yes;no;0.805;0.242
MS;Quarterly Journal of Economics;125.4;2010;1627;Putterman;2;;no;other;7;reg;9;2;yes;no;1.07;0.32
MS;Quarterly Journal of Economics;125.4;2010;1627;Putterman;2;;no;other;7;reg;9;3;yes;no;1.59;0.63
MS;Quarterly Journal of Economics;125.4;2010;1627;Putterman;2;;no;other;7;reg;9;4;yes;no;-0.913;0.500
MS;Quarterly Journal of Economics;125.4;2010;1627;Putterman;2;;no;other;7;reg;10;1;yes;no;8.09;2.10
MS;Quarterly Journal of Economics;125.4;2010;1627;Putterman;2;;no;other;7;reg;10;2;yes;no;2.72;0.17
MS;Quarterly Journal of Economics;125.4;2010;1627;Putterman;2;;no;other;7;reg;10;3;yes;no;-1.59;0.87
MS;Quarterly Journal of Economics;125.4;2010;1627;Putterman;2;;no;other;7;reg;10;4;yes;no;0.436;0.444
MS;Quarterly Journal of Economics;125.4;2010;1627;Putterman;2;;no;other;8;reg;1;1;yes;no;1.40;0.91
MS;Quarterly Journal of Economics;125.4;2010;1627;Putterman;2;;no;other;8;reg;1;2;yes;no;2.02;0.78
MS;Quarterly Journal of Economics;125.4;2010;1627;Putterman;2;;no;other;8;reg;1;3;yes;no;1.70;0.65
MS;Quarterly Journal of Economics;125.4;2010;1627;Putterman;2;;no;other;8;reg;2;2;yes;no;2.08;0.37
MS;Quarterly Journal of Economics;125.4;2010;1627;Putterman;2;;no;other;8;reg;2;3;yes;no;1.55;0.32
MS;Quarterly Journal of Economics;125.4;2010;1627;Putterman;2;;no;other;8;reg;3;4;yes;no;0.377;0.108
MS;Quarterly Journal of Economics;125.4;2010;1627;Putterman;2;;no;other;8;reg;3;5;yes;no;0.312;0.094
MS;Quarterly Journal of Economics;125.4;2010;1627;Putterman;2;;no;other;8;reg;3;6;yes;no;0.278;0.086
MS;Quarterly Journal of Economics;125.4;2010;1627;Putterman;2;;no;other;8;reg;4;5;yes;no;0.260;0.04
MS;Quarterly Journal of Economics;125.4;2010;1627;Putterman;2;;no;other;8;reg;4;6;yes;no;0.178;0.03
MS;Quarterly Journal of Economics;125.4;2010;1627;Putterman;2;;no;other;8;reg;5;7;yes;no;0.414;0.06
MS;Quarterly Journal of Economics;125.4;2010;1627;Putterman;2;;no;other;8;reg;5;8;yes;no;0.0844;0.0636
MS;Quarterly Journal of Economics;125.4;2010;1627;Putterman;2;;no;other;8;reg;5;9;yes;no;0.0846;0.0647
MS;Quarterly Journal of Economics;125.4;2010;1627;Putterman;2;;no;other;8;reg;6;8;yes;no;0.982;0.067
MS;Quarterly Journal of Economics;125.4;2010;1627;Putterman;2;;no;other;8;reg;6;9;yes;no;0.978;0.141
MS;Quarterly Journal of Economics;125.4;2010;1627;Putterman;2;;no;other;8;reg;7;3;yes;no;1.60;0.16
MS;Quarterly Journal of Economics;125.4;2010;1627;Putterman;2;;no;other;8;reg;7;6;yes;no;1.49;0.16
MS;Quarterly Journal of Economics;125.4;2010;1627;Putterman;2;;no;other;8;reg;7;9;yes;no;0.0116;0.2967
MS;Quarterly Journal of Economics;125.4;2010;1627;Putterman;2;;no;other;9;reg;1;1;yes;no;0.456;0.088
MS;Quarterly Journal of Economics;125.4;2010;1627;Putterman;2;;no;other;9;reg;1;2;yes;no;0.408;0.084
MS;Quarterly Journal of Economics;125.4;2010;1627;Putterman;2;;no;other;9;reg;2;2;yes;no;-0.148;0.036
MS;Quarterly Journal of Economics;125.4;2010;1627;Putterman;2;;no;other;9;reg;3;3;yes;no;0.0512;0.0121
MS;Quarterly Journal of Economics;125.4;2010;1627;Putterman;2;;no;other;9;reg;3;4;yes;no;0.0571;0.0108
MS;Quarterly Journal of Economics;125.4;2010;1627;Putterman;2;;no;other;9;reg;4;4;yes;no;-0.0217;0.0052
MS;Quarterly Journal of Economics;125.4;2010;1627;Putterman;2;;no;other;9;reg;5;5;yes;no;0.0207;0.0166
MS;Quarterly Journal of Economics;125.4;2010;1627;Putterman;2;;no;other;9;reg;6;6;yes;no;0.0453;0.0153
MS;Quarterly Journal of Economics;125.4;2010;1627;Putterman;2;;no;other;9;reg;7;6;yes;no;-0.0743;0.0089
MS;Quarterly Journal of Economics;125.4;2010;1627;Putterman;2;;no;other;10;reg;5;5;yes;no;0.392;0.085
MS;Quarterly Journal of Economics;125.4;2010;1627;Putterman;2;;no;other;10;reg;5;6;yes;no;0.435;0.124
MS;Quarterly Journal of Economics;125.4;2010;1627;Putterman;2;;no;other;10;reg;5;7;yes;no;0.401;0.086
MS;Quarterly Journal of Economics;125.4;2010;1627;Putterman;2;;no;other;10;reg;5;8;yes;no;0.310;0.167
MS;Quarterly Journal of Economics;125.4;2010;1627;Putterman;2;;no;other;10;reg;6;5;yes;no;-0.130;0.040
MS;Quarterly Journal of Economics;125.4;2010;1627;Putterman;2;;no;other;10;reg;6;6;yes;no;-0.148;0.037
MS;Quarterly Journal of Economics;125.4;2010;1627;Putterman;2;;no;other;10;reg;6;7;yes;no;-0.151;0.038
MS;Quarterly Journal of Economics;125.4;2010;1627;Putterman;2;;no;other;10;reg;6;8;yes;no;-0.149;0.036
