ra;journal_id;issue;year;article_page;first_author;num_authors;JEL;model;type;table_panel;type_emp;row;column;stars;main;coefficient;standard_deviation;standard_deviation_2;standard_deviation_3;T_stat;p_value
MS;Quarterly Journal of Economics;125.3;2010;1015;Aghion;4;;yes;other;1a;reg;1;1;yes;yes;1431;0.380;;;;
MS;Quarterly Journal of Economics;125.3;2010;1015;Aghion;4;;yes;other;1a;reg;1;2;yes;yes;1746;0.575;;;;
MS;Quarterly Journal of Economics;125.3;2010;1015;Aghion;4;;yes;other;1a;reg;1;3;yes;yes;1524;0.496;;;;
MS;Quarterly Journal of Economics;125.3;2010;1015;Aghion;4;;yes;other;1a;reg;1;4;yes;yes;0.157;0.067;;;;
MS;Quarterly Journal of Economics;125.3;2010;1015;Aghion;4;;yes;other;1b;reg;1;1;yes;yes;0.297;0.177;;;;
MS;Quarterly Journal of Economics;125.3;2010;1015;Aghion;4;;yes;other;1b;reg;1;2;yes;yes;0.958;0.207;;;;
MS;Quarterly Journal of Economics;125.3;2010;1015;Aghion;4;;yes;other;1b;reg;1;3;yes;yes;0.531;0.201;;;;
MS;Quarterly Journal of Economics;125.3;2010;1015;Aghion;4;;yes;other;1b;reg;1;4;yes;yes;0.062;0.028;;;;
MS;Quarterly Journal of Economics;125.3;2010;1015;Aghion;4;;yes;other;2;reg;1;1;yes;yes;0.100;0.030;;;;
MS;Quarterly Journal of Economics;125.3;2010;1015;Aghion;4;;yes;other;2;reg;1;2;yes;yes;0.079;0.023;;;;
MS;Quarterly Journal of Economics;125.3;2010;1015;Aghion;4;;yes;other;2;reg;1;3;yes;yes;0.392;0.049;;;;
MS;Quarterly Journal of Economics;125.3;2010;1015;Aghion;4;;yes;other;2;reg;2;1;yes;yes;0.159;0.039;;;;
MS;Quarterly Journal of Economics;125.3;2010;1015;Aghion;4;;yes;other;2;reg;2;2;yes;yes;0.026;0.040;;;;
MS;Quarterly Journal of Economics;125.3;2010;1015;Aghion;4;;yes;other;2;reg;2;3;yes;yes;0.198;0.057;;;;
MS;Quarterly Journal of Economics;125.3;2010;1015;Aghion;4;;yes;other;2;reg;3;1;yes;yes;0.130;0.017;;;;
MS;Quarterly Journal of Economics;125.3;2010;1015;Aghion;4;;yes;other;2;reg;3;2;yes;yes;0.073;0.014;;;;
MS;Quarterly Journal of Economics;125.3;2010;1015;Aghion;4;;yes;other;2;reg;3;3;yes;yes;0.027;0.013;;;;
MS;Quarterly Journal of Economics;125.3;2010;1015;Aghion;4;;yes;other;3;reg;1;1;yes;yes;0.040;0.012;;;;
MS;Quarterly Journal of Economics;125.3;2010;1015;Aghion;4;;yes;other;3;reg;2;2;yes;yes;0.032;0.015;;;;
MS;Quarterly Journal of Economics;125.3;2010;1015;Aghion;4;;yes;other;3;reg;3;3;yes;yes;0.057;0.016;;;;
MS;Quarterly Journal of Economics;125.3;2010;1015;Aghion;4;;yes;other;3;reg;4;4;yes;yes;0.078;0.014;;;;
MS;Quarterly Journal of Economics;125.3;2010;1015;Aghion;4;;yes;other;3;reg;5;1;yes;yes;-0.047;0.006;;;;
MS;Quarterly Journal of Economics;125.3;2010;1015;Aghion;4;;yes;other;3;reg;5;2;yes;yes;-0.048;0.007;;;;
MS;Quarterly Journal of Economics;125.3;2010;1015;Aghion;4;;yes;other;3;reg;5;3;yes;yes;-0.042;0.007;;;;
MS;Quarterly Journal of Economics;125.3;2010;1015;Aghion;4;;yes;other;3;reg;5;4;yes;yes;-0.040;0.008;;;;
MS;Quarterly Journal of Economics;125.3;2010;1015;Aghion;4;;yes;other;3;reg;6;1;yes;yes;0.016;0.031;;;;
MS;Quarterly Journal of Economics;125.3;2010;1015;Aghion;4;;yes;other;3;reg;6;2;yes;yes;0.014;0.008;;;;
MS;Quarterly Journal of Economics;125.3;2010;1015;Aghion;4;;yes;other;3;reg;6;3;yes;yes;0.010;0.007;;;;
MS;Quarterly Journal of Economics;125.3;2010;1015;Aghion;4;;yes;other;3;reg;6;4;yes;yes;0.013;0.007;;;;
MS;Quarterly Journal of Economics;125.3;2010;1015;Aghion;4;;yes;other;4;reg;1;1;yes;yes;-0.011;0.014;;;;
MS;Quarterly Journal of Economics;125.3;2010;1015;Aghion;4;;yes;other;4;reg;1;2;yes;yes;0.077;0.023;;;;
MS;Quarterly Journal of Economics;125.3;2010;1015;Aghion;4;;yes;other;4;reg;2;1;yes;yes;0.299;0.079;;;;
MS;Quarterly Journal of Economics;125.3;2010;1015;Aghion;4;;yes;other;4;reg;2;2;yes;yes;0.493;0.030;;;;
MS;Quarterly Journal of Economics;125.3;2010;1015;Aghion;4;;yes;other;4;reg;3;1;yes;yes;0.240;0.122;;;;
MS;Quarterly Journal of Economics;125.3;2010;1015;Aghion;4;;yes;other;4;reg;3;2;yes;yes;0.465;0.257;;;;
MS;Quarterly Journal of Economics;125.3;2010;1015;Aghion;4;;yes;other;4;reg;4;1;yes;yes;0.038;0.025;;;;
MS;Quarterly Journal of Economics;125.3;2010;1015;Aghion;4;;yes;other;4;reg;4;2;yes;yes;0.025;0.032;;;;
MS;Quarterly Journal of Economics;125.3;2010;1015;Aghion;4;;yes;other;4;reg;5;1;yes;yes;-0.034;0.016;;;;
MS;Quarterly Journal of Economics;125.3;2010;1015;Aghion;4;;yes;other;4;reg;5;2;yes;yes;0.125;0.038;;;;
MS;Quarterly Journal of Economics;125.3;2010;1015;Aghion;4;;yes;other;4;reg;6;1;yes;yes;0.037;0.024;;;;
MS;Quarterly Journal of Economics;125.3;2010;1015;Aghion;4;;yes;other;4;reg;6;2;yes;yes;0.079;0.076;;;;
MS;Quarterly Journal of Economics;125.3;2010;1015;Aghion;4;;yes;other;5;reg;1;1;yes;yes;-0.697;0.271;;;;
MS;Quarterly Journal of Economics;125.3;2010;1015;Aghion;4;;yes;other;5;reg;1;3;yes;yes;-2.14;0.780;;;;
MS;Quarterly Journal of Economics;125.3;2010;1015;Aghion;4;;yes;other;5;reg;2;2;yes;yes;-0.207;0.162;;;;
MS;Quarterly Journal of Economics;125.3;2010;1015;Aghion;4;;yes;other;5;reg;2;4;yes;yes;-0.181;0.481;;;;
MS;Quarterly Journal of Economics;125.3;2010;1015;Aghion;4;;yes;other;6;reg;1;1;yes;yes;0.042;0.017;;;;
MS;Quarterly Journal of Economics;125.3;2010;1015;Aghion;4;;yes;other;6;reg;1;2;yes;yes;0.026;0.010;;;;
MS;Quarterly Journal of Economics;125.3;2010;1015;Aghion;4;;yes;other;6;reg;2;1;yes;yes;-0.032;0.021;;;;
MS;Quarterly Journal of Economics;125.3;2010;1015;Aghion;4;;yes;other;6;reg;2;2;yes;yes;-0.048;0.014;;;;
MS;Quarterly Journal of Economics;125.3;2010;1015;Aghion;4;;yes;other;7;reg;1;1;yes;yes;-0.060;0.026;;;;
MS;Quarterly Journal of Economics;125.3;2010;1015;Aghion;4;;yes;other;7;reg;1;2;yes;yes;0.073;0.036;;;;
MS;Quarterly Journal of Economics;125.3;2010;1015;Aghion;4;;yes;other;7;reg;1;3;yes;yes;0.062;0.030;;;;
MS;Quarterly Journal of Economics;125.3;2010;1015;Aghion;4;;yes;other;7;reg;1;4;yes;yes;-0.676;0.455;;;;
MS;Quarterly Journal of Economics;125.3;2010;1015;Aghion;4;;yes;other;7;reg;2;1;yes;yes;-0.017;0.017;;;;
MS;Quarterly Journal of Economics;125.3;2010;1015;Aghion;4;;yes;other;7;reg;2;2;yes;yes;0.057;0.023;;;;
MS;Quarterly Journal of Economics;125.3;2010;1015;Aghion;4;;yes;other;7;reg;2;3;yes;yes;0.048;0.021;;;;
MS;Quarterly Journal of Economics;125.3;2010;1015;Aghion;4;;yes;other;7;reg;2;4;yes;yes;-0.481;0.298;;;;
MS;Quarterly Journal of Economics;125.3;2010;1015;Aghion;4;;yes;other;7;reg;3;1;yes;yes;-0.014;0.023;;;;
MS;Quarterly Journal of Economics;125.3;2010;1015;Aghion;4;;yes;other;7;reg;3;2;yes;yes;0.022;0.017;;;;
MS;Quarterly Journal of Economics;125.3;2010;1015;Aghion;4;;yes;other;7;reg;3;3;yes;yes;0.048;0.019;;;;
MS;Quarterly Journal of Economics;125.3;2010;1015;Aghion;4;;yes;other;7;reg;3;4;yes;yes;-0.559;0.178;;;;
MS;Quarterly Journal of Economics;125.3;2010;1015;Aghion;4;;yes;other;7;reg;4;1;yes;yes;-0.007;0.015;;;;
MS;Quarterly Journal of Economics;125.3;2010;1015;Aghion;4;;yes;other;7;reg;4;2;yes;yes;-0.023;0.018;;;;
MS;Quarterly Journal of Economics;125.3;2010;1015;Aghion;4;;yes;other;7;reg;4;3;yes;yes;-0.042;0.022;;;;
MS;Quarterly Journal of Economics;125.3;2010;1015;Aghion;4;;yes;other;7;reg;4;4;yes;yes;0.204;0.135;;;;
MS;Quarterly Journal of Economics;125.3;2010;1015;Aghion;4;;yes;other;7;reg;5;1;yes;yes;-0.022;0.009;;;;
MS;Quarterly Journal of Economics;125.3;2010;1015;Aghion;4;;yes;other;7;reg;5;2;yes;yes;-0.008;0.013;;;;
MS;Quarterly Journal of Economics;125.3;2010;1015;Aghion;4;;yes;other;7;reg;5;3;yes;yes;-0.018;0.016;;;;
MS;Quarterly Journal of Economics;125.3;2010;1015;Aghion;4;;yes;other;7;reg;5;4;yes;yes;0.093;0.145;;;;
MS;Quarterly Journal of Economics;125.3;2010;1015;Aghion;4;;yes;other;7;reg;6;1;yes;yes;-0.010;0.009;;;;
MS;Quarterly Journal of Economics;125.3;2010;1015;Aghion;4;;yes;other;7;reg;6;2;yes;yes;-0.003;0.014;;;;
MS;Quarterly Journal of Economics;125.3;2010;1015;Aghion;4;;yes;other;7;reg;6;3;yes;yes;-0.011;0.014;;;;
MS;Quarterly Journal of Economics;125.3;2010;1015;Aghion;4;;yes;other;7;reg;6;4;yes;yes;0.221;0.149;;;;
MS;Quarterly Journal of Economics;125.3;2010;1015;Aghion;4;;yes;other;7;reg;7;1;yes;yes;0.046;0.037;;;;
MS;Quarterly Journal of Economics;125.3;2010;1015;Aghion;4;;yes;other;7;reg;7;2;yes;yes;0.012;0.031;;;;
MS;Quarterly Journal of Economics;125.3;2010;1015;Aghion;4;;yes;other;7;reg;7;3;yes;yes;-0.024;0.036;;;;
MS;Quarterly Journal of Economics;125.3;2010;1015;Aghion;4;;yes;other;7;reg;7;4;yes;yes;-0.872;0.218;;;;
MS;Quarterly Journal of Economics;125.3;2010;1015;Aghion;4;;yes;other;7;reg;8;1;yes;yes;0.006;0.023;;;;
MS;Quarterly Journal of Economics;125.3;2010;1015;Aghion;4;;yes;other;7;reg;8;2;yes;yes;0.007;0.032;;;;
MS;Quarterly Journal of Economics;125.3;2010;1015;Aghion;4;;yes;other;7;reg;8;3;yes;yes;-0.003;0.023;;;;
MS;Quarterly Journal of Economics;125.3;2010;1015;Aghion;4;;yes;other;7;reg;8;4;yes;yes;-0.738;0.218;;;;
MS;Quarterly Journal of Economics;125.3;2010;1015;Aghion;4;;yes;other;7;reg;9;1;yes;yes;0.008;0.019;;;;
MS;Quarterly Journal of Economics;125.3;2010;1015;Aghion;4;;yes;other;7;reg;9;2;yes;yes;0.015;0.019;;;;
MS;Quarterly Journal of Economics;125.3;2010;1015;Aghion;4;;yes;other;7;reg;9;3;yes;yes;-0.025;0.017;;;;
MS;Quarterly Journal of Economics;125.3;2010;1015;Aghion;4;;yes;other;7;reg;9;4;yes;yes;-0.008;0.141;;;;
MS;Quarterly Journal of Economics;125.3;2010;1015;Aghion;4;;yes;other;7;reg;10;1;yes;yes;0.018;0.019;;;;
MS;Quarterly Journal of Economics;125.3;2010;1015;Aghion;4;;yes;other;7;reg;10;2;yes;yes;0.228;0.017;;;;
MS;Quarterly Journal of Economics;125.3;2010;1015;Aghion;4;;yes;other;7;reg;10;3;yes;yes;0.049;0.028;;;;
MS;Quarterly Journal of Economics;125.3;2010;1015;Aghion;4;;yes;other;7;reg;10;4;yes;yes;0.264;0.098;;;;
MS;Quarterly Journal of Economics;125.3;2010;1015;Aghion;4;;yes;other;7;reg;11;1;yes;yes;0.045;0.012;;;;
MS;Quarterly Journal of Economics;125.3;2010;1015;Aghion;4;;yes;other;7;reg;11;2;yes;yes;0.115;0.015;;;;
MS;Quarterly Journal of Economics;125.3;2010;1015;Aghion;4;;yes;other;7;reg;11;3;yes;yes;0.012;0.020;;;;
MS;Quarterly Journal of Economics;125.3;2010;1015;Aghion;4;;yes;other;7;reg;11;4;yes;yes;0.244;0.088;;;;
MS;Quarterly Journal of Economics;125.3;2010;1015;Aghion;4;;yes;other;7;reg;12;1;yes;yes;0.024;0.010;;;;
MS;Quarterly Journal of Economics;125.3;2010;1015;Aghion;4;;yes;other;7;reg;12;2;yes;yes;0.044;0.009;;;;
MS;Quarterly Journal of Economics;125.3;2010;1015;Aghion;4;;yes;other;7;reg;12;3;yes;yes;-0.003;0.013;;;;
MS;Quarterly Journal of Economics;125.3;2010;1015;Aghion;4;;yes;other;7;reg;12;4;yes;yes;0.108;0.082;;;;
MS;Quarterly Journal of Economics;125.3;2010;1015;Aghion;4;;yes;other;7;reg;13;1;yes;yes;0.055;0.017;;;;
MS;Quarterly Journal of Economics;125.3;2010;1015;Aghion;4;;yes;other;7;reg;13;2;yes;yes;-0.006;0.017;;;;
MS;Quarterly Journal of Economics;125.3;2010;1015;Aghion;4;;yes;other;7;reg;13;3;yes;yes;0.053;0.031;;;;
MS;Quarterly Journal of Economics;125.3;2010;1015;Aghion;4;;yes;other;7;reg;13;4;yes;yes;0.127;0.190;;;;
MS;Quarterly Journal of Economics;125.3;2010;1015;Aghion;4;;yes;other;7;reg;14;1;yes;yes;0.013;0.023;;;;
MS;Quarterly Journal of Economics;125.3;2010;1015;Aghion;4;;yes;other;7;reg;14;2;yes;yes;0.043;0.023;;;;
MS;Quarterly Journal of Economics;125.3;2010;1015;Aghion;4;;yes;other;7;reg;14;3;yes;yes;-0.011;0.040;;;;
MS;Quarterly Journal of Economics;125.3;2010;1015;Aghion;4;;yes;other;7;reg;14;4;yes;yes;0.849;0.240;;;;
MS;Quarterly Journal of Economics;125.3;2010;1349;Ambrus;3;;yes;other;2;reg;1;1;yes;yes;114815.22;30035.36;;;;
MS;Quarterly Journal of Economics;125.3;2010;1349;Ambrus;3;;yes;other;2;reg;1;2;yes;yes;18195.30;8940.67;;;;
MS;Quarterly Journal of Economics;125.3;2010;1349;Ambrus;3;;yes;other;2;reg;1;3;yes;yes;17292.14;8580.88;;;;
MS;Quarterly Journal of Economics;125.3;2010;1349;Ambrus;3;;yes;other;2;reg;1;4;yes;yes;123852.041;50095.613;;;;
MS;Quarterly Journal of Economics;125.3;2010;1349;Ambrus;3;;yes;other;2;reg;1;5;yes;yes;0.115;0.109;;;;
MS;Quarterly Journal of Economics;125.3;2010;1349;Ambrus;3;;yes;other;2;reg;1;6;yes;yes;27707.053;11846.15;;;;
MS;Quarterly Journal of Economics;125.3;2010;1349;Ambrus;3;;yes;other;2;reg;2;1;yes;yes;-85567.57;21761.93;;;;
MS;Quarterly Journal of Economics;125.3;2010;1349;Ambrus;3;;yes;other;2;reg;2;2;yes;yes;-14832.58;8005.37;;;;
MS;Quarterly Journal of Economics;125.3;2010;1349;Ambrus;3;;yes;other;2;reg;2;3;yes;yes;-10001.58;7097.00;;;;
MS;Quarterly Journal of Economics;125.3;2010;1349;Ambrus;3;;yes;other;2;reg;2;4;yes;yes;-100898.032;37267.146;;;;
MS;Quarterly Journal of Economics;125.3;2010;1349;Ambrus;3;;yes;other;2;reg;2;5;yes;yes;-0.168;0.083;;;;
MS;Quarterly Journal of Economics;125.3;2010;1349;Ambrus;3;;yes;other;2;reg;2;6;yes;yes;-27795.61;9925.360;;;;
MS;Quarterly Journal of Economics;125.3;2010;1349;Ambrus;3;;yes;other;2;reg;3;1;yes;yes;12435.01;7470.96;;;;
MS;Quarterly Journal of Economics;125.3;2010;1349;Ambrus;3;;yes;other;2;reg;3;2;yes;yes;5790.54;4009.75;;;;
MS;Quarterly Journal of Economics;125.3;2010;1349;Ambrus;3;;yes;other;2;reg;3;3;yes;yes;7674.07;3322.41;;;;
MS;Quarterly Journal of Economics;125.3;2010;1349;Ambrus;3;;yes;other;2;reg;3;4;yes;yes;4861.525;8770.851;;;;
MS;Quarterly Journal of Economics;125.3;2010;1349;Ambrus;3;;yes;other;2;reg;3;5;yes;yes;-0.061;0.090;;;;
MS;Quarterly Journal of Economics;125.3;2010;1349;Ambrus;3;;yes;other;2;reg;3;6;yes;yes;1515.933;5675.216;;;;
MS;Quarterly Journal of Economics;125.3;2010;1349;Ambrus;3;;yes;other;2;reg;4;1;yes;yes;42653.02;34998.87;;;;
MS;Quarterly Journal of Economics;125.3;2010;1349;Ambrus;3;;yes;other;2;reg;4;2;yes;yes;13881.31;9502.40;;;;
MS;Quarterly Journal of Economics;125.3;2010;1349;Ambrus;3;;yes;other;2;reg;4;3;yes;yes;15721.96;9131.76;;;;
MS;Quarterly Journal of Economics;125.3;2010;1349;Ambrus;3;;yes;other;2;reg;4;4;yes;yes;55404.731;44518.686;;;;
MS;Quarterly Journal of Economics;125.3;2010;1349;Ambrus;3;;yes;other;2;reg;4;5;yes;yes;-0.08;0.078;;;;
MS;Quarterly Journal of Economics;125.3;2010;1349;Ambrus;3;;yes;other;2;reg;4;6;yes;yes;11934.828;16916.384;;;;
MS;Quarterly Journal of Economics;125.3;2010;1349;Ambrus;3;;yes;other;2;reg;5;4;yes;yes;-12491.372;73069.779;;;;
MS;Quarterly Journal of Economics;125.3;2010;1349;Ambrus;3;;yes;other;2;reg;5;5;yes;yes;-0.176;0.077;;;;
MS;Quarterly Journal of Economics;125.3;2010;1349;Ambrus;3;;yes;other;2;reg;5;6;yes;yes;-22906.98;8224.494;;;;
MS;Quarterly Journal of Economics;125.3;2010;1349;Ambrus;3;;yes;other;2;reg;6;4;yes;yes;40348.004;46457.238;;;;
MS;Quarterly Journal of Economics;125.3;2010;1349;Ambrus;3;;yes;other;2;reg;6;5;yes;yes;0.253;0.077;;;;
MS;Quarterly Journal of Economics;125.3;2010;1349;Ambrus;3;;yes;other;2;reg;6;6;yes;yes;29244.494;10210.650;;;;
MS;Quarterly Journal of Economics;125.3;2010;1349;Ambrus;3;;yes;other;2;reg;7;4;yes;yes;6997.257;7564.468;;;;
MS;Quarterly Journal of Economics;125.3;2010;1349;Ambrus;3;;yes;other;2;reg;7;5;yes;yes;0.112;0.050;;;;
MS;Quarterly Journal of Economics;125.3;2010;1349;Ambrus;3;;yes;other;2;reg;7;6;yes;yes;4930.57;2510.014;;;;
MS;Quarterly Journal of Economics;125.3;2010;1349;Ambrus;3;;yes;other;2;reg;8;4;yes;yes;-31484.65;27813.782;;;;
MS;Quarterly Journal of Economics;125.3;2010;1349;Ambrus;3;;yes;other;2;reg;8;5;yes;yes;0.033;0.064;;;;
MS;Quarterly Journal of Economics;125.3;2010;1349;Ambrus;3;;yes;other;2;reg;8;6;yes;yes;-85.717;13272.222;;;;
MS;Quarterly Journal of Economics;125.3;2010;1349;Ambrus;3;;yes;other;2;reg;9;4;yes;yes;-89252.901;54203.525;;;;
MS;Quarterly Journal of Economics;125.3;2010;1349;Ambrus;3;;yes;other;2;reg;9;5;yes;yes;-0.269;0.075;;;;
MS;Quarterly Journal of Economics;125.3;2010;1349;Ambrus;3;;yes;other;2;reg;9;6;yes;yes;-27738.54;10648.248;;;;
MS;Quarterly Journal of Economics;125.3;2010;1349;Ambrus;3;;yes;other;3;reg;1;3;yes;no;0.000;0.000;;;;
MS;Quarterly Journal of Economics;125.3;2010;1349;Ambrus;3;;yes;other;3;reg;1;4;yes;no;0.125;0.134;;;;
MS;Quarterly Journal of Economics;125.3;2010;1349;Ambrus;3;;yes;other;3;reg;1;5;yes;no;1.774;1.348;;;;
MS;Quarterly Journal of Economics;125.3;2010;1349;Ambrus;3;;yes;other;3;reg;1;6;yes;no;-0.152;1.367;;;;
MS;Quarterly Journal of Economics;125.3;2010;1349;Ambrus;3;;yes;other;3;reg;1;7;yes;no;-0.152;1.367;;;;
MS;Quarterly Journal of Economics;125.3;2010;1349;Ambrus;3;;yes;other;3;reg;2;3;yes;no;-7961.97;8703.63;;;;
MS;Quarterly Journal of Economics;125.3;2010;1349;Ambrus;3;;yes;other;3;reg;2;4;yes;no;-0.148;0.114;;;;
MS;Quarterly Journal of Economics;125.3;2010;1349;Ambrus;3;;yes;other;3;reg;2;5;yes;no;-0.584;0.577;;;;
MS;Quarterly Journal of Economics;125.3;2010;1349;Ambrus;3;;yes;other;3;reg;2;6;yes;no;0.576;0.854;;;;
MS;Quarterly Journal of Economics;125.3;2010;1349;Ambrus;3;;yes;other;3;reg;2;7;yes;no;0.576;0.854;;;;
MS;Quarterly Journal of Economics;125.3;2010;1349;Ambrus;3;;yes;other;3;reg;3;3;yes;no;-8131.21;5719.55;;;;
MS;Quarterly Journal of Economics;125.3;2010;1349;Ambrus;3;;yes;other;3;reg;3;4;yes;no;0.029;0.053;;;;
MS;Quarterly Journal of Economics;125.3;2010;1349;Ambrus;3;;yes;other;3;reg;3;5;yes;no;-0.143;0.333;;;;
MS;Quarterly Journal of Economics;125.3;2010;1349;Ambrus;3;;yes;other;3;reg;3;6;yes;no;-0.022;0.487;;;;
MS;Quarterly Journal of Economics;125.3;2010;1349;Ambrus;3;;yes;other;3;reg;3;7;yes;no;-0.022;0.487;;;;
MS;Quarterly Journal of Economics;125.3;2010;1349;Ambrus;3;;yes;other;3;reg;4;3;yes;no;-14483.58;10681.55;;;;
MS;Quarterly Journal of Economics;125.3;2010;1349;Ambrus;3;;yes;other;3;reg;4;4;yes;no;0.096;0.063;;;;
MS;Quarterly Journal of Economics;125.3;2010;1349;Ambrus;3;;yes;other;3;reg;4;5;yes;no;0.15;0.330;;;;
MS;Quarterly Journal of Economics;125.3;2010;1349;Ambrus;3;;yes;other;3;reg;4;6;yes;no;-0.543;0.537;;;;
MS;Quarterly Journal of Economics;125.3;2010;1349;Ambrus;3;;yes;other;3;reg;4;7;yes;no;-0.543;0.537;;;;
MS;Quarterly Journal of Economics;125.3;2010;1349;Ambrus;3;;yes;other;3;reg;5;1;yes;no;-16388.893;76883.015;;;;
MS;Quarterly Journal of Economics;125.3;2010;1349;Ambrus;3;;yes;other;3;reg;5;2;yes;no;22450.259;7416.775;;;;
MS;Quarterly Journal of Economics;125.3;2010;1349;Ambrus;3;;yes;other;3;reg;6;1;yes;no;-71641.402;27533.416;;;;
MS;Quarterly Journal of Economics;125.3;2010;1349;Ambrus;3;;yes;other;3;reg;6;2;yes;no;-20499.102;10682.303;;;;
MS;Quarterly Journal of Economics;125.3;2010;1349;Ambrus;3;;yes;other;3;reg;7;1;yes;no;29674.035;15486.999;;;;
MS;Quarterly Journal of Economics;125.3;2010;1349;Ambrus;3;;yes;other;3;reg;7;2;yes;no;2634.12;4145.845;;;;
MS;Quarterly Journal of Economics;125.3;2010;1349;Ambrus;3;;yes;other;3;reg;8;1;yes;no;4696.425;9126.677;;;;
MS;Quarterly Journal of Economics;125.3;2010;1349;Ambrus;3;;yes;other;3;reg;8;2;yes;no;-4254.841;5920.679;;;;
MS;Quarterly Journal of Economics;125.3;2010;1101;Carrell;3;;no;other;4;reg;1;1;yes;yes;-0.050;0.028;;;;
MS;Quarterly Journal of Economics;125.3;2010;1101;Carrell;3;;no;other;4;reg;1;2;yes;yes;-0.043;0.020;;;;
MS;Quarterly Journal of Economics;125.3;2010;1101;Carrell;3;;no;other;4;reg;1;3;yes;yes;-0.050;0.029;;;;
MS;Quarterly Journal of Economics;125.3;2010;1101;Carrell;3;;no;other;4;reg;1;4;yes;yes;-0.051;0.022;;;;
MS;Quarterly Journal of Economics;125.3;2010;1101;Carrell;3;;no;other;4;reg;1;5;yes;yes;-0.052;0.033;;;;
MS;Quarterly Journal of Economics;125.3;2010;1101;Carrell;3;;no;other;4;reg;1;6;yes;yes;-0.055;0.047;;;;
MS;Quarterly Journal of Economics;125.3;2010;1101;Carrell;3;;no;other;4;reg;1;7;yes;yes;-0.028;0.036;;;;
MS;Quarterly Journal of Economics;125.3;2010;1101;Carrell;3;;no;other;4;reg;1;8;yes;yes;-0.029;0.057;;;;
MS;Quarterly Journal of Economics;125.3;2010;1101;Carrell;3;;no;other;4;reg;2;1;yes;yes;-0.149;0.021;;;;
MS;Quarterly Journal of Economics;125.3;2010;1101;Carrell;3;;no;other;4;reg;2;3;yes;yes;-0.147;0.026;;;;
MS;Quarterly Journal of Economics;125.3;2010;1101;Carrell;3;;no;other;4;reg;2;5;yes;yes;-0.153;0.032;;;;
MS;Quarterly Journal of Economics;125.3;2010;1101;Carrell;3;;no;other;4;reg;2;7;yes;yes;-0.162;0.043;;;;
MS;Quarterly Journal of Economics;125.3;2010;1101;Carrell;3;;no;other;4;reg;3;1;yes;yes;0.097;0.044;;;;
MS;Quarterly Journal of Economics;125.3;2010;1101;Carrell;3;;no;other;4;reg;3;2;yes;yes;0.139;0.034;;;;
MS;Quarterly Journal of Economics;125.3;2010;1101;Carrell;3;;no;other;4;reg;3;3;yes;yes;0.086;0.046;;;;
MS;Quarterly Journal of Economics;125.3;2010;1101;Carrell;3;;no;other;4;reg;3;4;yes;yes;0.156;0.036;;;;
MS;Quarterly Journal of Economics;125.3;2010;1101;Carrell;3;;no;other;4;reg;3;5;yes;yes;0.115;0.074;;;;
MS;Quarterly Journal of Economics;125.3;2010;1101;Carrell;3;;no;other;4;reg;3;6;yes;yes;0.080;0.058;;;;
MS;Quarterly Journal of Economics;125.3;2010;1101;Carrell;3;;no;other;4;reg;3;7;yes;yes;0.172;0.079;;;;
MS;Quarterly Journal of Economics;125.3;2010;1101;Carrell;3;;no;other;4;reg;3;8;yes;yes;0.170;0.068;;;;
MS;Quarterly Journal of Economics;125.3;2010;1101;Carrell;3;;no;other;5a;reg;1;1;yes;yes;-0.048;0.027;;;;
MS;Quarterly Journal of Economics;125.3;2010;1101;Carrell;3;;no;other;5a;reg;1;2;yes;yes;0.008;0.015;;;;
MS;Quarterly Journal of Economics;125.3;2010;1101;Carrell;3;;no;other;5a;reg;1;3;yes;yes;0.001;0.019;;;;
MS;Quarterly Journal of Economics;125.3;2010;1101;Carrell;3;;no;other;5a;reg;1;4;yes;yes;0.022;0.019;;;;
MS;Quarterly Journal of Economics;125.3;2010;1101;Carrell;3;;no;other;5a;reg;1;5;yes;yes;0.010;0.019;;;;
MS;Quarterly Journal of Economics;125.3;2010;1101;Carrell;3;;no;other;5a;reg;2;1;yes;yes;-0.046;0.022;;;;
MS;Quarterly Journal of Economics;125.3;2010;1101;Carrell;3;;no;other;5a;reg;2;2;yes;yes;-0.000;0.013;;;;
MS;Quarterly Journal of Economics;125.3;2010;1101;Carrell;3;;no;other;5a;reg;2;3;yes;yes;-0.140;0.017;;;;
MS;Quarterly Journal of Economics;125.3;2010;1101;Carrell;3;;no;other;5a;reg;2;4;yes;yes;-0.032;0.017;;;;
MS;Quarterly Journal of Economics;125.3;2010;1101;Carrell;3;;no;other;5a;reg;2;5;yes;yes;-0.136;0.016;;;;
MS;Quarterly Journal of Economics;125.3;2010;1101;Carrell;3;;no;other;5a;reg;3;1;yes;yes;0.032;0.062;;;;
MS;Quarterly Journal of Economics;125.3;2010;1101;Carrell;3;;no;other;5a;reg;3;2;yes;yes;-0.049;0.036;;;;
MS;Quarterly Journal of Economics;125.3;2010;1101;Carrell;3;;no;other;5a;reg;3;3;yes;yes;0.078;0.045;;;;
MS;Quarterly Journal of Economics;125.3;2010;1101;Carrell;3;;no;other;5a;reg;3;4;yes;yes;0.030;0.047;;;;
MS;Quarterly Journal of Economics;125.3;2010;1101;Carrell;3;;no;other;5a;reg;3;5;yes;yes;0.032;0.046;;;;
MS;Quarterly Journal of Economics;125.3;2010;1101;Carrell;3;;no;other;5b;reg;1;1;yes;yes;-0.001;0.041;;;;
MS;Quarterly Journal of Economics;125.3;2010;1101;Carrell;3;;no;other;5b;reg;1;2;yes;yes;0.024;0.024;;;;
MS;Quarterly Journal of Economics;125.3;2010;1101;Carrell;3;;no;other;5b;reg;1;3;yes;yes;0.050;0.028;;;;
MS;Quarterly Journal of Economics;125.3;2010;1101;Carrell;3;;no;other;5b;reg;1;4;yes;yes;0.053;0.029;;;;
MS;Quarterly Journal of Economics;125.3;2010;1101;Carrell;3;;no;other;5b;reg;1;5;yes;yes;0.064;0.027;;;;
MS;Quarterly Journal of Economics;125.3;2010;1101;Carrell;3;;no;other;5b;reg;2;1;yes;yes;-0.034;0.030;;;;
MS;Quarterly Journal of Economics;125.3;2010;1101;Carrell;3;;no;other;5b;reg;2;2;yes;yes;-0.005;0.019;;;;
MS;Quarterly Journal of Economics;125.3;2010;1101;Carrell;3;;no;other;5b;reg;2;3;yes;yes;-0.118;0.022;;;;
MS;Quarterly Journal of Economics;125.3;2010;1101;Carrell;3;;no;other;5b;reg;2;4;yes;yes;-0.010;0.023;;;;
MS;Quarterly Journal of Economics;125.3;2010;1101;Carrell;3;;no;other;5b;reg;2;5;yes;yes;-0.099;0.021;;;;
MS;Quarterly Journal of Economics;125.3;2010;1101;Carrell;3;;no;other;5b;reg;3;1;yes;yes;-0.070;0.089;;;;
MS;Quarterly Journal of Economics;125.3;2010;1101;Carrell;3;;no;other;5b;reg;3;2;yes;yes;-0.025;0.053;;;;
MS;Quarterly Journal of Economics;125.3;2010;1101;Carrell;3;;no;other;5b;reg;3;3;yes;yes;0.019;0.063;;;;
MS;Quarterly Journal of Economics;125.3;2010;1101;Carrell;3;;no;other;5b;reg;3;4;yes;yes;-0.071;0.065;;;;
MS;Quarterly Journal of Economics;125.3;2010;1101;Carrell;3;;no;other;5b;reg;3;5;yes;yes;-0.086;0.060;;;;
MS;Quarterly Journal of Economics;125.3;2010;1101;Carrell;3;;no;other;5c;reg;1;1;yes;yes;-0.080;0.033;;;;
MS;Quarterly Journal of Economics;125.3;2010;1101;Carrell;3;;no;other;5c;reg;1;2;yes;yes;0.002;0.019;;;;
MS;Quarterly Journal of Economics;125.3;2010;1101;Carrell;3;;no;other;5c;reg;1;3;yes;yes;-0.030;0.025;;;;
MS;Quarterly Journal of Economics;125.3;2010;1101;Carrell;3;;no;other;5c;reg;1;4;yes;yes;0.003;0.026;;;;
MS;Quarterly Journal of Economics;125.3;2010;1101;Carrell;3;;no;other;5c;reg;1;5;yes;yes;-0.028;0.026;;;;
MS;Quarterly Journal of Economics;125.3;2010;1101;Carrell;3;;no;other;5c;reg;2;1;yes;yes;-0.065;0.032;;;;
MS;Quarterly Journal of Economics;125.3;2010;1101;Carrell;3;;no;other;5c;reg;2;2;yes;yes;0.006;0.019;;;;
MS;Quarterly Journal of Economics;125.3;2010;1101;Carrell;3;;no;other;5c;reg;2;3;yes;yes;-0.169;0.026;;;;
MS;Quarterly Journal of Economics;125.3;2010;1101;Carrell;3;;no;other;5c;reg;2;4;yes;yes;-0.057;0.027;;;;
MS;Quarterly Journal of Economics;125.3;2010;1101;Carrell;3;;no;other;5c;reg;2;5;yes;yes;-0.179;0.027;;;;
MS;Quarterly Journal of Economics;125.3;2010;1101;Carrell;3;;no;other;5c;reg;3;1;yes;yes;0.157;0.080;;;;
MS;Quarterly Journal of Economics;125.3;2010;1101;Carrell;3;;no;other;5c;reg;3;2;yes;yes;-0.080;0.050;;;;
MS;Quarterly Journal of Economics;125.3;2010;1101;Carrell;3;;no;other;5c;reg;3;3;yes;yes;0.136;0.066;;;;
MS;Quarterly Journal of Economics;125.3;2010;1101;Carrell;3;;no;other;5c;reg;3;4;yes;yes;0.140;0.070;;;;
MS;Quarterly Journal of Economics;125.3;2010;1101;Carrell;3;;no;other;5c;reg;3;5;yes;yes;0.155;0.070;;;;
MS;Quarterly Journal of Economics;125.3;2010;1101;Carrell;3;;no;other;5d;reg;1;1;yes;yes;-0.104;0.041;;;;
MS;Quarterly Journal of Economics;125.3;2010;1101;Carrell;3;;no;other;5d;reg;1;2;yes;yes;-0.010;0.025;;;;
MS;Quarterly Journal of Economics;125.3;2010;1101;Carrell;3;;no;other;5d;reg;1;3;yes;yes;-0.018;0.033;;;;
MS;Quarterly Journal of Economics;125.3;2010;1101;Carrell;3;;no;other;5d;reg;1;4;yes;yes;0.036;0.036;;;;
MS;Quarterly Journal of Economics;125.3;2010;1101;Carrell;3;;no;other;5d;reg;1;5;yes;yes;0.021;0.037;;;;
MS;Quarterly Journal of Economics;125.3;2010;1101;Carrell;3;;no;other;5d;reg;2;1;yes;yes;-0.104;0.045;;;;
MS;Quarterly Journal of Economics;125.3;2010;1101;Carrell;3;;no;other;5d;reg;2;2;yes;yes;0.029;0.029;;;;
MS;Quarterly Journal of Economics;125.3;2010;1101;Carrell;3;;no;other;5d;reg;2;3;yes;yes;-0.235;0.037;;;;
MS;Quarterly Journal of Economics;125.3;2010;1101;Carrell;3;;no;other;5d;reg;2;4;yes;yes;-0.071;0.041;;;;
MS;Quarterly Journal of Economics;125.3;2010;1101;Carrell;3;;no;other;5d;reg;2;5;yes;yes;-0.265;0.042;;;;
MS;Quarterly Journal of Economics;125.3;2010;1101;Carrell;3;;no;other;5d;reg;3;1;yes;yes;0.228;0.102;;;;
MS;Quarterly Journal of Economics;125.3;2010;1101;Carrell;3;;no;other;5d;reg;3;2;yes;yes;-0.096;0.069;;;;
MS;Quarterly Journal of Economics;125.3;2010;1101;Carrell;3;;no;other;5d;reg;3;3;yes;yes;0.193;0.090;;;;
MS;Quarterly Journal of Economics;125.3;2010;1101;Carrell;3;;no;other;5d;reg;3;4;yes;yes;0.110;0.099;;;;
MS;Quarterly Journal of Economics;125.3;2010;1101;Carrell;3;;no;other;5d;reg;3;5;yes;yes;0.258;0.101;;;;
MS;Quarterly Journal of Economics;125.3;2010;1101;Carrell;3;;no;other;6a;reg;1;1;yes;yes;-0.113;0.064;;;;
MS;Quarterly Journal of Economics;125.3;2010;1101;Carrell;3;;no;other;6a;reg;1;2;yes;yes;-0.008;0.038;;;;
MS;Quarterly Journal of Economics;125.3;2010;1101;Carrell;3;;no;other;6a;reg;1;3;yes;yes;-0.016;0.018;;;;
MS;Quarterly Journal of Economics;125.3;2010;1101;Carrell;3;;no;other;6a;reg;1;4;yes;yes;-0.002;0.012;;;;
MS;Quarterly Journal of Economics;125.3;2010;1101;Carrell;3;;no;other;6a;reg;1;5;yes;yes;0.008;0.019;;;;
MS;Quarterly Journal of Economics;125.3;2010;1101;Carrell;3;;no;other;6a;reg;1;6;yes;yes;-0.007;0.020;;;;
MS;Quarterly Journal of Economics;125.3;2010;1101;Carrell;3;;no;other;6a;reg;2;1;yes;yes;-0.018;0.036;;;;
MS;Quarterly Journal of Economics;125.3;2010;1101;Carrell;3;;no;other;6a;reg;2;2;yes;yes;0.037;0.025;;;;
MS;Quarterly Journal of Economics;125.3;2010;1101;Carrell;3;;no;other;6a;reg;2;3;yes;yes;0.020;0.014;;;;
MS;Quarterly Journal of Economics;125.3;2010;1101;Carrell;3;;no;other;6a;reg;2;4;yes;yes;0.019;0.009;;;;
MS;Quarterly Journal of Economics;125.3;2010;1101;Carrell;3;;no;other;6a;reg;2;5;yes;yes;-0.110;0.015;;;;
MS;Quarterly Journal of Economics;125.3;2010;1101;Carrell;3;;no;other;6a;reg;2;6;yes;yes;-0.123;0.015;;;;
MS;Quarterly Journal of Economics;125.3;2010;1101;Carrell;3;;no;other;6a;reg;3;1;yes;yes;0.028;0.074;;;;
MS;Quarterly Journal of Economics;125.3;2010;1101;Carrell;3;;no;other;6a;reg;3;2;yes;yes;-0.098;0.078;;;;
MS;Quarterly Journal of Economics;125.3;2010;1101;Carrell;3;;no;other;6a;reg;3;3;yes;yes;0.019;0.042;;;;
MS;Quarterly Journal of Economics;125.3;2010;1101;Carrell;3;;no;other;6a;reg;3;4;yes;yes;-0.009;0.027;;;;
MS;Quarterly Journal of Economics;125.3;2010;1101;Carrell;3;;no;other;6a;reg;3;5;yes;yes;-0.087;0.045;;;;
MS;Quarterly Journal of Economics;125.3;2010;1101;Carrell;3;;no;other;6a;reg;3;6;yes;yes;-0.043;0.045;;;;
MS;Quarterly Journal of Economics;125.3;2010;1101;Carrell;3;;no;other;6b;reg;1;1;yes;yes;-0.107;0.065;;;;
MS;Quarterly Journal of Economics;125.3;2010;1101;Carrell;3;;no;other;6b;reg;1;2;yes;yes;-0.014;0.050;;;;
MS;Quarterly Journal of Economics;125.3;2010;1101;Carrell;3;;no;other;6b;reg;1;3;yes;yes;-0.041;0.028;;;;
MS;Quarterly Journal of Economics;125.3;2010;1101;Carrell;3;;no;other;6b;reg;1;4;yes;yes;0.004;0.018;;;;
MS;Quarterly Journal of Economics;125.3;2010;1101;Carrell;3;;no;other;6b;reg;1;5;yes;yes;0.028;0.027;;;;
MS;Quarterly Journal of Economics;125.3;2010;1101;Carrell;3;;no;other;6b;reg;1;6;yes;yes;-0.076;0.055;;;;
MS;Quarterly Journal of Economics;125.3;2010;1101;Carrell;3;;no;other;6b;reg;2;1;yes;yes;-0.064;0.040;;;;
MS;Quarterly Journal of Economics;125.3;2010;1101;Carrell;3;;no;other;6b;reg;2;2;yes;yes;-0.018;0.032;;;;
MS;Quarterly Journal of Economics;125.3;2010;1101;Carrell;3;;no;other;6b;reg;2;3;yes;yes;0.026;0.019;;;;
MS;Quarterly Journal of Economics;125.3;2010;1101;Carrell;3;;no;other;6b;reg;2;4;yes;yes;0.019;0.012;;;;
MS;Quarterly Journal of Economics;125.3;2010;1101;Carrell;3;;no;other;6b;reg;2;5;yes;yes;-0.094;0.019;;;;
MS;Quarterly Journal of Economics;125.3;2010;1101;Carrell;3;;no;other;6b;reg;2;6;yes;yes;-0.109;0.018;;;;
MS;Quarterly Journal of Economics;125.3;2010;1101;Carrell;3;;no;other;6b;reg;3;1;yes;yes;-0.009;0.008;;;;
MS;Quarterly Journal of Economics;125.3;2010;1101;Carrell;3;;no;other;6b;reg;3;2;yes;yes;-0.027;0.102;;;;
MS;Quarterly Journal of Economics;125.3;2010;1101;Carrell;3;;no;other;6b;reg;3;3;yes;yes;0.015;0.059;;;;
MS;Quarterly Journal of Economics;125.3;2010;1101;Carrell;3;;no;other;6b;reg;3;4;yes;yes;-0.0004;0.038;;;;
MS;Quarterly Journal of Economics;125.3;2010;1101;Carrell;3;;no;other;6b;reg;3;5;yes;yes;-0.122;0.058;;;;
MS;Quarterly Journal of Economics;125.3;2010;1101;Carrell;3;;no;other;6b;reg;3;6;yes;yes;0.076;0.055;;;;
MS;Quarterly Journal of Economics;125.3;2010;1101;Carrell;3;;no;other;6c;reg;1;1;yes;yes;-0.115;0.068;;;;
MS;Quarterly Journal of Economics;125.3;2010;1101;Carrell;3;;no;other;6c;reg;1;2;yes;yes;-0.028;0.054;;;;
MS;Quarterly Journal of Economics;125.3;2010;1101;Carrell;3;;no;other;6c;reg;1;3;yes;yes;0.001;0.023;;;;
MS;Quarterly Journal of Economics;125.3;2010;1101;Carrell;3;;no;other;6c;reg;1;4;yes;yes;-0.009;0.015;;;;
MS;Quarterly Journal of Economics;125.3;2010;1101;Carrell;3;;no;other;6c;reg;1;5;yes;yes;-0.016;0.028;;;;
MS;Quarterly Journal of Economics;125.3;2010;1101;Carrell;3;;no;other;6c;reg;1;6;yes;yes;-0.024;0.030;;;;
MS;Quarterly Journal of Economics;125.3;2010;1101;Carrell;3;;no;other;6c;reg;2;1;yes;yes;0.050;0.045;;;;
MS;Quarterly Journal of Economics;125.3;2010;1101;Carrell;3;;no;other;6c;reg;2;2;yes;yes;0.077;0.041;;;;
MS;Quarterly Journal of Economics;125.3;2010;1101;Carrell;3;;no;other;6c;reg;2;3;yes;yes;0.011;0.019;;;;
MS;Quarterly Journal of Economics;125.3;2010;1101;Carrell;3;;no;other;6c;reg;2;4;yes;yes;0.019;0.013;;;;
MS;Quarterly Journal of Economics;125.3;2010;1101;Carrell;3;;no;other;6c;reg;2;5;yes;yes;-0.135;0.023;;;;
MS;Quarterly Journal of Economics;125.3;2010;1101;Carrell;3;;no;other;6c;reg;2;6;yes;yes;-0.145;0.025;;;;
MS;Quarterly Journal of Economics;125.3;2010;1101;Carrell;3;;no;other;6c;reg;3;1;yes;yes;0.086;0.083;;;;
MS;Quarterly Journal of Economics;125.3;2010;1101;Carrell;3;;no;other;6c;reg;3;2;yes;yes;-0.102;0.122;;;;
MS;Quarterly Journal of Economics;125.3;2010;1101;Carrell;3;;no;other;6c;reg;3;3;yes;yes;0.047;0.058;;;;
MS;Quarterly Journal of Economics;125.3;2010;1101;Carrell;3;;no;other;6c;reg;3;4;yes;yes;-0.024;0.038;;;;
MS;Quarterly Journal of Economics;125.3;2010;1101;Carrell;3;;no;other;6c;reg;3;5;yes;yes;-0.048;0.070;;;;
MS;Quarterly Journal of Economics;125.3;2010;1101;Carrell;3;;no;other;6c;reg;3;6;yes;yes;-0.005;0.075;;;;
MS;Quarterly Journal of Economics;125.3;2010;1101;Carrell;3;;no;other;6d;reg;1;1;yes;yes;-0.101;0.073;;;;
MS;Quarterly Journal of Economics;125.3;2010;1101;Carrell;3;;no;other;6d;reg;1;2;yes;yes;-0.087;0.073;;;;
MS;Quarterly Journal of Economics;125.3;2010;1101;Carrell;3;;no;other;6d;reg;1;3;yes;yes;0.005;0.030;;;;
MS;Quarterly Journal of Economics;125.3;2010;1101;Carrell;3;;no;other;6d;reg;1;4;yes;yes;-0.007;0.019;;;;
MS;Quarterly Journal of Economics;125.3;2010;1101;Carrell;3;;no;other;6d;reg;1;5;yes;yes;-0.017;0.037;;;;
MS;Quarterly Journal of Economics;125.3;2010;1101;Carrell;3;;no;other;6d;reg;1;6;yes;yes;-0.026;0.042;;;;
MS;Quarterly Journal of Economics;125.3;2010;1101;Carrell;3;;no;other;6d;reg;2;1;yes;yes;0.021;0.052;;;;
MS;Quarterly Journal of Economics;125.3;2010;1101;Carrell;3;;no;other;6d;reg;2;2;yes;yes;0.110;0.061;;;;
MS;Quarterly Journal of Economics;125.3;2010;1101;Carrell;3;;no;other;6d;reg;2;3;yes;yes;0.007;0.027;;;;
MS;Quarterly Journal of Economics;125.3;2010;1101;Carrell;3;;no;other;6d;reg;2;4;yes;yes;-0.0003;0.017;;;;
MS;Quarterly Journal of Economics;125.3;2010;1101;Carrell;3;;no;other;6d;reg;2;5;yes;yes;-0.187;0.034;;;;
MS;Quarterly Journal of Economics;125.3;2010;1101;Carrell;3;;no;other;6d;reg;2;6;yes;yes;-0.209;0.038;;;;
MS;Quarterly Journal of Economics;125.3;2010;1101;Carrell;3;;no;other;6d;reg;3;1;yes;yes;0.083;0.104;;;;
MS;Quarterly Journal of Economics;125.3;2010;1101;Carrell;3;;no;other;6d;reg;3;2;yes;yes;-0.137;0.177;;;;
MS;Quarterly Journal of Economics;125.3;2010;1101;Carrell;3;;no;other;6d;reg;3;3;yes;yes;0.101;0.079;;;;
MS;Quarterly Journal of Economics;125.3;2010;1101;Carrell;3;;no;other;6d;reg;3;4;yes;yes;0.048;0.048;;;;
MS;Quarterly Journal of Economics;125.3;2010;1101;Carrell;3;;no;other;6d;reg;3;5;yes;yes;-0.026;0.097;;;;
MS;Quarterly Journal of Economics;125.3;2010;1101;Carrell;3;;no;other;6d;reg;3;6;yes;yes;0.038;0.109;;;;
MS;Quarterly Journal of Economics;125.3;2010;1101;Carrell;3;;no;other;7a;reg;1;1;yes;yes;0.016;0.028;;;;
MS;Quarterly Journal of Economics;125.3;2010;1101;Carrell;3;;no;other;7a;reg;1;2;yes;yes;0.003;0.008;;;;
MS;Quarterly Journal of Economics;125.3;2010;1101;Carrell;3;;no;other;7a;reg;1;3;yes;yes;0.009;0.009;;;;
MS;Quarterly Journal of Economics;125.3;2010;1101;Carrell;3;;no;other;7a;reg;2;1;yes;yes;-0.043;0.023;;;;
MS;Quarterly Journal of Economics;125.3;2010;1101;Carrell;3;;no;other;7a;reg;2;2;yes;yes;-0.124;0.011;;;;
MS;Quarterly Journal of Economics;125.3;2010;1101;Carrell;3;;no;other;7a;reg;2;3;yes;yes;-0.128;0.009;;;;
MS;Quarterly Journal of Economics;125.3;2010;1101;Carrell;3;;no;other;7a;reg;3;1;yes;yes;0.019;0.039;;;;
MS;Quarterly Journal of Economics;125.3;2010;1101;Carrell;3;;no;other;7a;reg;3;2;yes;yes;-0.002;0.021;;;;
MS;Quarterly Journal of Economics;125.3;2010;1101;Carrell;3;;no;other;7a;reg;3;3;yes;yes;-0.012;0.018;;;;
MS;Quarterly Journal of Economics;125.3;2010;1101;Carrell;3;;no;other;7b;reg;1;1;yes;yes;0.015;0.032;;;;
MS;Quarterly Journal of Economics;125.3;2010;1101;Carrell;3;;no;other;7b;reg;1;2;yes;yes;-0.001;0.012;;;;
MS;Quarterly Journal of Economics;125.3;2010;1101;Carrell;3;;no;other;7b;reg;1;3;yes;yes;0.010;0.014;;;;
MS;Quarterly Journal of Economics;125.3;2010;1101;Carrell;3;;no;other;7b;reg;2;1;yes;yes;-0.031;0.027;;;;
MS;Quarterly Journal of Economics;125.3;2010;1101;Carrell;3;;no;other;7b;reg;2;2;yes;yes;-0.121;0.014;;;;
MS;Quarterly Journal of Economics;125.3;2010;1101;Carrell;3;;no;other;7b;reg;2;3;yes;yes;-0.121;0.012;;;;
MS;Quarterly Journal of Economics;125.3;2010;1101;Carrell;3;;no;other;7b;reg;3;1;yes;yes;-0.015;0.044;;;;
MS;Quarterly Journal of Economics;125.3;2010;1101;Carrell;3;;no;other;7b;reg;3;2;yes;yes;0.003;0.029;;;;
MS;Quarterly Journal of Economics;125.3;2010;1101;Carrell;3;;no;other;7b;reg;3;3;yes;yes;-0.003;0.022;;;;
MS;Quarterly Journal of Economics;125.3;2010;1101;Carrell;3;;no;other;7c;reg;1;1;yes;yes;0.009;0.030;;;;
MS;Quarterly Journal of Economics;125.3;2010;1101;Carrell;3;;no;other;7c;reg;1;2;yes;yes;0.013;0.012;;;;
MS;Quarterly Journal of Economics;125.3;2010;1101;Carrell;3;;no;other;7c;reg;1;3;yes;yes;0.012;0.013;;;;
MS;Quarterly Journal of Economics;125.3;2010;1101;Carrell;3;;no;other;7c;reg;2;1;yes;yes;-0.059;0.038;;;;
MS;Quarterly Journal of Economics;125.3;2010;1101;Carrell;3;;no;other;7c;reg;2;2;yes;yes;-0.122;0.018;;;;
MS;Quarterly Journal of Economics;125.3;2010;1101;Carrell;3;;no;other;7c;reg;2;3;yes;yes;-0.134;0.017;;;;
MS;Quarterly Journal of Economics;125.3;2010;1101;Carrell;3;;no;other;7c;reg;3;1;yes;yes;0.064;0.068;;;;
MS;Quarterly Journal of Economics;125.3;2010;1101;Carrell;3;;no;other;7c;reg;3;2;yes;yes;-0.028;0.048;;;;
MS;Quarterly Journal of Economics;125.3;2010;1101;Carrell;3;;no;other;7c;reg;3;3;yes;yes;-0.058;0.042;;;;
MS;Quarterly Journal of Economics;125.3;2010;1101;Carrell;3;;no;other;7d;reg;1;1;yes;yes;0.010;0.040;;;;
MS;Quarterly Journal of Economics;125.3;2010;1101;Carrell;3;;no;other;7d;reg;1;2;yes;yes;0.006;0.017;;;;
MS;Quarterly Journal of Economics;125.3;2010;1101;Carrell;3;;no;other;7d;reg;1;3;yes;yes;-0.015;0.021;;;;
MS;Quarterly Journal of Economics;125.3;2010;1101;Carrell;3;;no;other;7d;reg;2;1;yes;yes;-0.108;0.052;;;;
MS;Quarterly Journal of Economics;125.3;2010;1101;Carrell;3;;no;other;7d;reg;2;2;yes;yes;-0.197;0.032;;;;
MS;Quarterly Journal of Economics;125.3;2010;1101;Carrell;3;;no;other;7d;reg;2;3;yes;yes;-0.224;0.034;;;;
MS;Quarterly Journal of Economics;125.3;2010;1101;Carrell;3;;no;other;7d;reg;3;1;yes;yes;0.071;0.090;;;;
MS;Quarterly Journal of Economics;125.3;2010;1101;Carrell;3;;no;other;7d;reg;3;2;yes;yes;0.016;0.055;;;;
MS;Quarterly Journal of Economics;125.3;2010;1101;Carrell;3;;no;other;7d;reg;3;3;yes;yes;-0.020;0.056;;;;
MS;Quarterly Journal of Economics;125.3;2010;1101;Carrell;3;;no;other;8a;reg;1;1;yes;no;0.098;0.040;;;;
MS;Quarterly Journal of Economics;125.3;2010;1101;Carrell;3;;no;other;8a;reg;1;2;yes;no;0.038;0.064;;;;
MS;Quarterly Journal of Economics;125.3;2010;1101;Carrell;3;;no;other;8a;reg;1;3;yes;no;-0.051;0.037;;;;
MS;Quarterly Journal of Economics;125.3;2010;1101;Carrell;3;;no;other;8a;reg;1;4;yes;no;0.076;0.046;;;;
MS;Quarterly Journal of Economics;125.3;2010;1101;Carrell;3;;no;other;8a;reg;1;5;yes;no;0.036;0.048;;;;
MS;Quarterly Journal of Economics;125.3;2010;1101;Carrell;3;;no;other;8a;reg;1;6;yes;no;0.047;0.047;;;;
MS;Quarterly Journal of Economics;125.3;2010;1101;Carrell;3;;no;other;8b;reg;1;1;yes;no;0.080;0.044;;;;
MS;Quarterly Journal of Economics;125.3;2010;1101;Carrell;3;;no;other;8b;reg;1;2;yes;no;-0.072;0.090;;;;
MS;Quarterly Journal of Economics;125.3;2010;1101;Carrell;3;;no;other;8b;reg;1;3;yes;no;-0.022;0.055;;;;
MS;Quarterly Journal of Economics;125.3;2010;1101;Carrell;3;;no;other;8b;reg;1;4;yes;no;0.015;0.064;;;;
MS;Quarterly Journal of Economics;125.3;2010;1101;Carrell;3;;no;other;8b;reg;1;5;yes;no;-0.069;0.066;;;;
MS;Quarterly Journal of Economics;125.3;2010;1101;Carrell;3;;no;other;8b;reg;1;6;yes;no;-0.066;0.061;;;;
MS;Quarterly Journal of Economics;125.3;2010;1101;Carrell;3;;no;other;8c;reg;1;1;yes;no;0.133;0.070;;;;
MS;Quarterly Journal of Economics;125.3;2010;1101;Carrell;3;;no;other;8c;reg;1;2;yes;no;0.204;0.081;;;;
MS;Quarterly Journal of Economics;125.3;2010;1101;Carrell;3;;no;other;8c;reg;1;3;yes;no;-0.082;0.051;;;;
MS;Quarterly Journal of Economics;125.3;2010;1101;Carrell;3;;no;other;8c;reg;1;4;yes;no;0.138;0.069;;;;
MS;Quarterly Journal of Economics;125.3;2010;1101;Carrell;3;;no;other;8c;reg;1;5;yes;no;0.140;0.072;;;;
MS;Quarterly Journal of Economics;125.3;2010;1101;Carrell;3;;no;other;8c;reg;1;6;yes;no;0.164;0.073;;;;
MS;Quarterly Journal of Economics;125.3;2010;1101;Carrell;3;;no;other;8d;reg;1;1;yes;no;0.211;0.086;;;;
MS;Quarterly Journal of Economics;125.3;2010;1101;Carrell;3;;no;other;8d;reg;1;2;yes;no;0.274;0.110;;;;
MS;Quarterly Journal of Economics;125.3;2010;1101;Carrell;3;;no;other;8d;reg;1;3;yes;no;-0.094;0.074;;;;
MS;Quarterly Journal of Economics;125.3;2010;1101;Carrell;3;;no;other;8d;reg;1;4;yes;no;0.183;0.097;;;;
MS;Quarterly Journal of Economics;125.3;2010;1101;Carrell;3;;no;other;8d;reg;1;5;yes;no;0.073;0.106;;;;
MS;Quarterly Journal of Economics;125.3;2010;1101;Carrell;3;;no;other;8d;reg;1;6;yes;no;0.239;0.108;;;;
MS;Quarterly Journal of Economics;125.3;2010;1101;Carrell;3;;no;other;9a;reg;1;1;yes;no;0.079;0.038;;;;
MS;Quarterly Journal of Economics;125.3;2010;1101;Carrell;3;;no;other;9a;reg;1;2;yes;no;0.029;0.063;;;;
MS;Quarterly Journal of Economics;125.3;2010;1101;Carrell;3;;no;other;9a;reg;1;3;yes;no;0.084;0.046;;;;
MS;Quarterly Journal of Economics;125.3;2010;1101;Carrell;3;;no;other;9a;reg;1;4;yes;no;0.041;0.046;;;;
MS;Quarterly Journal of Economics;125.3;2010;1101;Carrell;3;;no;other;9a;reg;2;1;yes;no;0.040;0.019;;;;
MS;Quarterly Journal of Economics;125.3;2010;1101;Carrell;3;;no;other;9a;reg;2;2;yes;no;-0.013;0.025;;;;
MS;Quarterly Journal of Economics;125.3;2010;1101;Carrell;3;;no;other;9a;reg;2;3;yes;no;-0.045;0.020;;;;
MS;Quarterly Journal of Economics;125.3;2010;1101;Carrell;3;;no;other;9a;reg;2;4;yes;no;-0.013;0.020;;;;
MS;Quarterly Journal of Economics;125.3;2010;1101;Carrell;3;;no;other;9a;reg;3;1;yes;no;0.044;0.015;;;;
MS;Quarterly Journal of Economics;125.3;2010;1101;Carrell;3;;no;other;9a;reg;3;2;yes;no;0.009;0.25;;;;
MS;Quarterly Journal of Economics;125.3;2010;1101;Carrell;3;;no;other;9a;reg;3;3;yes;no;0.014;0.018;;;;
MS;Quarterly Journal of Economics;125.3;2010;1101;Carrell;3;;no;other;9a;reg;3;4;yes;no;0.024;0.018;;;;
MS;Quarterly Journal of Economics;125.3;2010;1101;Carrell;3;;no;other;9a;reg;4;1;yes;no;-0.030;0.014;;;;
MS;Quarterly Journal of Economics;125.3;2010;1101;Carrell;3;;no;other;9a;reg;4;2;yes;no;-0.049;0.027;;;;
MS;Quarterly Journal of Economics;125.3;2010;1101;Carrell;3;;no;other;9a;reg;4;3;yes;no;0.003;0.019;;;;
MS;Quarterly Journal of Economics;125.3;2010;1101;Carrell;3;;no;other;9a;reg;4;4;yes;no;0.012;0.019;;;;
MS;Quarterly Journal of Economics;125.3;2010;1101;Carrell;3;;no;other;9a;reg;5;1;yes;no;0.013;0.007;;;;
MS;Quarterly Journal of Economics;125.3;2010;1101;Carrell;3;;no;other;9a;reg;5;2;yes;no;0.010;0.012;;;;
MS;Quarterly Journal of Economics;125.3;2010;1101;Carrell;3;;no;other;9a;reg;5;3;yes;no;0.004;0.008;;;;
MS;Quarterly Journal of Economics;125.3;2010;1101;Carrell;3;;no;other;9a;reg;5;4;yes;no;-0.006;0.008;;;;
MS;Quarterly Journal of Economics;125.3;2010;1101;Carrell;3;;no;other;9a;reg;6;1;yes;no;0.080;0.008;;;;
MS;Quarterly Journal of Economics;125.3;2010;1101;Carrell;3;;no;other;9a;reg;6;2;yes;no;-0.016;0.011;;;;
MS;Quarterly Journal of Economics;125.3;2010;1101;Carrell;3;;no;other;9a;reg;6;3;yes;no;0.0004;0.008;;;;
MS;Quarterly Journal of Economics;125.3;2010;1101;Carrell;3;;no;other;9a;reg;6;4;yes;no;0.001;0.008;;;;
MS;Quarterly Journal of Economics;125.3;2010;1101;Carrell;3;;no;other;9b;reg;1;1;yes;no;0.067;0.043;;;;
MS;Quarterly Journal of Economics;125.3;2010;1101;Carrell;3;;no;other;9b;reg;1;2;yes;no;-0.060;0.089;;;;
MS;Quarterly Journal of Economics;125.3;2010;1101;Carrell;3;;no;other;9b;reg;1;3;yes;no;0.027;0.063;;;;
MS;Quarterly Journal of Economics;125.3;2010;1101;Carrell;3;;no;other;9b;reg;1;4;yes;no;-0.082;0.060;;;;
MS;Quarterly Journal of Economics;125.3;2010;1101;Carrell;3;;no;other;9b;reg;2;1;yes;no;0.028;0.022;;;;
MS;Quarterly Journal of Economics;125.3;2010;1101;Carrell;3;;no;other;9b;reg;2;2;yes;no;-0.021;0.034;;;;
MS;Quarterly Journal of Economics;125.3;2010;1101;Carrell;3;;no;other;9b;reg;2;3;yes;no;-0.047;0.026;;;;
MS;Quarterly Journal of Economics;125.3;2010;1101;Carrell;3;;no;other;9b;reg;2;4;yes;no;-0.015;0.025;;;;
MS;Quarterly Journal of Economics;125.3;2010;1101;Carrell;3;;no;other;9b;reg;3;1;yes;no;0.043;0.016;;;;
MS;Quarterly Journal of Economics;125.3;2010;1101;Carrell;3;;no;other;9b;reg;3;2;yes;no;0.032;0.033;;;;
MS;Quarterly Journal of Economics;125.3;2010;1101;Carrell;3;;no;other;9b;reg;3;3;yes;no;0.019;0.023;;;;
MS;Quarterly Journal of Economics;125.3;2010;1101;Carrell;3;;no;other;9b;reg;3;4;yes;no;0.016;0.022;;;;
MS;Quarterly Journal of Economics;125.3;2010;1101;Carrell;3;;no;other;9b;reg;4;1;yes;no;-0.029;0.019;;;;
MS;Quarterly Journal of Economics;125.3;2010;1101;Carrell;3;;no;other;9b;reg;4;2;yes;no;-0.006;0.041;;;;
MS;Quarterly Journal of Economics;125.3;2010;1101;Carrell;3;;no;other;9b;reg;4;3;yes;no;0.048;0.028;;;;
MS;Quarterly Journal of Economics;125.3;2010;1101;Carrell;3;;no;other;9b;reg;4;4;yes;no;0.063;0.027;;;;
MS;Quarterly Journal of Economics;125.3;2010;1101;Carrell;3;;no;other;9b;reg;5;1;yes;no;0.011;0.010;;;;
MS;Quarterly Journal of Economics;125.3;2010;1101;Carrell;3;;no;other;9b;reg;5;2;yes;no;0.025;0.018;;;;
MS;Quarterly Journal of Economics;125.3;2010;1101;Carrell;3;;no;other;9b;reg;5;3;yes;no;0.002;0.013;;;;
MS;Quarterly Journal of Economics;125.3;2010;1101;Carrell;3;;no;other;9b;reg;5;4;yes;no;-0.002;0.011;;;;
MS;Quarterly Journal of Economics;125.3;2010;1101;Carrell;3;;no;other;9b;reg;6;1;yes;no;0.078;0.010;;;;
MS;Quarterly Journal of Economics;125.3;2010;1101;Carrell;3;;no;other;9b;reg;6;2;yes;no;-0.020;0.017;;;;
MS;Quarterly Journal of Economics;125.3;2010;1101;Carrell;3;;no;other;9b;reg;6;3;yes;no;-0.006;0.012;;;;
MS;Quarterly Journal of Economics;125.3;2010;1101;Carrell;3;;no;other;9b;reg;6;4;yes;no;-0.002;0.011;;;;
MS;Quarterly Journal of Economics;125.3;2010;1101;Carrell;3;;no;other;9c;reg;1;1;yes;no;0.106;0.069;;;;
MS;Quarterly Journal of Economics;125.3;2010;1101;Carrell;3;;no;other;9c;reg;1;2;yes;no;0.137;0.081;;;;
MS;Quarterly Journal of Economics;125.3;2010;1101;Carrell;3;;no;other;9c;reg;1;3;yes;no;0.144;0.068;;;;
MS;Quarterly Journal of Economics;125.3;2010;1101;Carrell;3;;no;other;9c;reg;1;4;yes;no;0.179;0.072;;;;
MS;Quarterly Journal of Economics;125.3;2010;1101;Carrell;3;;no;other;9c;reg;2;1;yes;no;0.062;0.029;;;;
MS;Quarterly Journal of Economics;125.3;2010;1101;Carrell;3;;no;other;9c;reg;2;2;yes;no;-0.017;0.033;;;;
MS;Quarterly Journal of Economics;125.3;2010;1101;Carrell;3;;no;other;9c;reg;2;3;yes;no;-0.045;0.030;;;;
MS;Quarterly Journal of Economics;125.3;2010;1101;Carrell;3;;no;other;9c;reg;2;4;yes;no;-0.010;0.032;;;;
MS;Quarterly Journal of Economics;125.3;2010;1101;Carrell;3;;no;other;9c;reg;3;1;yes;no;0.052;0.029;;;;
MS;Quarterly Journal of Economics;125.3;2010;1101;Carrell;3;;no;other;9c;reg;3;2;yes;no;-0.014;0.033;;;;
MS;Quarterly Journal of Economics;125.3;2010;1101;Carrell;3;;no;other;9c;reg;3;3;yes;no;0.011;0.028;;;;
MS;Quarterly Journal of Economics;125.3;2010;1101;Carrell;3;;no;other;9c;reg;3;4;yes;no;0.038;0.029;;;;
MS;Quarterly Journal of Economics;125.3;2010;1101;Carrell;3;;no;other;9c;reg;4;1;yes;no;-0.032;0.021;;;;
MS;Quarterly Journal of Economics;125.3;2010;1101;Carrell;3;;no;other;9c;reg;4;2;yes;no;-0.077;0.033;;;;
MS;Quarterly Journal of Economics;125.3;2010;1101;Carrell;3;;no;other;9c;reg;4;3;yes;no;-0.028;0.025;;;;
MS;Quarterly Journal of Economics;125.3;2010;1101;Carrell;3;;no;other;9c;reg;4;4;yes;no;-0.013;0.012;;;;
MS;Quarterly Journal of Economics;125.3;2010;1101;Carrell;3;;no;other;9c;reg;5;1;yes;no;0.015;0.011;;;;
MS;Quarterly Journal of Economics;125.3;2010;1101;Carrell;3;;no;other;9c;reg;5;2;yes;no;0.001;0.015;;;;
MS;Quarterly Journal of Economics;125.3;2010;1101;Carrell;3;;no;other;9c;reg;5;3;yes;no;0.003;0.012;;;;
MS;Quarterly Journal of Economics;125.3;2010;1101;Carrell;3;;no;other;9c;reg;5;4;yes;no;-0.013;0.012;;;;
MS;Quarterly Journal of Economics;125.3;2010;1101;Carrell;3;;no;other;9c;reg;6;1;yes;no;0.081;0.012;;;;
MS;Quarterly Journal of Economics;125.3;2010;1101;Carrell;3;;no;other;9c;reg;6;2;yes;no;-0.010;0.014;;;;
MS;Quarterly Journal of Economics;125.3;2010;1101;Carrell;3;;no;other;9c;reg;6;3;yes;no;0.010;0.011;;;;
MS;Quarterly Journal of Economics;125.3;2010;1101;Carrell;3;;no;other;9c;reg;6;4;yes;no;0.006;0.012;;;;
MS;Quarterly Journal of Economics;125.3;2010;1101;Carrell;3;;no;other;9d;reg;1;1;yes;no;0.157;0.076;;;;
MS;Quarterly Journal of Economics;125.3;2010;1101;Carrell;3;;no;other;9d;reg;1;2;yes;no;0.215;0.106;;;;
MS;Quarterly Journal of Economics;125.3;2010;1101;Carrell;3;;no;other;9d;reg;1;3;yes;no;0.216;0.093;;;;
MS;Quarterly Journal of Economics;125.3;2010;1101;Carrell;3;;no;other;9d;reg;1;4;yes;no;0.294;0.103;;;;
MS;Quarterly Journal of Economics;125.3;2010;1101;Carrell;3;;no;other;9d;reg;2;1;yes;no;0.034;0.035;;;;
MS;Quarterly Journal of Economics;125.3;2010;1101;Carrell;3;;no;other;9d;reg;2;2;yes;no;0.020;0.047;;;;
MS;Quarterly Journal of Economics;125.3;2010;1101;Carrell;3;;no;other;9d;reg;2;3;yes;no;-0.071;0.041;;;;
MS;Quarterly Journal of Economics;125.3;2010;1101;Carrell;3;;no;other;9d;reg;2;4;yes;no;-0.008;0.045;;;;
MS;Quarterly Journal of Economics;125.3;2010;1101;Carrell;3;;no;other;9d;reg;3;1;yes;no;0.049;0.040;;;;
MS;Quarterly Journal of Economics;125.3;2010;1101;Carrell;3;;no;other;9d;reg;3;2;yes;no;-0.023;0.046;;;;
MS;Quarterly Journal of Economics;125.3;2010;1101;Carrell;3;;no;other;9d;reg;3;3;yes;no;0.019;0.039;;;;
MS;Quarterly Journal of Economics;125.3;2010;1101;Carrell;3;;no;other;9d;reg;3;4;yes;no;0.076;0.043;;;;
MS;Quarterly Journal of Economics;125.3;2010;1101;Carrell;3;;no;other;9d;reg;4;1;yes;no;-0.008;0.028;;;;
MS;Quarterly Journal of Economics;125.3;2010;1101;Carrell;3;;no;other;9d;reg;4;2;yes;no;-0.099;0.041;;;;
MS;Quarterly Journal of Economics;125.3;2010;1101;Carrell;3;;no;other;9d;reg;4;3;yes;no;-0.018;0.033;;;;
MS;Quarterly Journal of Economics;125.3;2010;1101;Carrell;3;;no;other;9d;reg;4;4;yes;no;0.024;0.037;;;;
MS;Quarterly Journal of Economics;125.3;2010;1101;Carrell;3;;no;other;9d;reg;5;1;yes;no;-0.014;0.016;;;;
MS;Quarterly Journal of Economics;125.3;2010;1101;Carrell;3;;no;other;9d;reg;5;2;yes;no;-0.013;0.019;;;;
MS;Quarterly Journal of Economics;125.3;2010;1101;Carrell;3;;no;other;9d;reg;5;3;yes;no;0.011;0.015;;;;
MS;Quarterly Journal of Economics;125.3;2010;1101;Carrell;3;;no;other;9d;reg;5;4;yes;no;-0.015;0.017;;;;
MS;Quarterly Journal of Economics;125.3;2010;1101;Carrell;3;;no;other;9d;reg;6;1;yes;no;0.090;0.016;;;;
MS;Quarterly Journal of Economics;125.3;2010;1101;Carrell;3;;no;other;9d;reg;6;2;yes;no;0.008;0.018;;;;
MS;Quarterly Journal of Economics;125.3;2010;1101;Carrell;3;;no;other;9d;reg;6;3;yes;no;0.009;0.014;;;;
MS;Quarterly Journal of Economics;125.3;2010;1101;Carrell;3;;no;other;9d;reg;6;4;yes;no;0.010;0.016;;;;
MS;Quarterly Journal of Economics;125.3;2010;1145;Chen;3;;no;other;1a;granger;1;1;yes;yes;;;;;;0.17
MS;Quarterly Journal of Economics;125.3;2010;1145;Chen;3;;no;other;1a;granger;1;2;yes;yes;;;;;;0.11
MS;Quarterly Journal of Economics;125.3;2010;1145;Chen;3;;no;other;1a;granger;1;3;yes;yes;;;;;;0.06
MS;Quarterly Journal of Economics;125.3;2010;1145;Chen;3;;no;other;1a;granger;1;4;yes;yes;;;;;;0.10
MS;Quarterly Journal of Economics;125.3;2010;1145;Chen;3;;no;other;1a;granger;1;5;yes;yes;;;;;;0.01
MS;Quarterly Journal of Economics;125.3;2010;1145;Chen;3;;no;other;1b;granger;1;1;yes;yes;;;;;;0.41
MS;Quarterly Journal of Economics;125.3;2010;1145;Chen;3;;no;other;1b;granger;1;2;yes;yes;;;;;;0.45
MS;Quarterly Journal of Economics;125.3;2010;1145;Chen;3;;no;other;1b;granger;1;3;yes;yes;;;;;;0.92
MS;Quarterly Journal of Economics;125.3;2010;1145;Chen;3;;no;other;1b;granger;1;4;yes;yes;;;;;;0.70
MS;Quarterly Journal of Economics;125.3;2010;1145;Chen;3;;no;other;1b;granger;1;5;yes;yes;;;;;;0.40
MS;Quarterly Journal of Economics;125.3;2010;1145;Chen;3;;no;other;2a;qlr test;1;1;yes;yes;;;;;;0.00
MS;Quarterly Journal of Economics;125.3;2010;1145;Chen;3;;no;other;2a;qlr test;1;2;yes;yes;;;;;;0.13
MS;Quarterly Journal of Economics;125.3;2010;1145;Chen;3;;no;other;2a;qlr test;1;3;yes;yes;;;;;;0.13
MS;Quarterly Journal of Economics;125.3;2010;1145;Chen;3;;no;other;2a;qlr test;1;4;yes;yes;;;;;;0.56
MS;Quarterly Journal of Economics;125.3;2010;1145;Chen;3;;no;other;2a;qlr test;1;5;yes;yes;;;;;;0.00
MS;Quarterly Journal of Economics;125.3;2010;1145;Chen;3;;no;other;2b;qlr test;1;1;yes;yes;;;;;;0.00
MS;Quarterly Journal of Economics;125.3;2010;1145;Chen;3;;no;other;2b;qlr test;1;2;yes;yes;;;;;;0.00
MS;Quarterly Journal of Economics;125.3;2010;1145;Chen;3;;no;other;2b;qlr test;1;3;yes;yes;;;;;;0.05
MS;Quarterly Journal of Economics;125.3;2010;1145;Chen;3;;no;other;2b;qlr test;1;4;yes;yes;;;;;;0.00
MS;Quarterly Journal of Economics;125.3;2010;1145;Chen;3;;no;other;2b;qlr test;1;5;yes;yes;;;;;;0.00
MS;Quarterly Journal of Economics;125.3;2010;1145;Chen;3;;no;other;3a;granger;1;1;yes;yes;;;;;;0.02
MS;Quarterly Journal of Economics;125.3;2010;1145;Chen;3;;no;other;3a;granger;1;2;yes;yes;;;;;;0.07
MS;Quarterly Journal of Economics;125.3;2010;1145;Chen;3;;no;other;3a;granger;1;3;yes;yes;;;;;;0.05
MS;Quarterly Journal of Economics;125.3;2010;1145;Chen;3;;no;other;3a;granger;1;4;yes;yes;;;;;;0.22
MS;Quarterly Journal of Economics;125.3;2010;1145;Chen;3;;no;other;3a;granger;1;5;yes;yes;;;;;;0.00
MS;Quarterly Journal of Economics;125.3;2010;1145;Chen;3;;no;other;3b;granger;1;1;yes;yes;;;;;;0.00
MS;Quarterly Journal of Economics;125.3;2010;1145;Chen;3;;no;other;3b;granger;1;2;yes;yes;;;;;;0.09
MS;Quarterly Journal of Economics;125.3;2010;1145;Chen;3;;no;other;3b;granger;1;3;yes;yes;;;;;;0.36
MS;Quarterly Journal of Economics;125.3;2010;1145;Chen;3;;no;other;3b;granger;1;4;yes;yes;;;;;;0.00
MS;Quarterly Journal of Economics;125.3;2010;1145;Chen;3;;no;other;3b;granger;1;5;yes;yes;;;;;;0.00
MS;Quarterly Journal of Economics;125.3;2010;1145;Chen;3;;no;other;6aa;granger;1;1;yes;yes;;;;;;0.00
MS;Quarterly Journal of Economics;125.3;2010;1145;Chen;3;;no;other;6aa;granger;1;2;yes;yes;;;;;;0.00
MS;Quarterly Journal of Economics;125.3;2010;1145;Chen;3;;no;other;6aa;granger;1;3;yes;yes;;;;;;0.01
MS;Quarterly Journal of Economics;125.3;2010;1145;Chen;3;;no;other;6aa;granger;1;4;yes;yes;;;;;;0.11
MS;Quarterly Journal of Economics;125.3;2010;1145;Chen;3;;no;other;6aa;granger;1;5;yes;yes;;;;;;0.17
MS;Quarterly Journal of Economics;125.3;2010;1145;Chen;3;;no;other;6aa;granger;2;1;yes;yes;;;;;;0.85
MS;Quarterly Journal of Economics;125.3;2010;1145;Chen;3;;no;other;6aa;granger;2;2;yes;yes;;;;;;0.42
MS;Quarterly Journal of Economics;125.3;2010;1145;Chen;3;;no;other;6aa;granger;2;3;yes;yes;;;;;;0.82
MS;Quarterly Journal of Economics;125.3;2010;1145;Chen;3;;no;other;6aa;granger;2;4;yes;yes;;;;;;0.01
MS;Quarterly Journal of Economics;125.3;2010;1145;Chen;3;;no;other;6aa;granger;2;5;yes;yes;;;;;;0.02
MS;Quarterly Journal of Economics;125.3;2010;1145;Chen;3;;no;other;6ab;qlr test;1;1;yes;yes;;;;;;0.08
MS;Quarterly Journal of Economics;125.3;2010;1145;Chen;3;;no;other;6ab;qlr test;1;2;yes;yes;;;;;;0.22
MS;Quarterly Journal of Economics;125.3;2010;1145;Chen;3;;no;other;6ab;qlr test;1;3;yes;yes;;;;;;0.39
MS;Quarterly Journal of Economics;125.3;2010;1145;Chen;3;;no;other;6ab;qlr test;1;4;yes;yes;;;;;;0.00
MS;Quarterly Journal of Economics;125.3;2010;1145;Chen;3;;no;other;6ab;qlr test;1;5;yes;yes;;;;;;0.08
MS;Quarterly Journal of Economics;125.3;2010;1145;Chen;3;;no;other;6ab;qlr test;2;1;yes;yes;;;;;;0.01
MS;Quarterly Journal of Economics;125.3;2010;1145;Chen;3;;no;other;6ab;qlr test;2;2;yes;yes;;;;;;0.00
MS;Quarterly Journal of Economics;125.3;2010;1145;Chen;3;;no;other;6ab;qlr test;2;3;yes;yes;;;;;;0.15
MS;Quarterly Journal of Economics;125.3;2010;1145;Chen;3;;no;other;6ab;qlr test;2;4;yes;yes;;;;;;0.00
MS;Quarterly Journal of Economics;125.3;2010;1145;Chen;3;;no;other;6ab;qlr test;2;5;yes;yes;;;;;;0.02
MS;Quarterly Journal of Economics;125.3;2010;1145;Chen;3;;no;other;6ac;granger;1;1;yes;yes;;;;;;0.00
MS;Quarterly Journal of Economics;125.3;2010;1145;Chen;3;;no;other;6ac;granger;1;2;yes;yes;;;;;;0.00
MS;Quarterly Journal of Economics;125.3;2010;1145;Chen;3;;no;other;6ac;granger;1;3;yes;yes;;;;;;0.04
MS;Quarterly Journal of Economics;125.3;2010;1145;Chen;3;;no;other;6ac;granger;1;4;yes;yes;;;;;;0.00
MS;Quarterly Journal of Economics;125.3;2010;1145;Chen;3;;no;other;6ac;granger;1;5;yes;yes;;;;;;0.21
MS;Quarterly Journal of Economics;125.3;2010;1145;Chen;3;;no;other;6ac;granger;2;1;yes;yes;;;;;;0.17
MS;Quarterly Journal of Economics;125.3;2010;1145;Chen;3;;no;other;6ac;granger;2;2;yes;yes;;;;;;0.04
MS;Quarterly Journal of Economics;125.3;2010;1145;Chen;3;;no;other;6ac;granger;2;3;yes;yes;;;;;;0.36
MS;Quarterly Journal of Economics;125.3;2010;1145;Chen;3;;no;other;6ac;granger;2;4;yes;yes;;;;;;0.00
MS;Quarterly Journal of Economics;125.3;2010;1145;Chen;3;;no;other;6ac;granger;2;5;yes;yes;;;;;;0.00
MS;Quarterly Journal of Economics;125.3;2010;1145;Chen;3;;no;other;6ba;granger;1;1;yes;yes;;;;;;0.00
MS;Quarterly Journal of Economics;125.3;2010;1145;Chen;3;;no;other;6ba;granger;1;2;yes;yes;;;;;;0.00
MS;Quarterly Journal of Economics;125.3;2010;1145;Chen;3;;no;other;6ba;granger;1;3;yes;yes;;;;;;0.02
MS;Quarterly Journal of Economics;125.3;2010;1145;Chen;3;;no;other;6ba;granger;1;4;yes;yes;;;;;;0.06
MS;Quarterly Journal of Economics;125.3;2010;1145;Chen;3;;no;other;6ba;granger;1;5;yes;yes;;;;;;0.15
MS;Quarterly Journal of Economics;125.3;2010;1145;Chen;3;;no;other;6ba;granger;2;1;yes;yes;;;;;;0.59
MS;Quarterly Journal of Economics;125.3;2010;1145;Chen;3;;no;other;6ba;granger;2;2;yes;yes;;;;;;0.22
MS;Quarterly Journal of Economics;125.3;2010;1145;Chen;3;;no;other;6ba;granger;2;3;yes;yes;;;;;;0.64
MS;Quarterly Journal of Economics;125.3;2010;1145;Chen;3;;no;other;6ba;granger;2;4;yes;yes;;;;;;0.44
MS;Quarterly Journal of Economics;125.3;2010;1145;Chen;3;;no;other;6ba;granger;2;5;yes;yes;;;;;;0.71
MS;Quarterly Journal of Economics;125.3;2010;1145;Chen;3;;no;other;6bb;qlr test;1;1;yes;yes;;;;;;1.00
MS;Quarterly Journal of Economics;125.3;2010;1145;Chen;3;;no;other;6bb;qlr test;1;2;yes;yes;;;;;;0.15
MS;Quarterly Journal of Economics;125.3;2010;1145;Chen;3;;no;other;6bb;qlr test;1;3;yes;yes;;;;;;0.37
MS;Quarterly Journal of Economics;125.3;2010;1145;Chen;3;;no;other;6bb;qlr test;1;4;yes;yes;;;;;;0.00
MS;Quarterly Journal of Economics;125.3;2010;1145;Chen;3;;no;other;6bb;qlr test;1;5;yes;yes;;;;;;0.15
MS;Quarterly Journal of Economics;125.3;2010;1145;Chen;3;;no;other;6bb;qlr test;2;1;yes;yes;;;;;;0.26
MS;Quarterly Journal of Economics;125.3;2010;1145;Chen;3;;no;other;6bb;qlr test;2;2;yes;yes;;;;;;0.11
MS;Quarterly Journal of Economics;125.3;2010;1145;Chen;3;;no;other;6bb;qlr test;2;3;yes;yes;;;;;;0.86
MS;Quarterly Journal of Economics;125.3;2010;1145;Chen;3;;no;other;6bb;qlr test;2;4;yes;yes;;;;;;1.00
MS;Quarterly Journal of Economics;125.3;2010;1145;Chen;3;;no;other;6bb;qlr test;2;5;yes;yes;;;;;;0.53
MS;Quarterly Journal of Economics;125.3;2010;1145;Chen;3;;no;other;6bc;granger;1;1;yes;yes;;;;;;0.00
MS;Quarterly Journal of Economics;125.3;2010;1145;Chen;3;;no;other;6bc;granger;1;2;yes;yes;;;;;;0.00
MS;Quarterly Journal of Economics;125.3;2010;1145;Chen;3;;no;other;6bc;granger;1;3;yes;yes;;;;;;0.04
MS;Quarterly Journal of Economics;125.3;2010;1145;Chen;3;;no;other;6bc;granger;1;4;yes;yes;;;;;;0.00
MS;Quarterly Journal of Economics;125.3;2010;1145;Chen;3;;no;other;6bc;granger;1;5;yes;yes;;;;;;0.12
MS;Quarterly Journal of Economics;125.3;2010;1145;Chen;3;;no;other;6bc;granger;2;1;yes;yes;;;;;;0.66
MS;Quarterly Journal of Economics;125.3;2010;1145;Chen;3;;no;other;6bc;granger;2;2;yes;yes;;;;;;0.26
MS;Quarterly Journal of Economics;125.3;2010;1145;Chen;3;;no;other;6bc;granger;2;3;yes;yes;;;;;;1.00
MS;Quarterly Journal of Economics;125.3;2010;1145;Chen;3;;no;other;6bc;granger;2;4;yes;yes;;;;;;1.00
MS;Quarterly Journal of Economics;125.3;2010;1145;Chen;3;;no;other;6bc;granger;2;5;yes;yes;;;;;;1.00
MS;Quarterly Journal of Economics;125.3;2010;1145;Chen;3;;no;other;7aa;granger;1;1;yes;no;;;;;;0.18
MS;Quarterly Journal of Economics;125.3;2010;1145;Chen;3;;no;other;7aa;granger;1;2;yes;no;;;;;;0.22
MS;Quarterly Journal of Economics;125.3;2010;1145;Chen;3;;no;other;7aa;granger;1;3;yes;no;;;;;;0.11
MS;Quarterly Journal of Economics;125.3;2010;1145;Chen;3;;no;other;7aa;granger;1;4;yes;no;;;;;;0.22
MS;Quarterly Journal of Economics;125.3;2010;1145;Chen;3;;no;other;7aa;granger;1;5;yes;no;;;;;;0.00
MS;Quarterly Journal of Economics;125.3;2010;1145;Chen;3;;no;other;7aa;granger;2;1;yes;no;;;;;;0.06
MS;Quarterly Journal of Economics;125.3;2010;1145;Chen;3;;no;other;7aa;granger;2;2;yes;no;;;;;;0.07
MS;Quarterly Journal of Economics;125.3;2010;1145;Chen;3;;no;other;7aa;granger;2;3;yes;no;;;;;;0.62
MS;Quarterly Journal of Economics;125.3;2010;1145;Chen;3;;no;other;7aa;granger;2;4;yes;no;;;;;;0.32
MS;Quarterly Journal of Economics;125.3;2010;1145;Chen;3;;no;other;7aa;granger;2;5;yes;no;;;;;;0.38
MS;Quarterly Journal of Economics;125.3;2010;1145;Chen;3;;no;other;7ab;qlr test;1;1;yes;no;;;;;;0.00
MS;Quarterly Journal of Economics;125.3;2010;1145;Chen;3;;no;other;7ab;qlr test;1;2;yes;no;;;;;;0.02
MS;Quarterly Journal of Economics;125.3;2010;1145;Chen;3;;no;other;7ab;qlr test;1;3;yes;no;;;;;;0.02
MS;Quarterly Journal of Economics;125.3;2010;1145;Chen;3;;no;other;7ab;qlr test;1;4;yes;no;;;;;;0.03
MS;Quarterly Journal of Economics;125.3;2010;1145;Chen;3;;no;other;7ab;qlr test;1;5;yes;no;;;;;;0.00
MS;Quarterly Journal of Economics;125.3;2010;1145;Chen;3;;no;other;7ab;qlr test;2;1;yes;no;;;;;;0.01
MS;Quarterly Journal of Economics;125.3;2010;1145;Chen;3;;no;other;7ab;qlr test;2;2;yes;no;;;;;;1.00
MS;Quarterly Journal of Economics;125.3;2010;1145;Chen;3;;no;other;7ab;qlr test;2;3;yes;no;;;;;;0.16
MS;Quarterly Journal of Economics;125.3;2010;1145;Chen;3;;no;other;7ab;qlr test;2;4;yes;no;;;;;;0.00
MS;Quarterly Journal of Economics;125.3;2010;1145;Chen;3;;no;other;7ab;qlr test;2;5;yes;no;;;;;;0.17
MS;Quarterly Journal of Economics;125.3;2010;1145;Chen;3;;no;other;7ac;granger;1;1;yes;no;;;;;;0.01
MS;Quarterly Journal of Economics;125.3;2010;1145;Chen;3;;no;other;7ac;granger;1;2;yes;no;;;;;;0.26
MS;Quarterly Journal of Economics;125.3;2010;1145;Chen;3;;no;other;7ac;granger;1;3;yes;no;;;;;;0.03
MS;Quarterly Journal of Economics;125.3;2010;1145;Chen;3;;no;other;7ac;granger;1;4;yes;no;;;;;;0.00
MS;Quarterly Journal of Economics;125.3;2010;1145;Chen;3;;no;other;7ac;granger;1;5;yes;no;;;;;;0.00
MS;Quarterly Journal of Economics;125.3;2010;1145;Chen;3;;no;other;7ac;granger;2;1;yes;no;;;;;;0.01
MS;Quarterly Journal of Economics;125.3;2010;1145;Chen;3;;no;other;7ac;granger;2;2;yes;no;;;;;;0.00
MS;Quarterly Journal of Economics;125.3;2010;1145;Chen;3;;no;other;7ac;granger;2;3;yes;no;;;;;;0.79
MS;Quarterly Journal of Economics;125.3;2010;1145;Chen;3;;no;other;7ac;granger;2;4;yes;no;;;;;;0.00
MS;Quarterly Journal of Economics;125.3;2010;1145;Chen;3;;no;other;7ac;granger;2;5;yes;no;;;;;;0.22
MS;Quarterly Journal of Economics;125.3;2010;1145;Chen;3;;no;other;7ba;granger;1;1;yes;no;;;;;;0.16
MS;Quarterly Journal of Economics;125.3;2010;1145;Chen;3;;no;other;7ba;granger;1;2;yes;no;;;;;;0.41
MS;Quarterly Journal of Economics;125.3;2010;1145;Chen;3;;no;other;7ba;granger;1;3;yes;no;;;;;;0.06
MS;Quarterly Journal of Economics;125.3;2010;1145;Chen;3;;no;other;7ba;granger;1;4;yes;no;;;;;;0.15
MS;Quarterly Journal of Economics;125.3;2010;1145;Chen;3;;no;other;7ba;granger;1;5;yes;no;;;;;;0.01
MS;Quarterly Journal of Economics;125.3;2010;1145;Chen;3;;no;other;7ba;granger;2;1;yes;no;;;;;;0.78
MS;Quarterly Journal of Economics;125.3;2010;1145;Chen;3;;no;other;7ba;granger;2;2;yes;no;;;;;;0.06
MS;Quarterly Journal of Economics;125.3;2010;1145;Chen;3;;no;other;7ba;granger;2;3;yes;no;;;;;;0.50
MS;Quarterly Journal of Economics;125.3;2010;1145;Chen;3;;no;other;7ba;granger;2;4;yes;no;;;;;;0.21
MS;Quarterly Journal of Economics;125.3;2010;1145;Chen;3;;no;other;7ba;granger;2;5;yes;no;;;;;;0.15
MS;Quarterly Journal of Economics;125.3;2010;1145;Chen;3;;no;other;7bb;qlr test;1;1;yes;no;;;;;;0.00
MS;Quarterly Journal of Economics;125.3;2010;1145;Chen;3;;no;other;7bb;qlr test;1;2;yes;no;;;;;;0.01
MS;Quarterly Journal of Economics;125.3;2010;1145;Chen;3;;no;other;7bb;qlr test;1;3;yes;no;;;;;;0.03
MS;Quarterly Journal of Economics;125.3;2010;1145;Chen;3;;no;other;7bb;qlr test;1;4;yes;no;;;;;;0.01
MS;Quarterly Journal of Economics;125.3;2010;1145;Chen;3;;no;other;7bb;qlr test;1;5;yes;no;;;;;;0.00
MS;Quarterly Journal of Economics;125.3;2010;1145;Chen;3;;no;other;7bb;qlr test;2;1;yes;no;;;;;;0.07
MS;Quarterly Journal of Economics;125.3;2010;1145;Chen;3;;no;other;7bb;qlr test;2;2;yes;no;;;;;;1.00
MS;Quarterly Journal of Economics;125.3;2010;1145;Chen;3;;no;other;7bb;qlr test;2;3;yes;no;;;;;;1.00
MS;Quarterly Journal of Economics;125.3;2010;1145;Chen;3;;no;other;7bb;qlr test;2;4;yes;no;;;;;;0.05
MS;Quarterly Journal of Economics;125.3;2010;1145;Chen;3;;no;other;7bb;qlr test;2;5;yes;no;;;;;;0.00
MS;Quarterly Journal of Economics;125.3;2010;1145;Chen;3;;no;other;7bc;granger;1;1;yes;no;;;;;;0.00
MS;Quarterly Journal of Economics;125.3;2010;1145;Chen;3;;no;other;7bc;granger;1;2;yes;no;;;;;;0.01
MS;Quarterly Journal of Economics;125.3;2010;1145;Chen;3;;no;other;7bc;granger;1;3;yes;no;;;;;;0.00
MS;Quarterly Journal of Economics;125.3;2010;1145;Chen;3;;no;other;7bc;granger;1;4;yes;no;;;;;;0.02
MS;Quarterly Journal of Economics;125.3;2010;1145;Chen;3;;no;other;7bc;granger;1;5;yes;no;;;;;;0.00
MS;Quarterly Journal of Economics;125.3;2010;1145;Chen;3;;no;other;7bc;granger;2;1;yes;no;;;;;;0.09
MS;Quarterly Journal of Economics;125.3;2010;1145;Chen;3;;no;other;7bc;granger;2;2;yes;no;;;;;;0.08
MS;Quarterly Journal of Economics;125.3;2010;1145;Chen;3;;no;other;7bc;granger;2;3;yes;no;;;;;;1.00
MS;Quarterly Journal of Economics;125.3;2010;1145;Chen;3;;no;other;7bc;granger;2;4;yes;no;;;;;;0.05
MS;Quarterly Journal of Economics;125.3;2010;1145;Chen;3;;no;other;7bc;granger;2;5;yes;no;;;;;;0.00
MS;Quarterly Journal of Economics;125.3;2010;1145;Chen;3;;no;other;9a;granger;1;1;yes;no;;;;;;0.85
MS;Quarterly Journal of Economics;125.3;2010;1145;Chen;3;;no;other;9a;granger;1;2;yes;no;;;;;;0.09
MS;Quarterly Journal of Economics;125.3;2010;1145;Chen;3;;no;other;9a;granger;1;3;yes;no;;;;;;0.75
MS;Quarterly Journal of Economics;125.3;2010;1145;Chen;3;;no;other;9a;granger;1;4;yes;no;;;;;;0.03
MS;Quarterly Journal of Economics;125.3;2010;1145;Chen;3;;no;other;9a;granger;2;1;yes;no;;;;;;0.21
MS;Quarterly Journal of Economics;125.3;2010;1145;Chen;3;;no;other;9a;granger;2;2;yes;no;;;;;;0.44
MS;Quarterly Journal of Economics;125.3;2010;1145;Chen;3;;no;other;9a;granger;2;3;yes;no;;;;;;0.72
MS;Quarterly Journal of Economics;125.3;2010;1145;Chen;3;;no;other;9a;granger;2;4;yes;no;;;;;;0.01
MS;Quarterly Journal of Economics;125.3;2010;1145;Chen;3;;no;other;9b;qlr test;1;1;yes;no;;;;;;1.00
MS;Quarterly Journal of Economics;125.3;2010;1145;Chen;3;;no;other;9b;qlr test;1;2;yes;no;;;;;;0.80
MS;Quarterly Journal of Economics;125.3;2010;1145;Chen;3;;no;other;9b;qlr test;1;3;yes;no;;;;;;0.84
MS;Quarterly Journal of Economics;125.3;2010;1145;Chen;3;;no;other;9b;qlr test;1;4;yes;no;;;;;;0.71
MS;Quarterly Journal of Economics;125.3;2010;1145;Chen;3;;no;other;9b;qlr test;2;1;yes;no;;;;;;0.56
MS;Quarterly Journal of Economics;125.3;2010;1145;Chen;3;;no;other;9b;qlr test;2;2;yes;no;;;;;;0.58
MS;Quarterly Journal of Economics;125.3;2010;1145;Chen;3;;no;other;9b;qlr test;2;3;yes;no;;;;;;0.23
MS;Quarterly Journal of Economics;125.3;2010;1145;Chen;3;;no;other;9b;qlr test;2;4;yes;no;;;;;;0.00
MS;Quarterly Journal of Economics;125.3;2010;1145;Chen;3;;no;other;9c;granger;1;1;yes;no;;;;;;0.87
MS;Quarterly Journal of Economics;125.3;2010;1145;Chen;3;;no;other;9c;granger;1;2;yes;no;;;;;;0.12
MS;Quarterly Journal of Economics;125.3;2010;1145;Chen;3;;no;other;9c;granger;1;3;yes;no;;;;;;1.00
MS;Quarterly Journal of Economics;125.3;2010;1145;Chen;3;;no;other;9c;granger;1;4;yes;no;;;;;;0.24
MS;Quarterly Journal of Economics;125.3;2010;1145;Chen;3;;no;other;9c;granger;2;1;yes;no;;;;;;0.29
MS;Quarterly Journal of Economics;125.3;2010;1145;Chen;3;;no;other;9c;granger;2;2;yes;no;;;;;;0.61
MS;Quarterly Journal of Economics;125.3;2010;1145;Chen;3;;no;other;9c;granger;2;3;yes;no;;;;;;0.44
MS;Quarterly Journal of Economics;125.3;2010;1145;Chen;3;;no;other;9c;granger;2;4;yes;no;;;;;;0.00
MS;Quarterly Journal of Economics;125.3;2010;877;Einav;3;;yes;other;3;reg;1;1;no;yes;-0.00070;0.00032;;;;
MS;Quarterly Journal of Economics;125.3;2010;877;Einav;3;;yes;other;3;reg;1;2;no;yes;0.15524;0.06388;;;;
MS;Quarterly Journal of Economics;125.3;2010;1051;Lileeva;2;;yes;other;3a;reg;1;3;no;yes;;;;;13.01;
MS;Quarterly Journal of Economics;125.3;2010;1051;Lileeva;2;;yes;other;3a;reg;1;5;no;yes;;;;;-22.58;
MS;Quarterly Journal of Economics;125.3;2010;1051;Lileeva;2;;yes;other;3a;reg;1;7;no;yes;;;;;-35.47;
MS;Quarterly Journal of Economics;125.3;2010;1051;Lileeva;2;;yes;other;3a;reg;1;9;no;yes;;;;;5.55;
MS;Quarterly Journal of Economics;125.3;2010;1051;Lileeva;2;;yes;other;3a;reg;2;3;no;yes;;;;;8.12;
MS;Quarterly Journal of Economics;125.3;2010;1051;Lileeva;2;;yes;other;3a;reg;2;5;no;yes;;;;;-7.46;
MS;Quarterly Journal of Economics;125.3;2010;1051;Lileeva;2;;yes;other;3a;reg;2;7;no;yes;;;;;-10.27;
MS;Quarterly Journal of Economics;125.3;2010;1051;Lileeva;2;;yes;other;3a;reg;2;9;no;yes;;;;;2.04;
MS;Quarterly Journal of Economics;125.3;2010;1051;Lileeva;2;;yes;other;3a;reg;3;3;no;yes;;;;;9.64;
MS;Quarterly Journal of Economics;125.3;2010;1051;Lileeva;2;;yes;other;3a;reg;3;5;no;yes;;;;;-9.40;
MS;Quarterly Journal of Economics;125.3;2010;1051;Lileeva;2;;yes;other;3a;reg;3;7;no;yes;;;;;-15.74;
MS;Quarterly Journal of Economics;125.3;2010;1051;Lileeva;2;;yes;other;3a;reg;3;9;no;yes;;;;;-0.58;
MS;Quarterly Journal of Economics;125.3;2010;1051;Lileeva;2;;yes;other;3a;reg;4;3;no;yes;;;;;6.67;
MS;Quarterly Journal of Economics;125.3;2010;1051;Lileeva;2;;yes;other;3a;reg;4;5;no;yes;;;;;-10.44;
MS;Quarterly Journal of Economics;125.3;2010;1051;Lileeva;2;;yes;other;3a;reg;4;7;no;yes;;;;;-18.03;
MS;Quarterly Journal of Economics;125.3;2010;1051;Lileeva;2;;yes;other;3a;reg;4;9;no;yes;;;;;1.39;
MS;Quarterly Journal of Economics;125.3;2010;1051;Lileeva;2;;yes;other;3a;reg;5;3;no;yes;;;;;3.48;
MS;Quarterly Journal of Economics;125.3;2010;1051;Lileeva;2;;yes;other;3a;reg;5;5;no;yes;;;;;-8.45;
MS;Quarterly Journal of Economics;125.3;2010;1051;Lileeva;2;;yes;other;3a;reg;5;7;no;yes;;;;;-12.45;
MS;Quarterly Journal of Economics;125.3;2010;1051;Lileeva;2;;yes;other;3a;reg;5;9;no;yes;;;;;3.36;
MS;Quarterly Journal of Economics;125.3;2010;1051;Lileeva;2;;yes;other;3a;reg;6;3;no;yes;;;;;2.79;
MS;Quarterly Journal of Economics;125.3;2010;1051;Lileeva;2;;yes;other;3a;reg;6;5;no;yes;;;;;-7.19;
MS;Quarterly Journal of Economics;125.3;2010;1051;Lileeva;2;;yes;other;3a;reg;6;7;no;yes;;;;;-9.16;
MS;Quarterly Journal of Economics;125.3;2010;1051;Lileeva;2;;yes;other;3a;reg;6;9;no;yes;;;;;3.64;
MS;Quarterly Journal of Economics;125.3;2010;1051;Lileeva;2;;yes;other;3b;ivreg2;1;3;no;yes;;;;;15.92;
MS;Quarterly Journal of Economics;125.3;2010;1051;Lileeva;2;;yes;other;3b;ivreg2;1;5;no;yes;;;;;-25.33;
MS;Quarterly Journal of Economics;125.3;2010;1051;Lileeva;2;;yes;other;3b;ivreg2;1;7;no;yes;;;;;-37.77;
MS;Quarterly Journal of Economics;125.3;2010;1051;Lileeva;2;;yes;other;3b;ivreg2;1;9;no;yes;;;;;-6.01;
MS;Quarterly Journal of Economics;125.3;2010;1051;Lileeva;2;;yes;other;3b;ivreg2;2;3;no;yes;;;;;9.87;
MS;Quarterly Journal of Economics;125.3;2010;1051;Lileeva;2;;yes;other;3b;ivreg2;2;5;no;yes;;;;;-7.88;
MS;Quarterly Journal of Economics;125.3;2010;1051;Lileeva;2;;yes;other;3b;ivreg2;2;7;no;yes;;;;;-10.06;
MS;Quarterly Journal of Economics;125.3;2010;1051;Lileeva;2;;yes;other;3b;ivreg2;2;9;no;yes;;;;;-0.70;
MS;Quarterly Journal of Economics;125.3;2010;1051;Lileeva;2;;yes;other;3b;ivreg2;3;3;no;yes;;;;;10.30;
MS;Quarterly Journal of Economics;125.3;2010;1051;Lileeva;2;;yes;other;3b;ivreg2;3;5;no;yes;;;;;-10.52;
MS;Quarterly Journal of Economics;125.3;2010;1051;Lileeva;2;;yes;other;3b;ivreg2;3;7;no;yes;;;;;-15.35;
MS;Quarterly Journal of Economics;125.3;2010;1051;Lileeva;2;;yes;other;3b;ivreg2;3;9;no;yes;;;;;-4.98;
MS;Quarterly Journal of Economics;125.3;2010;1051;Lileeva;2;;yes;other;3b;ivreg2;4;3;no;yes;;;;;7.72;
MS;Quarterly Journal of Economics;125.3;2010;1051;Lileeva;2;;yes;other;3b;ivreg2;4;5;no;yes;;;;;-10.45;
MS;Quarterly Journal of Economics;125.3;2010;1051;Lileeva;2;;yes;other;3b;ivreg2;4;7;no;yes;;;;;-16.99;
MS;Quarterly Journal of Economics;125.3;2010;1051;Lileeva;2;;yes;other;3b;ivreg2;4;9;no;yes;;;;;-3.43;
MS;Quarterly Journal of Economics;125.3;2010;1051;Lileeva;2;;yes;other;3b;ivreg2;5;3;no;yes;;;;;4.57;
MS;Quarterly Journal of Economics;125.3;2010;1051;Lileeva;2;;yes;other;3b;ivreg2;5;5;no;yes;;;;;-7.14;
MS;Quarterly Journal of Economics;125.3;2010;1051;Lileeva;2;;yes;other;3b;ivreg2;5;7;no;yes;;;;;-11.90;
MS;Quarterly Journal of Economics;125.3;2010;1051;Lileeva;2;;yes;other;3b;ivreg2;5;9;no;yes;;;;;-0.19;
MS;Quarterly Journal of Economics;125.3;2010;1051;Lileeva;2;;yes;other;3b;ivreg2;6;3;no;yes;;;;;2.44;
MS;Quarterly Journal of Economics;125.3;2010;1051;Lileeva;2;;yes;other;3b;ivreg2;6;5;no;yes;;;;;-7.25;
MS;Quarterly Journal of Economics;125.3;2010;1051;Lileeva;2;;yes;other;3b;ivreg2;6;7;no;yes;;;;;-9.28;
MS;Quarterly Journal of Economics;125.3;2010;1051;Lileeva;2;;yes;other;3b;ivreg2;6;9;no;yes;;;;;2.79;
MS;Quarterly Journal of Economics;125.3;2010;1051;Lileeva;2;;yes;other;5a;ivreg2;1;2;no;yes;;;;;7.34;
MS;Quarterly Journal of Economics;125.3;2010;1051;Lileeva;2;;yes;other;5a;reg;1;8;no;yes;;;;;7.32;
MS;Quarterly Journal of Economics;125.3;2010;1051;Lileeva;2;;yes;other;5a;ivreg2;2;2;no;yes;;;;;7.77;
MS;Quarterly Journal of Economics;125.3;2010;1051;Lileeva;2;;yes;other;5a;reg;2;8;no;yes;;;;;8.29;
MS;Quarterly Journal of Economics;125.3;2010;1051;Lileeva;2;;yes;other;5a;ivreg2;3;2;no;yes;;;;;6.21;
MS;Quarterly Journal of Economics;125.3;2010;1051;Lileeva;2;;yes;other;5a;reg;3;8;no;yes;;;;;6.71;
MS;Quarterly Journal of Economics;125.3;2010;1051;Lileeva;2;;yes;other;5a;ivreg2;4;2;no;yes;;;;;2.54;
MS;Quarterly Journal of Economics;125.3;2010;1051;Lileeva;2;;yes;other;5a;reg;4;8;no;yes;;;;;2.76;
MS;Quarterly Journal of Economics;125.3;2010;1051;Lileeva;2;;yes;other;5a;ivreg2;5;2;no;yes;;;;;1.01;
MS;Quarterly Journal of Economics;125.3;2010;1051;Lileeva;2;;yes;other;5a;reg;5;8;no;yes;;;;;1.97;
MS;Quarterly Journal of Economics;125.3;2010;1051;Lileeva;2;;yes;other;5b;ivreg2;1;2;no;yes;;;;;7.34;
MS;Quarterly Journal of Economics;125.3;2010;1051;Lileeva;2;;yes;other;5b;reg;1;8;no;yes;;;;;6.99;
MS;Quarterly Journal of Economics;125.3;2010;1051;Lileeva;2;;yes;other;5b;ivreg2;2;2;no;yes;;;;;7.71;
MS;Quarterly Journal of Economics;125.3;2010;1051;Lileeva;2;;yes;other;5b;reg;2;8;no;yes;;;;;7.86;
MS;Quarterly Journal of Economics;125.3;2010;1051;Lileeva;2;;yes;other;5b;ivreg2;3;2;no;yes;;;;;6.06;
MS;Quarterly Journal of Economics;125.3;2010;1051;Lileeva;2;;yes;other;5b;reg;3;8;no;yes;;;;;6.08;
MS;Quarterly Journal of Economics;125.3;2010;1051;Lileeva;2;;yes;other;5b;ivreg2;4;2;no;yes;;;;;2.93;
MS;Quarterly Journal of Economics;125.3;2010;1051;Lileeva;2;;yes;other;5b;reg;4;8;no;yes;;;;;2.46;
MS;Quarterly Journal of Economics;125.3;2010;1051;Lileeva;2;;yes;other;5b;ivreg2;5;2;no;yes;;;;;0.88;
MS;Quarterly Journal of Economics;125.3;2010;1051;Lileeva;2;;yes;other;5b;reg;5;8;no;yes;;;;;1.59;
MS;Quarterly Journal of Economics;125.3;2010;1051;Lileeva;2;;yes;other;5c;ivreg2;1;2;no;yes;;;;;8.27;
MS;Quarterly Journal of Economics;125.3;2010;1051;Lileeva;2;;yes;other;5c;reg;1;8;no;yes;;;;;7.86;
MS;Quarterly Journal of Economics;125.3;2010;1051;Lileeva;2;;yes;other;5c;ivreg2;2;2;no;yes;;;;;7.66;
MS;Quarterly Journal of Economics;125.3;2010;1051;Lileeva;2;;yes;other;5c;reg;2;8;no;yes;;;;;8.10;
MS;Quarterly Journal of Economics;125.3;2010;1051;Lileeva;2;;yes;other;5c;ivreg2;3;2;no;yes;;;;;4.65;
MS;Quarterly Journal of Economics;125.3;2010;1051;Lileeva;2;;yes;other;5c;reg;3;8;no;yes;;;;;6.22;
MS;Quarterly Journal of Economics;125.3;2010;1051;Lileeva;2;;yes;other;5c;ivreg2;4;2;no;yes;;;;;3.38;
MS;Quarterly Journal of Economics;125.3;2010;1051;Lileeva;2;;yes;other;5c;reg;4;8;no;yes;;;;;4.04;
MS;Quarterly Journal of Economics;125.3;2010;1051;Lileeva;2;;yes;other;5d;ivreg2;1;2;no;yes;;;;;7.91;
MS;Quarterly Journal of Economics;125.3;2010;1051;Lileeva;2;;yes;other;5d;reg;1;8;no;yes;;;;;7.32;
MS;Quarterly Journal of Economics;125.3;2010;1051;Lileeva;2;;yes;other;5d;ivreg2;2;2;no;yes;;;;;8.72;
MS;Quarterly Journal of Economics;125.3;2010;1051;Lileeva;2;;yes;other;5d;reg;2;8;no;yes;;;;;8.29;
MS;Quarterly Journal of Economics;125.3;2010;1051;Lileeva;2;;yes;other;5d;ivreg2;3;2;no;yes;;;;;7.32;
MS;Quarterly Journal of Economics;125.3;2010;1051;Lileeva;2;;yes;other;5d;reg;3;8;no;yes;;;;;6.71;
MS;Quarterly Journal of Economics;125.3;2010;1051;Lileeva;2;;yes;other;5d;ivreg2;4;2;no;yes;;;;;2.95;
MS;Quarterly Journal of Economics;125.3;2010;1051;Lileeva;2;;yes;other;5d;reg;4;8;no;yes;;;;;2.76;
MS;Quarterly Journal of Economics;125.3;2010;1051;Lileeva;2;;yes;other;5d;ivreg2;5;2;no;yes;;;;;1.15;
MS;Quarterly Journal of Economics;125.3;2010;1051;Lileeva;2;;yes;other;5d;reg;5;8;no;yes;;;;;1.97;
MS;Quarterly Journal of Economics;125.3;2010;1051;Lileeva;2;;yes;other;6b;ivreg2;1;6;no;yes;;;;;3.22;
MS;Quarterly Journal of Economics;125.3;2010;1051;Lileeva;2;;yes;other;6b;ivreg2;1;8;no;yes;;;;;2.03;
MS;Quarterly Journal of Economics;125.3;2010;1051;Lileeva;2;;yes;other;6b;ivreg2;1;12;no;yes;;;;;8.82;
MS;Quarterly Journal of Economics;125.3;2010;1051;Lileeva;2;;yes;other;6b;ivreg2;2;6;no;yes;;;;;5.65;
MS;Quarterly Journal of Economics;125.3;2010;1051;Lileeva;2;;yes;other;6b;ivreg2;2;8;no;yes;;;;;-0.01;
MS;Quarterly Journal of Economics;125.3;2010;1051;Lileeva;2;;yes;other;6b;ivreg2;2;12;no;yes;;;;;8.22;
MS;Quarterly Journal of Economics;125.3;2010;1051;Lileeva;2;;yes;other;6b;ivreg2;3;6;no;yes;;;;;3.85;
MS;Quarterly Journal of Economics;125.3;2010;1051;Lileeva;2;;yes;other;6b;ivreg2;3;8;no;yes;;;;;1.01;
MS;Quarterly Journal of Economics;125.3;2010;1051;Lileeva;2;;yes;other;6b;ivreg2;3;12;no;yes;;;;;6.70;
MS;Quarterly Journal of Economics;125.3;2010;1051;Lileeva;2;;yes;other;6b;ivreg2;4;6;no;yes;;;;;1.96;
MS;Quarterly Journal of Economics;125.3;2010;1051;Lileeva;2;;yes;other;6b;ivreg2;4;8;no;yes;;;;;1.41;
MS;Quarterly Journal of Economics;125.3;2010;1051;Lileeva;2;;yes;other;6b;ivreg2;4;12;no;yes;;;;;3.27;
MS;Quarterly Journal of Economics;125.3;2010;1051;Lileeva;2;;yes;other;6b;ivreg2;5;6;no;yes;;;;;0.93;
MS;Quarterly Journal of Economics;125.3;2010;1051;Lileeva;2;;yes;other;6b;ivreg2;5;8;no;yes;;;;;0.61;
MS;Quarterly Journal of Economics;125.3;2010;1051;Lileeva;2;;yes;other;6b;ivreg2;5;12;no;yes;;;;;1.02;
MS;Quarterly Journal of Economics;125.3;2010;1051;Lileeva;2;;yes;other;6c;ivreg2;1;6;no;yes;;;;;3.25;
MS;Quarterly Journal of Economics;125.3;2010;1051;Lileeva;2;;yes;other;6c;ivreg2;1;8;no;yes;;;;;1.48;
MS;Quarterly Journal of Economics;125.3;2010;1051;Lileeva;2;;yes;other;6c;ivreg2;1;10;no;yes;;;;;2.52;
MS;Quarterly Journal of Economics;125.3;2010;1051;Lileeva;2;;yes;other;6c;ivreg2;1;12;no;yes;;;;;8.67;
MS;Quarterly Journal of Economics;125.3;2010;1051;Lileeva;2;;yes;other;6c;ivreg2;2;6;no;yes;;;;;4.56;
MS;Quarterly Journal of Economics;125.3;2010;1051;Lileeva;2;;yes;other;6c;ivreg2;2;8;no;yes;;;;;-0.17;
MS;Quarterly Journal of Economics;125.3;2010;1051;Lileeva;2;;yes;other;6c;ivreg2;2;10;no;yes;;;;;2.72;
MS;Quarterly Journal of Economics;125.3;2010;1051;Lileeva;2;;yes;other;6c;ivreg2;2;12;no;yes;;;;;8.12;
MS;Quarterly Journal of Economics;125.3;2010;1051;Lileeva;2;;yes;other;6c;ivreg2;3;6;no;yes;;;;;3.39;
MS;Quarterly Journal of Economics;125.3;2010;1051;Lileeva;2;;yes;other;6c;ivreg2;3;8;no;yes;;;;;0.62;
MS;Quarterly Journal of Economics;125.3;2010;1051;Lileeva;2;;yes;other;6c;ivreg2;3;10;no;yes;;;;;2.19;
MS;Quarterly Journal of Economics;125.3;2010;1051;Lileeva;2;;yes;other;6c;ivreg2;3;12;no;yes;;;;;6.66;
MS;Quarterly Journal of Economics;125.3;2010;1051;Lileeva;2;;yes;other;6c;ivreg2;4;6;no;yes;;;;;1.92;
MS;Quarterly Journal of Economics;125.3;2010;1051;Lileeva;2;;yes;other;6c;ivreg2;4;8;no;yes;;;;;1.38;
MS;Quarterly Journal of Economics;125.3;2010;1051;Lileeva;2;;yes;other;6c;ivreg2;4;10;no;yes;;;;;0.17;
MS;Quarterly Journal of Economics;125.3;2010;1051;Lileeva;2;;yes;other;6c;ivreg2;4;12;no;yes;;;;;3.27;
MS;Quarterly Journal of Economics;125.3;2010;1051;Lileeva;2;;yes;other;6c;ivreg2;5;6;no;yes;;;;;0.79;
MS;Quarterly Journal of Economics;125.3;2010;1051;Lileeva;2;;yes;other;6c;ivreg2;5;8;no;yes;;;;;0.21;
MS;Quarterly Journal of Economics;125.3;2010;1051;Lileeva;2;;yes;other;6c;ivreg2;5;10;no;yes;;;;;0.98;
MS;Quarterly Journal of Economics;125.3;2010;1051;Lileeva;2;;yes;other;6c;ivreg2;5;12;no;yes;;;;;1.09;
MS;Quarterly Journal of Economics;125.3;2010;1051;Lileeva;2;;yes;other;6d;ivreg2;1;6;no;yes;;;;;3.35;
MS;Quarterly Journal of Economics;125.3;2010;1051;Lileeva;2;;yes;other;6d;ivreg2;1;8;no;yes;;;;;1.97;
MS;Quarterly Journal of Economics;125.3;2010;1051;Lileeva;2;;yes;other;6d;ivreg2;1;10;no;yes;;;;;-0.96;
MS;Quarterly Journal of Economics;125.3;2010;1051;Lileeva;2;;yes;other;6d;ivreg2;1;12;no;yes;;;;;9.04;
MS;Quarterly Journal of Economics;125.3;2010;1051;Lileeva;2;;yes;other;6d;ivreg2;2;6;no;yes;;;;;5.66;
MS;Quarterly Journal of Economics;125.3;2010;1051;Lileeva;2;;yes;other;6d;ivreg2;2;8;no;yes;;;;;-0.01;
MS;Quarterly Journal of Economics;125.3;2010;1051;Lileeva;2;;yes;other;6d;ivreg2;2;10;no;yes;;;;;0.21;
MS;Quarterly Journal of Economics;125.3;2010;1051;Lileeva;2;;yes;other;6d;ivreg2;2;12;no;yes;;;;;8.22;
MS;Quarterly Journal of Economics;125.3;2010;1051;Lileeva;2;;yes;other;6d;ivreg2;3;6;no;yes;;;;;3.79;
MS;Quarterly Journal of Economics;125.3;2010;1051;Lileeva;2;;yes;other;6d;ivreg2;3;8;no;yes;;;;;1.07;
MS;Quarterly Journal of Economics;125.3;2010;1051;Lileeva;2;;yes;other;6d;ivreg2;3;10;no;yes;;;;;-0.72;
MS;Quarterly Journal of Economics;125.3;2010;1051;Lileeva;2;;yes;other;6d;ivreg2;3;12;no;yes;;;;;6.72;
MS;Quarterly Journal of Economics;125.3;2010;1051;Lileeva;2;;yes;other;6d;ivreg2;4;6;no;yes;;;;;1.93;
MS;Quarterly Journal of Economics;125.3;2010;1051;Lileeva;2;;yes;other;6d;ivreg2;4;8;no;yes;;;;;1.37;
MS;Quarterly Journal of Economics;125.3;2010;1051;Lileeva;2;;yes;other;6d;ivreg2;4;10;no;yes;;;;;0.42;
MS;Quarterly Journal of Economics;125.3;2010;1051;Lileeva;2;;yes;other;6d;ivreg2;4;12;no;yes;;;;;3.28;
MS;Quarterly Journal of Economics;125.3;2010;1051;Lileeva;2;;yes;other;6d;ivreg2;5;6;no;yes;;;;;0.95;
MS;Quarterly Journal of Economics;125.3;2010;1051;Lileeva;2;;yes;other;6d;ivreg2;5;8;no;yes;;;;;0.70;
MS;Quarterly Journal of Economics;125.3;2010;1051;Lileeva;2;;yes;other;6d;ivreg2;5;10;no;yes;;;;;1.13;
MS;Quarterly Journal of Economics;125.3;2010;1051;Lileeva;2;;yes;other;6d;ivreg2;5;12;no;yes;;;;;0.92;
MS;Quarterly Journal of Economics;125.3;2010;1051;Lileeva;2;;yes;other;7;reg;1;7;no;yes;;;;;3.21;
MS;Quarterly Journal of Economics;125.3;2010;1051;Lileeva;2;;yes;other;7;ivreg2;1;9;no;yes;;;;;3.36;
MS;Quarterly Journal of Economics;125.3;2010;1051;Lileeva;2;;yes;other;7;reg;2;7;no;yes;;;;;-0.18;
MS;Quarterly Journal of Economics;125.3;2010;1051;Lileeva;2;;yes;other;7;ivreg2;2;9;no;yes;;;;;-1.92;
MS;Quarterly Journal of Economics;125.3;2010;1051;Lileeva;2;;yes;other;7;reg;3;7;no;yes;;;;;2.55;
MS;Quarterly Journal of Economics;125.3;2010;1051;Lileeva;2;;yes;other;7;ivreg2;3;9;no;yes;;;;;3.61;
MS;Quarterly Journal of Economics;125.3;2010;1051;Lileeva;2;;yes;other;7;reg;4;7;no;yes;;;;;-1.31;
MS;Quarterly Journal of Economics;125.3;2010;1051;Lileeva;2;;yes;other;7;ivreg2;4;9;no;yes;;;;;-1.39;
MS;Quarterly Journal of Economics;125.3;2010;1051;Lileeva;2;;yes;other;7;reg;5;7;no;yes;;;;;2.17;
MS;Quarterly Journal of Economics;125.3;2010;1051;Lileeva;2;;yes;other;7;ivreg2;5;9;no;yes;;;;;2.77;
MS;Quarterly Journal of Economics;125.3;2010;1051;Lileeva;2;;yes;other;7;reg;6;7;no;yes;;;;;-0.18;
MS;Quarterly Journal of Economics;125.3;2010;1051;Lileeva;2;;yes;other;7;ivreg2;6;9;no;yes;;;;;-1.50;
MS;Quarterly Journal of Economics;125.3;2010;1051;Lileeva;2;;yes;other;7;reg;7;7;no;yes;;;;;2.75;
MS;Quarterly Journal of Economics;125.3;2010;1051;Lileeva;2;;yes;other;7;ivreg2;7;9;no;yes;;;;;2.77;
MS;Quarterly Journal of Economics;125.3;2010;1051;Lileeva;2;;yes;other;7;reg;8;7;no;yes;;;;;-0.34;
MS;Quarterly Journal of Economics;125.3;2010;1051;Lileeva;2;;yes;other;7;ivreg2;8;9;no;yes;;;;;-0.90;
MS;Quarterly Journal of Economics;125.3;2010;1051;Lileeva;2;;yes;other;7;reg;9;7;no;yes;;;;;3.92;
MS;Quarterly Journal of Economics;125.3;2010;1051;Lileeva;2;;yes;other;7;ivreg2;9;9;no;yes;;;;;3.37;
MS;Quarterly Journal of Economics;125.3;2010;1051;Lileeva;2;;yes;other;7;reg;10;7;no;yes;;;;;-0.16;
MS;Quarterly Journal of Economics;125.3;2010;1051;Lileeva;2;;yes;other;7;ivreg2;10;9;no;yes;;;;;-0.81;
MS;Quarterly Journal of Economics;125.3;2010;1051;Lileeva;2;;yes;other;8;ivreg2;1;2;no;yes;;;;;3.36;
MS;Quarterly Journal of Economics;125.3;2010;1051;Lileeva;2;;yes;other;8;ivreg2;1;3;no;yes;;;;;3.55;
MS;Quarterly Journal of Economics;125.3;2010;1051;Lileeva;2;;yes;other;8;ivreg2;1;5;no;yes;;;;;3.61;
MS;Quarterly Journal of Economics;125.3;2010;1051;Lileeva;2;;yes;other;8;ivreg2;1;6;no;yes;;;;;3.17;
MS;Quarterly Journal of Economics;125.3;2010;1051;Lileeva;2;;yes;other;8;ivreg2;1;8;no;yes;;;;;2.77;
MS;Quarterly Journal of Economics;125.3;2010;1051;Lileeva;2;;yes;other;8;ivreg2;1;9;no;yes;;;;;2.78;
MS;Quarterly Journal of Economics;125.3;2010;1051;Lileeva;2;;yes;other;8;ivreg2;1;11;no;yes;;;;;2.77;
MS;Quarterly Journal of Economics;125.3;2010;1051;Lileeva;2;;yes;other;8;ivreg2;1;12;no;yes;;;;;2.31;
MS;Quarterly Journal of Economics;125.3;2010;1051;Lileeva;2;;yes;other;8;ivreg2;1;14;no;yes;;;;;3.37;
MS;Quarterly Journal of Economics;125.3;2010;1051;Lileeva;2;;yes;other;8;ivreg2;1;15;no;yes;;;;;2.50;
MS;Quarterly Journal of Economics;125.3;2010;1051;Lileeva;2;;yes;other;8;ivreg2;2;2;no;yes;;;;;3.49;
MS;Quarterly Journal of Economics;125.3;2010;1051;Lileeva;2;;yes;other;8;ivreg2;2;3;no;yes;;;;;3.21;
MS;Quarterly Journal of Economics;125.3;2010;1051;Lileeva;2;;yes;other;8;ivreg2;2;5;no;yes;;;;;3.13;
MS;Quarterly Journal of Economics;125.3;2010;1051;Lileeva;2;;yes;other;8;ivreg2;2;6;no;yes;;;;;2.99;
MS;Quarterly Journal of Economics;125.3;2010;1051;Lileeva;2;;yes;other;8;ivreg2;2;8;no;yes;;;;;2.73;
MS;Quarterly Journal of Economics;125.3;2010;1051;Lileeva;2;;yes;other;8;ivreg2;2;9;no;yes;;;;;3.20;
MS;Quarterly Journal of Economics;125.3;2010;1051;Lileeva;2;;yes;other;8;ivreg2;2;11;no;yes;;;;;2.42;
MS;Quarterly Journal of Economics;125.3;2010;1051;Lileeva;2;;yes;other;8;ivreg2;2;12;no;yes;;;;;2.64;
MS;Quarterly Journal of Economics;125.3;2010;1051;Lileeva;2;;yes;other;8;ivreg2;2;14;no;yes;;;;;4.11;
MS;Quarterly Journal of Economics;125.3;2010;1051;Lileeva;2;;yes;other;8;ivreg2;2;15;no;yes;;;;;3.11;
MS;Quarterly Journal of Economics;125.3;2010;1051;Lileeva;2;;yes;other;8;ivreg2;3;2;no;yes;;;;;3.78;
MS;Quarterly Journal of Economics;125.3;2010;1051;Lileeva;2;;yes;other;8;ivreg2;3;3;no;yes;;;;;3.64;
MS;Quarterly Journal of Economics;125.3;2010;1051;Lileeva;2;;yes;other;8;ivreg2;3;5;no;yes;;;;;3.10;
MS;Quarterly Journal of Economics;125.3;2010;1051;Lileeva;2;;yes;other;8;ivreg2;3;6;no;yes;;;;;3.14;
MS;Quarterly Journal of Economics;125.3;2010;1051;Lileeva;2;;yes;other;8;ivreg2;3;8;no;yes;;;;;2.65;
MS;Quarterly Journal of Economics;125.3;2010;1051;Lileeva;2;;yes;other;8;ivreg2;3;9;no;yes;;;;;3.25;
MS;Quarterly Journal of Economics;125.3;2010;1051;Lileeva;2;;yes;other;8;ivreg2;3;11;no;yes;;;;;2.41;
MS;Quarterly Journal of Economics;125.3;2010;1051;Lileeva;2;;yes;other;8;ivreg2;3;12;no;yes;;;;;3.11;
MS;Quarterly Journal of Economics;125.3;2010;1051;Lileeva;2;;yes;other;8;ivreg2;3;14;no;yes;;;;;4.14;
MS;Quarterly Journal of Economics;125.3;2010;1051;Lileeva;2;;yes;other;8;ivreg2;3;15;no;yes;;;;;3.11;
MS;Quarterly Journal of Economics;125.3;2010;1051;Lileeva;2;;yes;other;8;ivreg2;4;2;no;yes;;;;;3.45;
MS;Quarterly Journal of Economics;125.3;2010;1051;Lileeva;2;;yes;other;8;ivreg2;4;3;no;yes;;;;;3.15;
MS;Quarterly Journal of Economics;125.3;2010;1051;Lileeva;2;;yes;other;8;ivreg2;4;5;no;yes;;;;;3.14;
MS;Quarterly Journal of Economics;125.3;2010;1051;Lileeva;2;;yes;other;8;ivreg2;4;6;no;yes;;;;;3.12;
MS;Quarterly Journal of Economics;125.3;2010;1051;Lileeva;2;;yes;other;8;ivreg2;4;8;no;yes;;;;;2.73;
MS;Quarterly Journal of Economics;125.3;2010;1051;Lileeva;2;;yes;other;8;ivreg2;4;9;no;yes;;;;;3.31;
MS;Quarterly Journal of Economics;125.3;2010;1051;Lileeva;2;;yes;other;8;ivreg2;4;11;no;yes;;;;;2.49;
MS;Quarterly Journal of Economics;125.3;2010;1051;Lileeva;2;;yes;other;8;ivreg2;4;12;no;yes;;;;;2.82;
MS;Quarterly Journal of Economics;125.3;2010;1051;Lileeva;2;;yes;other;8;ivreg2;4;14;no;yes;;;;;4.16;
MS;Quarterly Journal of Economics;125.3;2010;1051;Lileeva;2;;yes;other;8;ivreg2;4;15;no;yes;;;;;3.20;
MS;Quarterly Journal of Economics;125.3;2010;1051;Lileeva;2;;yes;other;9a;ivreg2;1;1;no;no;;;;;3.18;
MS;Quarterly Journal of Economics;125.3;2010;1051;Lileeva;2;;yes;other;9a;ivreg2;1;2;no;no;;;;;4.50;
MS;Quarterly Journal of Economics;125.3;2010;1051;Lileeva;2;;yes;other;9a;ivreg2;1;3;no;no;;;;;2.32;
MS;Quarterly Journal of Economics;125.3;2010;1051;Lileeva;2;;yes;other;9a;ivreg2;1;4;no;no;;;;;1.72;
MS;Quarterly Journal of Economics;125.3;2010;1051;Lileeva;2;;yes;other;9a;ivreg2;1;5;no;no;;;;;1.00;
MS;Quarterly Journal of Economics;125.3;2010;1051;Lileeva;2;;yes;other;9b;ivreg2;1;1;no;no;;;;;-7.80;
MS;Quarterly Journal of Economics;125.3;2010;1051;Lileeva;2;;yes;other;9b;ivreg2;1;2;no;no;;;;;-4.44;
MS;Quarterly Journal of Economics;125.3;2010;1051;Lileeva;2;;yes;other;9b;ivreg2;1;3;no;no;;;;;-5.62;
MS;Quarterly Journal of Economics;125.3;2010;1051;Lileeva;2;;yes;other;9b;ivreg2;1;4;no;no;;;;;-3.64;
MS;Quarterly Journal of Economics;125.3;2010;1051;Lileeva;2;;yes;other;9b;ivreg2;1;5;no;no;;;;;-1.07;
MS;Quarterly Journal of Economics;125.3;2010;1051;Lileeva;2;;yes;other;9c;ivreg2;1;1;no;no;;;;;-6.45;
MS;Quarterly Journal of Economics;125.3;2010;1051;Lileeva;2;;yes;other;9c;ivreg2;1;2;no;no;;;;;-4.56;
MS;Quarterly Journal of Economics;125.3;2010;1051;Lileeva;2;;yes;other;9c;ivreg2;1;3;no;no;;;;;-3.97;
MS;Quarterly Journal of Economics;125.3;2010;1051;Lileeva;2;;yes;other;9c;ivreg2;1;4;no;no;;;;;-1.77;
MS;Quarterly Journal of Economics;125.3;2010;1051;Lileeva;2;;yes;other;9c;ivreg2;1;5;no;no;;;;;0.14;
MS;Quarterly Journal of Economics;125.3;2010;1051;Lileeva;2;;yes;other;9d;ivreg2;1;1;no;no;;;;;-4.75;
MS;Quarterly Journal of Economics;125.3;2010;1051;Lileeva;2;;yes;other;9d;ivreg2;1;2;no;no;;;;;-7.94;
MS;Quarterly Journal of Economics;125.3;2010;1051;Lileeva;2;;yes;other;9d;ivreg2;1;3;no;no;;;;;-6.64;
MS;Quarterly Journal of Economics;125.3;2010;1051;Lileeva;2;;yes;other;9d;ivreg2;1;4;no;no;;;;;-2.63;
MS;Quarterly Journal of Economics;125.3;2010;1051;Lileeva;2;;yes;other;9d;ivreg2;1;5;no;no;;;;;1.27;
MS;Quarterly Journal of Economics;125.3;2010;1051;Lileeva;2;;yes;other;10;reg;1;4;no;no;;;;;4.04;
MS;Quarterly Journal of Economics;125.3;2010;1051;Lileeva;2;;yes;other;10;reg;2;4;no;no;;;;;1.70;
MS;Quarterly Journal of Economics;125.3;2010;1051;Lileeva;2;;yes;other;10;reg;3;4;no;no;;;;;2.84;
MS;Quarterly Journal of Economics;125.3;2010;1051;Lileeva;2;;yes;other;10;reg;4;4;no;no;;;;;2.23;
MS;Quarterly Journal of Economics;125.3;2010;1051;Lileeva;2;;yes;other;11;ivreg2;1;2;no;no;;;;;3.46;
MS;Quarterly Journal of Economics;125.3;2010;1051;Lileeva;2;;yes;other;11;ivreg2;2;2;no;no;;;;;3.45;
MS;Quarterly Journal of Economics;125.3;2010;1051;Lileeva;2;;yes;other;11;ivreg2;3;2;no;no;;;;;2.92;
MS;Quarterly Journal of Economics;125.3;2010;1051;Lileeva;2;;yes;other;11;ivreg2;4;2;no;no;;;;;3.74;
MS;Quarterly Journal of Economics;125.3;2010;1253;Saiz;1;;no;other;3;reg;1;1;yes;yes;0.650;0.107;;;;
MS;Quarterly Journal of Economics;125.3;2010;1253;Saiz;1;;no;other;3;reg;1;2;yes;yes;0.336;0.116;;;;
MS;Quarterly Journal of Economics;125.3;2010;1253;Saiz;1;;no;other;3;reg;1;3;yes;yes;0.305;0.146;;;;
MS;Quarterly Journal of Economics;125.3;2010;1253;Saiz;1;;no;other;3;reg;1;4;yes;yes;0.060;0.215;;;;
MS;Quarterly Journal of Economics;125.3;2010;1253;Saiz;1;;no;other;3;reg;2;2;yes;yes;0.560;0.118;;;;
MS;Quarterly Journal of Economics;125.3;2010;1253;Saiz;1;;no;other;3;reg;2;3;yes;yes;0.449;0.140;;;;
MS;Quarterly Journal of Economics;125.3;2010;1253;Saiz;1;;no;other;3;reg;2;4;yes;yes;0.511;0.214;;;;
MS;Quarterly Journal of Economics;125.3;2010;1253;Saiz;1;;no;other;3;reg;2;5;yes;yes;0.516;0.116;;;;
MS;Quarterly Journal of Economics;125.3;2010;1253;Saiz;1;;no;other;3;reg;2;6;yes;yes;-5.329;0.904;;;;
MS;Quarterly Journal of Economics;125.3;2010;1253;Saiz;1;;no;other;3;reg;3;6;yes;yes;0.481;0.117;;;;
MS;Quarterly Journal of Economics;125.3;2010;1253;Saiz;1;;no;other;3;reg;4;4;yes;yes;0.237;0.130;;;;
MS;Quarterly Journal of Economics;125.3;2010;1253;Saiz;1;;no;other;3;reg;4;5;yes;yes;0.268;0.068;;;;
MS;Quarterly Journal of Economics;125.3;2010;1253;Saiz;1;;no;other;3;reg;4;6;yes;yes;0.301;0.066;;;;
MS;Quarterly Journal of Economics;125.3;2010;1253;Saiz;1;;no;other;4;reg;1;1;yes;yes;0.134;0.067;;;;
MS;Quarterly Journal of Economics;125.3;2010;1253;Saiz;1;;no;other;4;reg;1;3;yes;yes;-0.174;0.125;;;;
MS;Quarterly Journal of Economics;125.3;2010;1253;Saiz;1;;no;other;4;reg;1;4;yes;yes;-0.241;0.132;;;;
MS;Quarterly Journal of Economics;125.3;2010;1253;Saiz;1;;no;other;4;reg;2;2;yes;yes;0.165;0.069;;;;
MS;Quarterly Journal of Economics;125.3;2010;1253;Saiz;1;;no;other;4;reg;3;2;yes;yes;-0.054;0.153;;;;
MS;Quarterly Journal of Economics;125.3;2010;1253;Saiz;1;;no;other;4;reg;4;2;yes;yes;-0.076;0.051;;;;
MS;Quarterly Journal of Economics;125.3;2010;1253;Saiz;1;;no;other;4;reg;5;3;yes;yes;0.451;0.158;;;;
MS;Quarterly Journal of Economics;125.3;2010;1253;Saiz;1;;no;other;4;reg;5;4;yes;yes;0.375;0.154;;;;
MS;Quarterly Journal of Economics;125.3;2010;1253;Saiz;1;;no;other;4;reg;6;4;yes;yes;0.198;0.088;;;;
MS;Quarterly Journal of Economics;125.3;2010;1253;Saiz;1;;no;other;4;reg;7;1;yes;yes;0.051;0.015;;;;
MS;Quarterly Journal of Economics;125.3;2010;1253;Saiz;1;;no;other;4;reg;7;2;yes;yes;0.047;0.015;;;;
MS;Quarterly Journal of Economics;125.3;2010;1253;Saiz;1;;no;other;4;reg;7;3;yes;yes;0.051;0.015;;;;
MS;Quarterly Journal of Economics;125.3;2010;1253;Saiz;1;;no;other;4;reg;7;4;yes;yes;0.041;0.015;;;;
MS;Quarterly Journal of Economics;125.3;2010;1253;Saiz;1;;no;other;4;reg;8;1;yes;yes;-0.308;0.086;;;;
MS;Quarterly Journal of Economics;125.3;2010;1253;Saiz;1;;no;other;4;reg;8;2;yes;yes;-0.304;0.084;;;;
MS;Quarterly Journal of Economics;125.3;2010;1253;Saiz;1;;no;other;4;reg;8;3;yes;yes;-0.314;0.084;;;;
MS;Quarterly Journal of Economics;125.3;2010;1253;Saiz;1;;no;other;4;reg;8;4;yes;yes;-0.291;0.090;;;;
MS;Quarterly Journal of Economics;125.3;2010;1253;Saiz;1;;no;other;4;reg;9;1;yes;yes;0.983;0.332;;;;
MS;Quarterly Journal of Economics;125.3;2010;1253;Saiz;1;;no;other;4;reg;9;2;yes;yes;0.538;0.342;;;;
MS;Quarterly Journal of Economics;125.3;2010;1253;Saiz;1;;no;other;4;reg;9;3;yes;yes;0.867;0.328;;;;
MS;Quarterly Journal of Economics;125.3;2010;1253;Saiz;1;;no;other;4;reg;9;4;yes;yes;0.089;0.404;;;;
MS;Quarterly Journal of Economics;125.3;2010;1253;Saiz;1;;no;other;4;reg;10;1;yes;yes;0.036;0.113;;;;
MS;Quarterly Journal of Economics;125.3;2010;1253;Saiz;1;;no;other;4;reg;10;2;yes;yes;0.08;0.110;;;;
MS;Quarterly Journal of Economics;125.3;2010;1253;Saiz;1;;no;other;4;reg;10;3;yes;yes;-0.069;0.116;;;;
MS;Quarterly Journal of Economics;125.3;2010;1253;Saiz;1;;no;other;4;reg;10;4;yes;yes;-0.017;0.120;;;;
MS;Quarterly Journal of Economics;125.3;2010;1253;Saiz;1;;no;other;5;reg;1;1;yes;yes;0.581;0.119;;;;
MS;Quarterly Journal of Economics;125.3;2010;1253;Saiz;1;;no;other;5;reg;1;2;yes;yes;-5.260;1.396;;;;
MS;Quarterly Journal of Economics;125.3;2010;1253;Saiz;1;;no;other;5;reg;2;2;yes;yes;0.475;0.119;;;;
MS;Quarterly Journal of Economics;125.3;2010;1253;Saiz;1;;no;other;5;reg;3;1;yes;yes;0.109;0.078;;;;
MS;Quarterly Journal of Economics;125.3;2010;1253;Saiz;1;;no;other;5;reg;3;2;yes;yes;0.280;0.077;;;;
