ra;journal_id;issue;year;article_page;first_author;num_authors;JEL;model;type;table_panel;type_emp;row;column;stars;main;coefficient;standard_deviation;standard_deviation_2;standard_deviation_3;T_stat;p_value
MS;Quarterly Journal of Economics;124.1;2009;105;Bayer;3;;no;other;2;reg;1;1;yes;yes;;;;;9.78;
MS;Quarterly Journal of Economics;124.1;2009;105;Bayer;3;;no;other;2;reg;1;2;yes;yes;;;;;10.73;
MS;Quarterly Journal of Economics;124.1;2009;105;Bayer;3;;no;other;2;reg;1;3;yes;yes;;;;;6.54;
MS;Quarterly Journal of Economics;124.1;2009;105;Bayer;3;;no;other;2;reg;1;4;yes;yes;;;;;6.57;
MS;Quarterly Journal of Economics;124.1;2009;105;Bayer;3;;no;other;2;reg;1;5;yes;yes;;;;;5.74;
MS;Quarterly Journal of Economics;124.1;2009;105;Bayer;3;;no;other;2;reg;1;6;yes;yes;;;;;15.60;
MS;Quarterly Journal of Economics;124.1;2009;105;Bayer;3;;no;other;2;reg;1;7;yes;yes;;;;;11.05;
MS;Quarterly Journal of Economics;124.1;2009;105;Bayer;3;;no;other;2;reg;1;8;yes;yes;;;;;1.40;
MS;Quarterly Journal of Economics;124.1;2009;105;Bayer;3;;no;other;2;reg;1;9;yes;yes;;;;;7.25;
MS;Quarterly Journal of Economics;124.1;2009;105;Bayer;3;;no;other;2;reg;1;10;yes;yes;;;;;5.93;
MS;Quarterly Journal of Economics;124.1;2009;105;Bayer;3;;no;other;3a;reg;1;1;yes;yes;;;;;13.34;
MS;Quarterly Journal of Economics;124.1;2009;105;Bayer;3;;no;other;3a;reg;1;2;yes;yes;;;;;13.27;
MS;Quarterly Journal of Economics;124.1;2009;105;Bayer;3;;no;other;3a;reg;1;3;yes;yes;;;;;4.92;
MS;Quarterly Journal of Economics;124.1;2009;105;Bayer;3;;no;other;3a;reg;1;4;yes;yes;;;;;10.71;
MS;Quarterly Journal of Economics;124.1;2009;105;Bayer;3;;no;other;3a;reg;1;5;yes;yes;;;;;10.94;
MS;Quarterly Journal of Economics;124.1;2009;105;Bayer;3;;no;other;3a;reg;1;6;yes;yes;;;;;23.34
MS;Quarterly Journal of Economics;124.1;2009;105;Bayer;3;;no;other;3a;reg;1;7;yes;yes;;;;;14.16
MS;Quarterly Journal of Economics;124.1;2009;105;Bayer;3;;no;other;3a;reg;1;8;yes;yes;;;;;11.24
MS;Quarterly Journal of Economics;124.1;2009;105;Bayer;3;;no;other;3a;reg;1;9;yes;yes;;;;;12.86
MS;Quarterly Journal of Economics;124.1;2009;105;Bayer;3;;no;other;3a;reg;1;10;yes;yes;;;;;3.82
MS;Quarterly Journal of Economics;124.1;2009;105;Bayer;3;;no;other;3a;reg;2;1;yes;yes;;;;;5.49
MS;Quarterly Journal of Economics;124.1;2009;105;Bayer;3;;no;other;3a;reg;2;2;yes;yes;;;;;2.06
MS;Quarterly Journal of Economics;124.1;2009;105;Bayer;3;;no;other;3a;reg;2;3;yes;yes;;;;;1.88
MS;Quarterly Journal of Economics;124.1;2009;105;Bayer;3;;no;other;3a;reg;2;4;yes;yes;;;;;3.63
MS;Quarterly Journal of Economics;124.1;2009;105;Bayer;3;;no;other;3a;reg;2;5;yes;yes;;;;;1.93
MS;Quarterly Journal of Economics;124.1;2009;105;Bayer;3;;no;other;3a;reg;2;6;yes;yes;;;;;2.22
MS;Quarterly Journal of Economics;124.1;2009;105;Bayer;3;;no;other;3a;reg;2;7;yes;yes;;;;;3.18
MS;Quarterly Journal of Economics;124.1;2009;105;Bayer;3;;no;other;3a;reg;2;8;yes;yes;;;;;5.65
MS;Quarterly Journal of Economics;124.1;2009;105;Bayer;3;;no;other;3a;reg;2;9;yes;yes;;;;;1.71
MS;Quarterly Journal of Economics;124.1;2009;105;Bayer;3;;no;other;3a;reg;2;10;yes;yes;;;;;2.13
MS;Quarterly Journal of Economics;124.1;2009;105;Bayer;3;;no;other;3b;reg;1;1;yes;yes;;;;;0.01
MS;Quarterly Journal of Economics;124.1;2009;105;Bayer;3;;no;other;3b;reg;1;2;yes;yes;;;;;0.31
MS;Quarterly Journal of Economics;124.1;2009;105;Bayer;3;;no;other;3b;reg;1;3;yes;yes;;;;;0.44
MS;Quarterly Journal of Economics;124.1;2009;105;Bayer;3;;no;other;3b;reg;1;4;yes;yes;;;;;0.42
MS;Quarterly Journal of Economics;124.1;2009;105;Bayer;3;;no;other;3b;reg;1;5;yes;yes;;;;;0.78
MS;Quarterly Journal of Economics;124.1;2009;105;Bayer;3;;no;other;3b;reg;1;6;yes;yes;;;;;0.23
MS;Quarterly Journal of Economics;124.1;2009;105;Bayer;3;;no;other;3b;reg;1;7;yes;yes;;;;;0.42
MS;Quarterly Journal of Economics;124.1;2009;105;Bayer;3;;no;other;3b;reg;1;8;yes;yes;;;;;1.83
MS;Quarterly Journal of Economics;124.1;2009;105;Bayer;3;;no;other;3b;reg;1;9;yes;yes;;;;;0.06
MS;Quarterly Journal of Economics;124.1;2009;105;Bayer;3;;no;other;3b;reg;1;10;yes;yes;;;;;0.27
MS;Quarterly Journal of Economics;124.1;2009;105;Bayer;3;;no;other;3b;reg;2;1;yes;yes;;;;;0.92
MS;Quarterly Journal of Economics;124.1;2009;105;Bayer;3;;no;other;3b;reg;2;2;yes;yes;;;;;1.21
MS;Quarterly Journal of Economics;124.1;2009;105;Bayer;3;;no;other;3b;reg;2;3;yes;yes;;;;;1.19
MS;Quarterly Journal of Economics;124.1;2009;105;Bayer;3;;no;other;3b;reg;2;4;yes;yes;;;;;0.67
MS;Quarterly Journal of Economics;124.1;2009;105;Bayer;3;;no;other;3b;reg;2;5;yes;yes;;;;;0.32
MS;Quarterly Journal of Economics;124.1;2009;105;Bayer;3;;no;other;3b;reg;2;6;yes;yes;;;;;0.08
MS;Quarterly Journal of Economics;124.1;2009;105;Bayer;3;;no;other;3b;reg;2;7;yes;yes;;;;;0.09
MS;Quarterly Journal of Economics;124.1;2009;105;Bayer;3;;no;other;3b;reg;2;8;yes;yes;;;;;0.29
MS;Quarterly Journal of Economics;124.1;2009;105;Bayer;3;;no;other;3b;reg;2;9;yes;yes;;;;;0.36
MS;Quarterly Journal of Economics;124.1;2009;105;Bayer;3;;no;other;3b;reg;2;10;yes;yes;;;;;1.28
MS;Quarterly Journal of Economics;124.1;2009;105;Bayer;3;;no;other;4;reg;1;1;yes;yes;;;;;0.31
MS;Quarterly Journal of Economics;124.1;2009;105;Bayer;3;;no;other;4;reg;1;2;yes;yes;;;;;2.93
MS;Quarterly Journal of Economics;124.1;2009;105;Bayer;3;;no;other;4;reg;1;3;yes;yes;;;;;0.38
MS;Quarterly Journal of Economics;124.1;2009;105;Bayer;3;;no;other;4;reg;1;4;yes;yes;;;;;1.67
MS;Quarterly Journal of Economics;124.1;2009;105;Bayer;3;;no;other;4;reg;1;5;yes;yes;;;;;0.69
MS;Quarterly Journal of Economics;124.1;2009;105;Bayer;3;;no;other;4;reg;1;6;yes;yes;;;;;1.90
MS;Quarterly Journal of Economics;124.1;2009;105;Bayer;3;;no;other;4;reg;1;7;yes;yes;;;;;2.29
MS;Quarterly Journal of Economics;124.1;2009;105;Bayer;3;;no;other;4;reg;1;8;yes;yes;;;;;0.78
MS;Quarterly Journal of Economics;124.1;2009;105;Bayer;3;;no;other;4;reg;1;9;yes;yes;;;;;1.78
MS;Quarterly Journal of Economics;124.1;2009;105;Bayer;3;;no;other;4;reg;1;10;yes;yes;;;;;2.30
MS;Quarterly Journal of Economics;124.1;2009;105;Bayer;3;;no;other;4;reg;2;1;yes;yes;;;;;0.56
MS;Quarterly Journal of Economics;124.1;2009;105;Bayer;3;;no;other;4;reg;2;2;yes;yes;;;;;0.29
MS;Quarterly Journal of Economics;124.1;2009;105;Bayer;3;;no;other;4;reg;2;3;yes;yes;;;;;0.01
MS;Quarterly Journal of Economics;124.1;2009;105;Bayer;3;;no;other;4;reg;2;4;yes;yes;;;;;1.52
MS;Quarterly Journal of Economics;124.1;2009;105;Bayer;3;;no;other;4;reg;2;5;yes;yes;;;;;1.70
MS;Quarterly Journal of Economics;124.1;2009;105;Bayer;3;;no;other;4;reg;2;6;yes;yes;;;;;1.18
MS;Quarterly Journal of Economics;124.1;2009;105;Bayer;3;;no;other;4;reg;2;7;yes;yes;;;;;0.82
MS;Quarterly Journal of Economics;124.1;2009;105;Bayer;3;;no;other;4;reg;2;8;yes;yes;;;;;0.88
MS;Quarterly Journal of Economics;124.1;2009;105;Bayer;3;;no;other;4;reg;2;9;yes;yes;;;;;0.91
MS;Quarterly Journal of Economics;124.1;2009;105;Bayer;3;;no;other;4;reg;2;10;yes;yes;;;;;1.27
MS;Quarterly Journal of Economics;124.1;2009;105;Bayer;3;;no;other;5a;reg;1;1;yes;no;;;;;0.18
MS;Quarterly Journal of Economics;124.1;2009;105;Bayer;3;;no;other;5a;reg;1;2;yes;no;;;;;3.19
MS;Quarterly Journal of Economics;124.1;2009;105;Bayer;3;;no;other;5a;reg;1;3;yes;no;;;;;0.53
MS;Quarterly Journal of Economics;124.1;2009;105;Bayer;3;;no;other;5a;reg;1;4;yes;no;;;;;1.75
MS;Quarterly Journal of Economics;124.1;2009;105;Bayer;3;;no;other;5a;reg;1;5;yes;no;;;;;0.79
MS;Quarterly Journal of Economics;124.1;2009;105;Bayer;3;;no;other;5a;reg;1;6;yes;no;;;;;1.95
MS;Quarterly Journal of Economics;124.1;2009;105;Bayer;3;;no;other;5a;reg;1;7;yes;no;;;;;2.23
MS;Quarterly Journal of Economics;124.1;2009;105;Bayer;3;;no;other;5a;reg;1;8;yes;no;;;;;0.80
MS;Quarterly Journal of Economics;124.1;2009;105;Bayer;3;;no;other;5a;reg;1;9;yes;no;;;;;1.88
MS;Quarterly Journal of Economics;124.1;2009;105;Bayer;3;;no;other;5a;reg;1;10;yes;no;;;;;2.30
MS;Quarterly Journal of Economics;124.1;2009;105;Bayer;3;;no;other;5a;reg;2;1;yes;no;;;;;0.65
MS;Quarterly Journal of Economics;124.1;2009;105;Bayer;3;;no;other;5a;reg;2;2;yes;no;;;;;0.12
MS;Quarterly Journal of Economics;124.1;2009;105;Bayer;3;;no;other;5a;reg;2;3;yes;no;;;;;0.17
MS;Quarterly Journal of Economics;124.1;2009;105;Bayer;3;;no;other;5a;reg;2;4;yes;no;;;;;1.50
MS;Quarterly Journal of Economics;124.1;2009;105;Bayer;3;;no;other;5a;reg;2;5;yes;no;;;;;1.52
MS;Quarterly Journal of Economics;124.1;2009;105;Bayer;3;;no;other;5a;reg;2;6;yes;no;;;;;1.24
MS;Quarterly Journal of Economics;124.1;2009;105;Bayer;3;;no;other;5a;reg;2;7;yes;no;;;;;0.81
MS;Quarterly Journal of Economics;124.1;2009;105;Bayer;3;;no;other;5a;reg;2;8;yes;no;;;;;0.90
MS;Quarterly Journal of Economics;124.1;2009;105;Bayer;3;;no;other;5a;reg;2;9;yes;no;;;;;0.93
MS;Quarterly Journal of Economics;124.1;2009;105;Bayer;3;;no;other;5a;reg;2;10;yes;no;;;;;1.09
MS;Quarterly Journal of Economics;124.1;2009;105;Bayer;3;;no;other;5b;reg;1;1;yes;no;;;;;0.31
MS;Quarterly Journal of Economics;124.1;2009;105;Bayer;3;;no;other;5b;reg;1;2;yes;no;;;;;2.93
MS;Quarterly Journal of Economics;124.1;2009;105;Bayer;3;;no;other;5b;reg;1;3;yes;no;;;;;0.38
MS;Quarterly Journal of Economics;124.1;2009;105;Bayer;3;;no;other;5b;reg;1;4;yes;no;;;;;1.67
MS;Quarterly Journal of Economics;124.1;2009;105;Bayer;3;;no;other;5b;reg;1;5;yes;no;;;;;0.69
MS;Quarterly Journal of Economics;124.1;2009;105;Bayer;3;;no;other;5b;reg;1;6;yes;no;;;;;1.90
MS;Quarterly Journal of Economics;124.1;2009;105;Bayer;3;;no;other;5b;reg;1;7;yes;no;;;;;2.29
MS;Quarterly Journal of Economics;124.1;2009;105;Bayer;3;;no;other;5b;reg;1;8;yes;no;;;;;0.78
MS;Quarterly Journal of Economics;124.1;2009;105;Bayer;3;;no;other;5b;reg;1;9;yes;no;;;;;1.78
MS;Quarterly Journal of Economics;124.1;2009;105;Bayer;3;;no;other;5b;reg;1;10;yes;no;;;;;2.30
MS;Quarterly Journal of Economics;124.1;2009;105;Bayer;3;;no;other;5b;reg;2;1;yes;no;;;;;0.56
MS;Quarterly Journal of Economics;124.1;2009;105;Bayer;3;;no;other;5b;reg;2;2;yes;no;;;;;0.29
MS;Quarterly Journal of Economics;124.1;2009;105;Bayer;3;;no;other;5b;reg;2;3;yes;no;;;;;0.01
MS;Quarterly Journal of Economics;124.1;2009;105;Bayer;3;;no;other;5b;reg;2;4;yes;no;;;;;1.52
MS;Quarterly Journal of Economics;124.1;2009;105;Bayer;3;;no;other;5b;reg;2;5;yes;no;;;;;1.70
MS;Quarterly Journal of Economics;124.1;2009;105;Bayer;3;;no;other;5b;reg;2;6;yes;no;;;;;1.18
MS;Quarterly Journal of Economics;124.1;2009;105;Bayer;3;;no;other;5b;reg;2;7;yes;no;;;;;0.82
MS;Quarterly Journal of Economics;124.1;2009;105;Bayer;3;;no;other;5b;reg;2;8;yes;no;;;;;0.88
MS;Quarterly Journal of Economics;124.1;2009;105;Bayer;3;;no;other;5b;reg;2;9;yes;no;;;;;0.91
MS;Quarterly Journal of Economics;124.1;2009;105;Bayer;3;;no;other;5b;reg;2;10;yes;no;;;;;1.27
MS;Quarterly Journal of Economics;124.1;2009;105;Bayer;3;;no;other;5c;reg;1;1;yes;no;;;;;0.48
MS;Quarterly Journal of Economics;124.1;2009;105;Bayer;3;;no;other;5c;reg;1;2;yes;no;;;;;3.03
MS;Quarterly Journal of Economics;124.1;2009;105;Bayer;3;;no;other;5c;reg;1;3;yes;no;;;;;0.58
MS;Quarterly Journal of Economics;124.1;2009;105;Bayer;3;;no;other;5c;reg;1;4;yes;no;;;;;1.36
MS;Quarterly Journal of Economics;124.1;2009;105;Bayer;3;;no;other;5c;reg;1;5;yes;no;;;;;0.42
MS;Quarterly Journal of Economics;124.1;2009;105;Bayer;3;;no;other;5c;reg;1;6;yes;no;;;;;2.08
MS;Quarterly Journal of Economics;124.1;2009;105;Bayer;3;;no;other;5c;reg;1;7;yes;no;;;;;2.15
MS;Quarterly Journal of Economics;124.1;2009;105;Bayer;3;;no;other;5c;reg;1;8;yes;no;;;;;0.87
MS;Quarterly Journal of Economics;124.1;2009;105;Bayer;3;;no;other;5c;reg;1;9;yes;no;;;;;1.68
MS;Quarterly Journal of Economics;124.1;2009;105;Bayer;3;;no;other;5c;reg;1;10;yes;no;;;;;2.05
MS;Quarterly Journal of Economics;124.1;2009;105;Bayer;3;;no;other;5c;reg;2;1;yes;no;;;;;0.73
MS;Quarterly Journal of Economics;124.1;2009;105;Bayer;3;;no;other;5c;reg;2;2;yes;no;;;;;0.45
MS;Quarterly Journal of Economics;124.1;2009;105;Bayer;3;;no;other;5c;reg;2;3;yes;no;;;;;0.34
MS;Quarterly Journal of Economics;124.1;2009;105;Bayer;3;;no;other;5c;reg;2;4;yes;no;;;;;1.51
MS;Quarterly Journal of Economics;124.1;2009;105;Bayer;3;;no;other;5c;reg;2;5;yes;no;;;;;1.95
MS;Quarterly Journal of Economics;124.1;2009;105;Bayer;3;;no;other;5c;reg;2;6;yes;no;;;;;1.87
MS;Quarterly Journal of Economics;124.1;2009;105;Bayer;3;;no;other;5c;reg;2;7;yes;no;;;;;0.94
MS;Quarterly Journal of Economics;124.1;2009;105;Bayer;3;;no;other;5c;reg;2;8;yes;no;;;;;0.49
MS;Quarterly Journal of Economics;124.1;2009;105;Bayer;3;;no;other;5c;reg;2;9;yes;no;;;;;0.65
MS;Quarterly Journal of Economics;124.1;2009;105;Bayer;3;;no;other;5c;reg;2;10;yes;no;;;;;1.05
MS;Quarterly Journal of Economics;124.1;2009;105;Bayer;3;;no;other;7;reg;1;1;yes;no;;;;;3.83
MS;Quarterly Journal of Economics;124.1;2009;105;Bayer;3;;no;other;7;reg;1;2;yes;no;;;;;0.34
MS;Quarterly Journal of Economics;124.1;2009;105;Bayer;3;;no;other;7;reg;2;1;yes;no;;;;;3.73
MS;Quarterly Journal of Economics;124.1;2009;105;Bayer;3;;no;other;7;reg;2;2;yes;no;;;;;0.22
MS;Quarterly Journal of Economics;124.1;2009;105;Bayer;3;;no;other;7;reg;3;1;yes;no;;;;;3.85
MS;Quarterly Journal of Economics;124.1;2009;105;Bayer;3;;no;other;7;reg;3;2;yes;no;;;;;0.33
MS;Quarterly Journal of Economics;124.1;2009;105;Bayer;3;;no;other;7;reg;4;1;yes;no;;;;;3.60
MS;Quarterly Journal of Economics;124.1;2009;105;Bayer;3;;no;other;7;reg;4;2;yes;no;;;;;0.21
MS;Quarterly Journal of Economics;124.1;2009;105;Bayer;3;;no;other;7;reg;5;1;yes;no;;;;;3.92
MS;Quarterly Journal of Economics;124.1;2009;105;Bayer;3;;no;other;7;reg;5;2;yes;no;;;;;0.38
MS;Quarterly Journal of Economics;124.1;2009;105;Bayer;3;;no;other;7;reg;6;1;yes;no;;;;;3.95
MS;Quarterly Journal of Economics;124.1;2009;105;Bayer;3;;no;other;7;reg;6;2;yes;no;;;;;0.33
MS;Quarterly Journal of Economics;124.1;2009;105;Bayer;3;;no;other;7;reg;7;1;yes;no;;;;;4.61
MS;Quarterly Journal of Economics;124.1;2009;105;Bayer;3;;no;other;7;reg;7;2;yes;no;;;;;0.62
MS;Quarterly Journal of Economics;124.1;2009;105;Bayer;3;;no;other;7;reg;8;1;yes;no;;;;;4.14
MS;Quarterly Journal of Economics;124.1;2009;105;Bayer;3;;no;other;7;reg;8;2;yes;no;;;;;0.12
MS;Quarterly Journal of Economics;124.1;2009;105;Bayer;3;;no;other;7;reg;9;1;yes;no;;;;;3.12
MS;Quarterly Journal of Economics;124.1;2009;105;Bayer;3;;no;other;7;reg;9;2;yes;no;;;;;0.28
MS;Quarterly Journal of Economics;124.1;2009;105;Bayer;3;;no;other;7;reg;10;1;yes;no;;;;;2.38
MS;Quarterly Journal of Economics;124.1;2009;105;Bayer;3;;no;other;7;reg;10;2;yes;no;;;;;0.03
MS;Quarterly Journal of Economics;124.1;2009;197;Brown;3;;no;expe;2;reg;1;1;yes;yes;;;;;2.51
MS;Quarterly Journal of Economics;124.1;2009;197;Brown;3;;no;expe;2;reg;2;1;yes;yes;;;;;2.30
MS;Quarterly Journal of Economics;124.1;2009;197;Brown;3;;no;expe;2;reg;3;1;yes;yes;;;;;0.67
MS;Quarterly Journal of Economics;124.1;2009;197;Brown;3;;no;expe;2;reg;4;1;yes;yes;;;;;1.86
MS;Quarterly Journal of Economics;124.1;2009;197;Brown;3;;no;expe;2;reg;5;1;yes;yes;;;;;10.69
MS;Quarterly Journal of Economics;124.1;2009;197;Brown;3;;no;expe;2;reg;6;1;yes;yes;;;;;1.58
MS;Quarterly Journal of Economics;124.1;2009;197;Brown;3;;no;expe;2;reg;7;1;yes;yes;;;;;4.21
MS;Quarterly Journal of Economics;124.1;2009;197;Brown;3;;no;expe;4;reg;1;1;yes;yes;-28137.36;7284.97;;;
MS;Quarterly Journal of Economics;124.1;2009;197;Brown;3;;no;expe;4;reg;1;2;yes;yes;-39.58;20.39;;;
MS;Quarterly Journal of Economics;124.1;2009;197;Brown;3;;no;expe;4;reg;1;3;yes;yes;-4.21;1.43
MS;Quarterly Journal of Economics;124.1;2009;197;Brown;3;;no;expe;4;reg;2;1;yes;yes;-171.61;6264.08
MS;Quarterly Journal of Economics;124.1;2009;197;Brown;3;;no;expe;4;reg;2;2;yes;yes;-20.78;16.77
MS;Quarterly Journal of Economics;124.1;2009;197;Brown;3;;no;expe;4;reg;2;3;yes;yes;-2.30;1.20
MS;Quarterly Journal of Economics;124.1;2009;197;Brown;3;;no;expe;4;reg;3;1;yes;yes;-458.17;6264.08
MS;Quarterly Journal of Economics;124.1;2009;197;Brown;3;;no;expe;4;reg;3;2;yes;yes;-57.27;16.77
MS;Quarterly Journal of Economics;124.1;2009;197;Brown;3;;no;expe;4;reg;3;3;yes;yes;-3.73;1.20
MS;Quarterly Journal of Economics;124.1;2009;197;Brown;3;;no;expe;4;reg;4;1;yes;yes;105.10;6264.08
MS;Quarterly Journal of Economics;124.1;2009;197;Brown;3;;no;expe;4;reg;4;2;yes;yes;44.28;16.77
MS;Quarterly Journal of Economics;124.1;2009;197;Brown;3;;no;expe;4;reg;4;3;yes;yes;1.14;1.20
MS;Quarterly Journal of Economics;124.1;2009;197;Brown;3;;no;expe;4;reg;5;1;yes;yes;-656.71;6264.08
MS;Quarterly Journal of Economics;124.1;2009;197;Brown;3;;no;expe;4;reg;5;2;yes;yes;-26.28;16.77
MS;Quarterly Journal of Economics;124.1;2009;197;Brown;3;;no;expe;4;reg;5;3;yes;yes;-6.93;1.20
MS;Quarterly Journal of Economics;124.1;2009;197;Brown;3;;no;expe;5;2sls;1;1;yes;yes;0.904;0.230
MS;Quarterly Journal of Economics;124.1;2009;197;Brown;3;;no;expe;5;2sls;2;1;yes;yes;0.619;0.211
MS;Quarterly Journal of Economics;124.1;2009;197;Brown;3;;no;expe;5;2sls;2;2;yes;yes;0.721;0.134
MS;Quarterly Journal of Economics;124.1;2009;197;Brown;3;;no;expe;6;2sls;1;1;no;yes;0.415;0.339;;;
MS;Quarterly Journal of Economics;124.1;2009;197;Brown;3;;no;expe;6;2sls;1;2;no;yes;0.273;0.352;;;
MS;Quarterly Journal of Economics;124.1;2009;197;Brown;3;;no;expe;6;2sls;1;3;no;yes;0.778;0.323;;;
MS;Quarterly Journal of Economics;124.1;2009;197;Brown;3;;no;expe;6;2sls;1;4;no;yes;0.585;0.450;;;
MS;Quarterly Journal of Economics;124.1;2009;197;Brown;3;;no;expe;6;2sls;2;1;no;yes;0.671;0.230;;;
MS;Quarterly Journal of Economics;124.1;2009;197;Brown;3;;no;expe;6;2sls;2;2;no;yes;0.421;0.424;;;
MS;Quarterly Journal of Economics;124.1;2009;197;Brown;3;;no;expe;6;2sls;2;3;no;yes;0.974;0.192;;;
MS;Quarterly Journal of Economics;124.1;2009;197;Brown;3;;no;expe;6;2sls;2;4;no;yes;1.025;0.398;;;
MS;Quarterly Journal of Economics;124.1;2009;301;Calvert;3;;no;other;2a;reg;1;1;no;yes;;;;;-53.10
MS;Quarterly Journal of Economics;124.1;2009;301;Calvert;3;;no;other;2a;reg;1;2;no;yes;;;;;-27.90
MS;Quarterly Journal of Economics;124.1;2009;301;Calvert;3;;no;other;2a;reg;1;3;no;yes;;;;;-28.70
MS;Quarterly Journal of Economics;124.1;2009;301;Calvert;3;;no;other;2a;reg;1;4;no;yes;;;;;-35.50
MS;Quarterly Journal of Economics;124.1;2009;301;Calvert;3;;no;other;2a;reg;2;1;no;yes;;;;;-144.00
MS;Quarterly Journal of Economics;124.1;2009;301;Calvert;3;;no;other;2a;reg;2;2;no;yes;;;;;-88.10
MS;Quarterly Journal of Economics;124.1;2009;301;Calvert;3;;no;other;2a;reg;2;3;no;yes;;;;;-82.40
MS;Quarterly Journal of Economics;124.1;2009;301;Calvert;3;;no;other;2a;reg;2;4;no;yes;;;;;-78.70
MS;Quarterly Journal of Economics;124.1;2009;301;Calvert;3;;no;other;2a;reg;3;2;no;yes;;;;;33.40
MS;Quarterly Journal of Economics;124.1;2009;301;Calvert;3;;no;other;2a;reg;3;3;no;yes;;;;;-34.10
MS;Quarterly Journal of Economics;124.1;2009;301;Calvert;3;;no;other;2a;reg;3;4;no;yes;;;;;-18.20
MS;Quarterly Journal of Economics;124.1;2009;301;Calvert;3;;no;other;2a;reg;4;1;no;yes;;;;;40.40
MS;Quarterly Journal of Economics;124.1;2009;301;Calvert;3;;no;other;2a;reg;5;1;no;yes;;;;;-38.10
MS;Quarterly Journal of Economics;124.1;2009;301;Calvert;3;;no;other;2a;reg;6;1;no;yes;;;;;-26.70
MS;Quarterly Journal of Economics;124.1;2009;301;Calvert;3;;no;other;2b;reg;1;1;no;yes;;;;;-45.40
MS;Quarterly Journal of Economics;124.1;2009;301;Calvert;3;;no;other;2b;reg;1;2;no;yes;;;;;-35.80
MS;Quarterly Journal of Economics;124.1;2009;301;Calvert;3;;no;other;2b;reg;1;3;no;yes;;;;;-24.30
MS;Quarterly Journal of Economics;124.1;2009;301;Calvert;3;;no;other;2b;reg;1;4;no;yes;;;;;-30.40
MS;Quarterly Journal of Economics;124.1;2009;301;Calvert;3;;no;other;2b;reg;2;1;no;yes;;;;;-137.00
MS;Quarterly Journal of Economics;124.1;2009;301;Calvert;3;;no;other;2b;reg;2;2;no;yes;;;;;-123.00
MS;Quarterly Journal of Economics;124.1;2009;301;Calvert;3;;no;other;2b;reg;2;3;no;yes;;;;;-62.90
MS;Quarterly Journal of Economics;124.1;2009;301;Calvert;3;;no;other;2b;reg;2;4;no;yes;;;;;-56.40
MS;Quarterly Journal of Economics;124.1;2009;301;Calvert;3;;no;other;2b;reg;3;2;no;yes;;;;;37.50
MS;Quarterly Journal of Economics;124.1;2009;301;Calvert;3;;no;other;2b;reg;3;3;no;yes;;;;;-22.50
MS;Quarterly Journal of Economics;124.1;2009;301;Calvert;3;;no;other;2b;reg;3;4;no;yes;;;;;-15.00
MS;Quarterly Journal of Economics;124.1;2009;301;Calvert;3;;no;other;2b;reg;4;1;no;yes;;;;;42.80
MS;Quarterly Journal of Economics;124.1;2009;301;Calvert;3;;no;other;2b;reg;5;1;no;yes;;;;;-22.70
MS;Quarterly Journal of Economics;124.1;2009;301;Calvert;3;;no;other;2b;reg;6;1;no;yes;;;;;-20.30
MS;Quarterly Journal of Economics;124.1;2009;301;Calvert;3;;no;other;3a;reg;1;1;no;no;;;;;-44.20
MS;Quarterly Journal of Economics;124.1;2009;301;Calvert;3;;no;other;3a;ivreg;1;2;no;no;;;;;39.30
MS;Quarterly Journal of Economics;124.1;2009;301;Calvert;3;;no;other;3a;reg;2;1;no;no;;;;;-42.00
MS;Quarterly Journal of Economics;124.1;2009;301;Calvert;3;;no;other;3a;ivreg;2;2;no;no;;;;;-46.30
MS;Quarterly Journal of Economics;124.1;2009;301;Calvert;3;;no;other;3a;reg;3;1;no;no;;;;;-92.10
MS;Quarterly Journal of Economics;124.1;2009;301;Calvert;3;;no;other;3a;ivreg;3;2;no;no;;;;;-31.50
MS;Quarterly Journal of Economics;124.1;2009;301;Calvert;3;;no;other;3b;reg;1;1;no;no;;;;;410.00
MS;Quarterly Journal of Economics;124.1;2009;301;Calvert;3;;no;other;3b;ivreg;1;2;no;no;;;;;68.90
MS;Quarterly Journal of Economics;124.1;2009;301;Calvert;3;;no;other;3b;reg;2;1;no;no;;;;;-41.50
MS;Quarterly Journal of Economics;124.1;2009;301;Calvert;3;;no;other;3b;ivreg;2;2;no;no;;;;;-35.60
MS;Quarterly Journal of Economics;124.1;2009;301;Calvert;3;;no;other;3b;reg;3;1;no;no;;;;;-95.60
MS;Quarterly Journal of Economics;124.1;2009;301;Calvert;3;;no;other;3b;ivreg;3;2;no;no;;;;;-39.90
MS;Quarterly Journal of Economics;124.1;2009;301;Calvert;3;;no;other;4a;reg;1;1;no;no;;;;;69.80
MS;Quarterly Journal of Economics;124.1;2009;301;Calvert;3;;no;other;4a;reg;1;3;no;no;;;;;68.80
MS;Quarterly Journal of Economics;124.1;2009;301;Calvert;3;;no;other;4a;reg;2;2;no;no;;;;;-8.30
MS;Quarterly Journal of Economics;124.1;2009;301;Calvert;3;;no;other;4a;reg;2;4;no;no;;;;;-6.21
MS;Quarterly Journal of Economics;124.1;2009;301;Calvert;3;;no;other;4a;reg;3;2;no;no;;;;;-8.59
MS;Quarterly Journal of Economics;124.1;2009;301;Calvert;3;;no;other;4a;reg;3;4;no;no;;;;;-6.96
MS;Quarterly Journal of Economics;124.1;2009;301;Calvert;3;;no;other;8a;reg;1;1;no;no;;;;;-61.10
MS;Quarterly Journal of Economics;124.1;2009;301;Calvert;3;;no;other;8a;reg;1;2;no;no;;;;;-9.87
MS;Quarterly Journal of Economics;124.1;2009;301;Calvert;3;;no;other;8a;reg;1;3;no;no;;;;;-32.20
MS;Quarterly Journal of Economics;124.1;2009;301;Calvert;3;;no;other;8a;reg;1;4;no;no;;;;;-56.70
MS;Quarterly Journal of Economics;124.1;2009;301;Calvert;3;;no;other;8a;reg;2;1;no;no;;;;;-46.10
MS;Quarterly Journal of Economics;124.1;2009;301;Calvert;3;;no;other;8a;reg;2;2;no;no;;;;;-34.60
MS;Quarterly Journal of Economics;124.1;2009;301;Calvert;3;;no;other;8a;reg;2;3;no;no;;;;;-26.40
MS;Quarterly Journal of Economics;124.1;2009;301;Calvert;3;;no;other;8a;reg;2;4;no;no;;;;;-16.70
MS;Quarterly Journal of Economics;124.1;2009;301;Calvert;3;;no;other;8b;reg;1;1;no;no;;;;;-22.70
MS;Quarterly Journal of Economics;124.1;2009;301;Calvert;3;;no;other;8b;reg;1;2;no;no;;;;;-10.40
MS;Quarterly Journal of Economics;124.1;2009;301;Calvert;3;;no;other;8b;reg;1;3;no;no;;;;;-11.50
MS;Quarterly Journal of Economics;124.1;2009;301;Calvert;3;;no;other;8b;reg;1;4;no;no;;;;;-18.60
MS;Quarterly Journal of Economics;124.1;2009;301;Calvert;3;;no;other;8b;reg;2;1;no;no;;;;;-93.90
MS;Quarterly Journal of Economics;124.1;2009;301;Calvert;3;;no;other;8b;reg;2;2;no;no;;;;;-64.50
MS;Quarterly Journal of Economics;124.1;2009;301;Calvert;3;;no;other;8b;reg;2;3;no;no;;;;;-71.00
MS;Quarterly Journal of Economics;124.1;2009;301;Calvert;3;;no;other;8b;reg;2;4;no;no;;;;;-49.10
MS;Quarterly Journal of Economics;124.1;2009;399;Ferreira;2;;no;other;2_1;reg;1;2;no;yes;0.129;0.029;;;
MS;Quarterly Journal of Economics;124.1;2009;399;Ferreira;2;;no;other;2_1;reg;1;3;no;yes;0.058;0.022;;;
MS;Quarterly Journal of Economics;124.1;2009;399;Ferreira;2;;no;other;2_1;reg;1;4;no;yes;-0.016;0.022;;;
MS;Quarterly Journal of Economics;124.1;2009;399;Ferreira;2;;no;other;2_1;reg;1;5;no;yes;-0.014;0.013;;;
MS;Quarterly Journal of Economics;124.1;2009;399;Ferreira;2;;no;other;2_1;reg;2;2;no;yes;0.160;0.033;;;
MS;Quarterly Journal of Economics;124.1;2009;399;Ferreira;2;;no;other;2_1;reg;2;3;no;yes;0.091;0.024;;;
MS;Quarterly Journal of Economics;124.1;2009;399;Ferreira;2;;no;other;2_1;reg;2;4;no;yes;-0.013;0.021;;;
MS;Quarterly Journal of Economics;124.1;2009;399;Ferreira;2;;no;other;2_1;reg;2;5;no;yes;0.008;0.012;;;
MS;Quarterly Journal of Economics;124.1;2009;399;Ferreira;2;;no;other;2_1;reg;3;2;no;yes;0.131;0.029;;;
MS;Quarterly Journal of Economics;124.1;2009;399;Ferreira;2;;no;other;2_1;reg;3;3;no;yes;0.060;0.022;;;
MS;Quarterly Journal of Economics;124.1;2009;399;Ferreira;2;;no;other;2_1;reg;3;4;no;yes;-0.009;0.021
MS;Quarterly Journal of Economics;124.1;2009;399;Ferreira;2;;no;other;2_1;reg;3;5;no;yes;-0.015;0.013
MS;Quarterly Journal of Economics;124.1;2009;399;Ferreira;2;;no;other;2_1;reg;4;2;no;yes;0.169;0.035
MS;Quarterly Journal of Economics;124.1;2009;399;Ferreira;2;;no;other;2_1;reg;4;3;no;yes;0.087;0.028
MS;Quarterly Journal of Economics;124.1;2009;399;Ferreira;2;;no;other;2_1;reg;4;4;no;yes;0.017;0.016
MS;Quarterly Journal of Economics;124.1;2009;399;Ferreira;2;;no;other;2_1;reg;4;5;no;yes;0.014;0.011
MS;Quarterly Journal of Economics;124.1;2009;399;Ferreira;2;;no;other;2_2;reg;1;2;no;yes;0.007;0.006
MS;Quarterly Journal of Economics;124.1;2009;399;Ferreira;2;;no;other;2_2;reg;1;3;no;yes;0.012;0.006
MS;Quarterly Journal of Economics;124.1;2009;399;Ferreira;2;;no;other;2_2;reg;1;4;no;yes;0.020;0.014
MS;Quarterly Journal of Economics;124.1;2009;399;Ferreira;2;;no;other;2_2;reg;1;5;no;yes;0.007;0.008
MS;Quarterly Journal of Economics;124.1;2009;399;Ferreira;2;;no;other;2_2;reg;2;2;no;yes;-0.011;0.004
MS;Quarterly Journal of Economics;124.1;2009;399;Ferreira;2;;no;other;2_2;reg;2;3;no;yes;-0.003;0.004
MS;Quarterly Journal of Economics;124.1;2009;399;Ferreira;2;;no;other;2_2;reg;2;4;no;yes;-0.001;0.007
MS;Quarterly Journal of Economics;124.1;2009;399;Ferreira;2;;no;other;2_2;reg;2;5;no;yes;0.003;0.004
MS;Quarterly Journal of Economics;124.1;2009;399;Ferreira;2;;no;other;2_2;reg;3;2;no;yes;-0.004;0.003
MS;Quarterly Journal of Economics;124.1;2009;399;Ferreira;2;;no;other;2_2;reg;3;3;no;yes;-0.001;0.003
MS;Quarterly Journal of Economics;124.1;2009;399;Ferreira;2;;no;other;2_2;reg;3;4;no;yes;0.006;0.005
MS;Quarterly Journal of Economics;124.1;2009;399;Ferreira;2;;no;other;2_2;reg;3;5;no;yes;0.006;0.003
MS;Quarterly Journal of Economics;124.1;2009;399;Ferreira;2;;no;other;2_2;reg;4;2;no;yes;-0.023;0.009
MS;Quarterly Journal of Economics;124.1;2009;399;Ferreira;2;;no;other;2_2;reg;4;3;no;yes;-0.009;0.007
MS;Quarterly Journal of Economics;124.1;2009;399;Ferreira;2;;no;other;2_2;reg;4;4;no;yes;0.011;0.014
MS;Quarterly Journal of Economics;124.1;2009;399;Ferreira;2;;no;other;2_2;reg;4;5;no;yes;0.009;0.009
MS;Quarterly Journal of Economics;124.1;2009;399;Ferreira;2;;no;other;2_3;reg;1;2;no;yes;0.019;0.006
MS;Quarterly Journal of Economics;124.1;2009;399;Ferreira;2;;no;other;2_3;reg;1;3;no;yes;0.008;0.004
MS;Quarterly Journal of Economics;124.1;2009;399;Ferreira;2;;no;other;2_3;reg;1;4;no;yes;0.005;0.007
MS;Quarterly Journal of Economics;124.1;2009;399;Ferreira;2;;no;other;2_3;reg;1;5;no;yes;0.011;0.005
MS;Quarterly Journal of Economics;124.1;2009;399;Ferreira;2;;no;other;2_3;reg;2;2;no;yes;0.824;0.200
MS;Quarterly Journal of Economics;124.1;2009;399;Ferreira;2;;no;other;2_3;reg;2;3;no;yes;0.454;0.186
MS;Quarterly Journal of Economics;124.1;2009;399;Ferreira;2;;no;other;2_3;reg;2;4;no;yes;0.597;0.338
MS;Quarterly Journal of Economics;124.1;2009;399;Ferreira;2;;no;other;2_3;reg;2;5;no;yes;0.619;0.288
MS;Quarterly Journal of Economics;124.1;2009;399;Ferreira;2;;no;other;2_3;reg;3;2;no;yes;0.948;0.780
MS;Quarterly Journal of Economics;124.1;2009;399;Ferreira;2;;no;other;2_3;reg;3;3;no;yes;0.194;0.732
MS;Quarterly Journal of Economics;124.1;2009;399;Ferreira;2;;no;other;2_3;reg;3;4;no;yes;0.572;1.024
MS;Quarterly Journal of Economics;124.1;2009;399;Ferreira;2;;no;other;2_3;reg;3;5;no;yes;1.579;0.735
MS;Quarterly Journal of Economics;124.1;2009;399;Ferreira;2;;no;other;2_3;reg;4;2;no;yes;1.923;1.718
MS;Quarterly Journal of Economics;124.1;2009;399;Ferreira;2;;no;other;2_3;reg;4;3;no;yes;1.389;1.700
MS;Quarterly Journal of Economics;124.1;2009;399;Ferreira;2;;no;other;2_3;reg;4;4;no;yes;1.798;2.489
MS;Quarterly Journal of Economics;124.1;2009;399;Ferreira;2;;no;other;2_3;reg;4;5;no;yes;5.424;1.869
MS;Quarterly Journal of Economics;124.1;2009;399;Ferreira;2;;no;other;4;reg;1;1;no;yes;-0.007;0.035
MS;Quarterly Journal of Economics;124.1;2009;399;Ferreira;2;;no;other;4;reg;1;2;no;yes;0.016;0.032
MS;Quarterly Journal of Economics;124.1;2009;399;Ferreira;2;;no;other;4;reg;1;3;no;yes;0.017;0.033
MS;Quarterly Journal of Economics;124.1;2009;399;Ferreira;2;;no;other;4;reg;1;4;no;yes;-0.007;0.035
MS;Quarterly Journal of Economics;124.1;2009;399;Ferreira;2;;no;other;4;reg;1;5;no;yes;-0.048;0.027
MS;Quarterly Journal of Economics;124.1;2009;399;Ferreira;2;;no;other;4;reg;1;6;no;yes;-0.033;0.031
MS;Quarterly Journal of Economics;124.1;2009;399;Ferreira;2;;no;other;4;reg;2;1;no;yes;0.045;0.034
MS;Quarterly Journal of Economics;124.1;2009;399;Ferreira;2;;no;other;4;reg;2;2;no;yes;0.088;0.042
MS;Quarterly Journal of Economics;124.1;2009;399;Ferreira;2;;no;other;4;reg;2;3;no;yes;0.030;0.032
MS;Quarterly Journal of Economics;124.1;2009;399;Ferreira;2;;no;other;4;reg;2;4;no;yes;0.086;0.038
MS;Quarterly Journal of Economics;124.1;2009;399;Ferreira;2;;no;other;4;reg;2;5;no;yes;0.062;0.026
MS;Quarterly Journal of Economics;124.1;2009;399;Ferreira;2;;no;other;4;reg;2;6;no;yes;0.068;0.029
MS;Quarterly Journal of Economics;124.1;2009;399;Ferreira;2;;no;other;4;reg;3;1;no;yes;0.005;0.033
MS;Quarterly Journal of Economics;124.1;2009;399;Ferreira;2;;no;other;4;reg;3;2;no;yes;-0.009;0.039
MS;Quarterly Journal of Economics;124.1;2009;399;Ferreira;2;;no;other;4;reg;3;3;no;yes;-0.024;0.032
MS;Quarterly Journal of Economics;124.1;2009;399;Ferreira;2;;no;other;4;reg;3;4;no;yes;-0.024;0.038
MS;Quarterly Journal of Economics;124.1;2009;399;Ferreira;2;;no;other;4;reg;3;5;no;yes;0.017;0.026
MS;Quarterly Journal of Economics;124.1;2009;399;Ferreira;2;;no;other;4;reg;3;6;no;yes;0.012;0.033
MS;Quarterly Journal of Economics;124.1;2009;349;Jayachandran;2;;no;other;4;reg;1;1;yes;yes;-1.204;0.198
MS;Quarterly Journal of Economics;124.1;2009;349;Jayachandran;2;;no;other;4;reg;1;2;yes;yes;-1.302;0.302
MS;Quarterly Journal of Economics;124.1;2009;349;Jayachandran;2;;no;other;4;reg;1;3;yes;yes;-1.214;0.183
MS;Quarterly Journal of Economics;124.1;2009;349;Jayachandran;2;;no;other;4;reg;1;4;yes;yes;-1.373;0.330
MS;Quarterly Journal of Economics;124.1;2009;349;Jayachandran;2;;no;other;4;reg;2;1;yes;yes;0.054;0.089
MS;Quarterly Journal of Economics;124.1;2009;349;Jayachandran;2;;no;other;4;reg;2;2;yes;yes;-0.033;0.120
MS;Quarterly Journal of Economics;124.1;2009;349;Jayachandran;2;;no;other;4;reg;2;3;yes;yes;0.078;0.119
MS;Quarterly Journal of Economics;124.1;2009;349;Jayachandran;2;;no;other;4;reg;2;4;yes;yes;-0.043;0.180
MS;Quarterly Journal of Economics;124.1;2009;349;Jayachandran;2;;no;other;4;reg;3;1;yes;yes;-0.088;0.050
MS;Quarterly Journal of Economics;124.1;2009;349;Jayachandran;2;;no;other;4;reg;3;2;yes;yes;-0.081;0.065
MS;Quarterly Journal of Economics;124.1;2009;349;Jayachandran;2;;no;other;4;reg;3;3;yes;yes;-0.064;0.033
MS;Quarterly Journal of Economics;124.1;2009;349;Jayachandran;2;;no;other;4;reg;3;4;yes;yes;-0.018;0.055
MS;Quarterly Journal of Economics;124.1;2009;349;Jayachandran;2;;no;other;4;reg;4;1;yes;yes;0.133;0.0164
MS;Quarterly Journal of Economics;124.1;2009;349;Jayachandran;2;;no;other;4;reg;4;2;yes;yes;0.081;0.192
MS;Quarterly Journal of Economics;124.1;2009;349;Jayachandran;2;;no;other;4;reg;4;3;yes;yes;0.265;0.145
MS;Quarterly Journal of Economics;124.1;2009;349;Jayachandran;2;;no;other;4;reg;4;4;yes;yes;0.213;0.265
MS;Quarterly Journal of Economics;124.1;2009;349;Jayachandran;2;;no;other;5a;reg;1;1;yes;yes;-0.879;0.453
MS;Quarterly Journal of Economics;124.1;2009;349;Jayachandran;2;;no;other;5a;reg;1;2;yes;yes;-1.652;0.656
MS;Quarterly Journal of Economics;124.1;2009;349;Jayachandran;2;;no;other;5a;reg;1;3;yes;yes;-1.008;0.470
MS;Quarterly Journal of Economics;124.1;2009;349;Jayachandran;2;;no;other;5a;reg;1;4;yes;yes;-1.07;1.763
MS;Quarterly Journal of Economics;124.1;2009;349;Jayachandran;2;;no;other;5a;reg;1;5;yes;yes;-0.728;0.745
MS;Quarterly Journal of Economics;124.1;2009;349;Jayachandran;2;;no;other;5a;reg;1;6;yes;yes;-1.354;0.797
MS;Quarterly Journal of Economics;124.1;2009;349;Jayachandran;2;;no;other;5a;reg;1;7;yes;yes;-0.626;0.968
MS;Quarterly Journal of Economics;124.1;2009;349;Jayachandran;2;;no;other;5b;reg;1;1;yes;yes;-0.151;0.469
MS;Quarterly Journal of Economics;124.1;2009;349;Jayachandran;2;;no;other;5b;reg;1;2;yes;yes;0.273;0.450
MS;Quarterly Journal of Economics;124.1;2009;349;Jayachandran;2;;no;other;5b;reg;1;3;yes;yes;-0.149;0.476
MS;Quarterly Journal of Economics;124.1;2009;349;Jayachandran;2;;no;other;5c;reg;1;1;yes;yes;-0.904;0.458
MS;Quarterly Journal of Economics;124.1;2009;349;Jayachandran;2;;no;other;5c;reg;1;2;yes;yes;-0.686;0.995
MS;Quarterly Journal of Economics;124.1;2009;349;Jayachandran;2;;no;other;5c;reg;1;3;yes;yes;-0.979;0.460
MS;Quarterly Journal of Economics;124.1;2009;349;Jayachandran;2;;no;other;6;reg;1;1;yes;no;-0.879;0.453
MS;Quarterly Journal of Economics;124.1;2009;349;Jayachandran;2;;no;other;6;reg;1;2;yes;no;-0.922;1.087
MS;Quarterly Journal of Economics;124.1;2009;349;Jayachandran;2;;no;other;6;reg;1;3;yes;no;-1.378;0.754
MS;Quarterly Journal of Economics;124.1;2009;349;Jayachandran;2;;no;other;6;reg;1;4;yes;no;-0.637;0.447
MS;Quarterly Journal of Economics;124.1;2009;349;Jayachandran;2;;no;other;6;reg;1;5;yes;no;-1.621;0.743
MS;Quarterly Journal of Economics;124.1;2009;349;Jayachandran;2;;no;other;6;reg;1;6;yes;no;-0.210;0.551
MS;Quarterly Journal of Economics;124.1;2009;349;Jayachandran;2;;no;other;6;reg;1;7;yes;no;-0.683;0.398
MS;Quarterly Journal of Economics;124.1;2009;349;Jayachandran;2;;no;other;6;reg;1;8;yes;no;-0.731;0.455
MS;Quarterly Journal of Economics;124.1;2009;349;Jayachandran;2;;no;other;6;reg;1;9;yes;no;-1.160;0.473
MS;Quarterly Journal of Economics;124.1;2009;349;Jayachandran;2;;no;other;7;reg;1;1;yes;no;0.0106;0.0137
MS;Quarterly Journal of Economics;124.1;2009;349;Jayachandran;2;;no;other;7;reg;1;2;yes;no;0.0127;0.0131
MS;Quarterly Journal of Economics;124.1;2009;349;Jayachandran;2;;no;other;7;reg;1;3;yes;no;0.0246;0.0076
MS;Quarterly Journal of Economics;124.1;2009;349;Jayachandran;2;;no;other;7;reg;1;4;yes;no;0.0195;0.0078
MS;Quarterly Journal of Economics;124.1;2009;349;Jayachandran;2;;no;other;7;reg;1;5;yes;no;-2.711;0.8437
MS;Quarterly Journal of Economics;124.1;2009;349;Jayachandran;2;;no;other;7;reg;1;7;yes;no;0.016;0.028
MS;Quarterly Journal of Economics;124.1;2009;349;Jayachandran;2;;no;other;7;reg;1;8;yes;no;-0.133;0.057
MS;Quarterly Journal of Economics;124.1;2009;349;Jayachandran;2;;no;other;7;reg;1;9;yes;no;-0.132;0.057
MS;Quarterly Journal of Economics;124.1;2009;349;Jayachandran;2;;no;other;7;reg;3;6;yes;no;-2.681;1.257
MS;Quarterly Journal of Economics;124.1;2009;349;Jayachandran;2;;no;other;8;reg;1;1;yes;no;-5.15;2.55
MS;Quarterly Journal of Economics;124.1;2009;349;Jayachandran;2;;no;other;8;reg;1;2;yes;no;-4.77;2.65
MS;Quarterly Journal of Economics;124.1;2009;349;Jayachandran;2;;no;other;8;reg;1;3;yes;no;-3.86;3.01
MS;Quarterly Journal of Economics;124.1;2009;349;Jayachandran;2;;no;other;8;reg;2;1;yes;no;-0.08;0.02
MS;Quarterly Journal of Economics;124.1;2009;349;Jayachandran;2;;no;other;8;reg;2;2;yes;no;-0.10;0.02
MS;Quarterly Journal of Economics;124.1;2009;349;Jayachandran;2;;no;other;8;reg;2;3;yes;no;-0.09;0.03
MS;Quarterly Journal of Economics;124.1;2009;349;Jayachandran;2;;no;other;8;reg;3;1;yes;no;-0.07;0.02
MS;Quarterly Journal of Economics;124.1;2009;349;Jayachandran;2;;no;other;8;reg;3;2;yes;no;-0.08;0.03
MS;Quarterly Journal of Economics;124.1;2009;349;Jayachandran;2;;no;other;8;reg;3;3;yes;no;-0.09;0.04
MS;Quarterly Journal of Economics;124.1;2009;1;Lemieux;3;;yes;other;3;reg;1;1;no;yes;0.0873;0.0152
MS;Quarterly Journal of Economics;124.1;2009;1;Lemieux;3;;yes;other;3;reg;1;2;no;yes;0.0597;0.0166
MS;Quarterly Journal of Economics;124.1;2009;1;Lemieux;3;;yes;other;3;reg;1;3;no;yes;0.0400;0.0117
MS;Quarterly Journal of Economics;124.1;2009;1;Lemieux;3;;yes;other;3;reg;1;4;no;yes;0.0225;0.0120
MS;Quarterly Journal of Economics;124.1;2009;1;Lemieux;3;;yes;other;3;reg;2;2;no;yes;0.0794;0.0167
MS;Quarterly Journal of Economics;124.1;2009;1;Lemieux;3;;yes;other;3;reg;2;4;no;yes;0.0380;0.0084
MS;Quarterly Journal of Economics;124.1;2009;1;Lemieux;3;;yes;other;3;reg;2;5;no;yes;0.0462;0.0059
MS;Quarterly Journal of Economics;124.1;2009;1;Lemieux;3;;yes;other;4;reg;1;3;no;yes;-0.4526;0.1019
MS;Quarterly Journal of Economics;124.1;2009;1;Lemieux;3;;yes;other;4;reg;1;4;no;yes;-0.2061;0.0723
MS;Quarterly Journal of Economics;124.1;2009;1;Lemieux;3;;yes;other;4;reg;1;5;no;yes;-0.2406;0.1251
MS;Quarterly Journal of Economics;124.1;2009;1;Lemieux;3;;yes;other;4;reg;1;6;no;yes;0.1414;0.0998
